T15,T70,date,sensorName
15,42,2023-01-07 00:00:00.287,Lband
15,43,2023-01-07 00:01:00.217,Lband
15,43,2023-01-07 00:02:00.311,Lband
15,43,2023-01-07 00:03:00.253,Lband
15,43,2023-01-07 00:04:00.213,Lband
15,42,2023-01-07 00:05:00.251,Lband
15,42,2023-01-07 00:06:00.266,Lband
15,43,2023-01-07 00:07:00.305,Lband
15,43,2023-01-07 00:08:00.188,Lband
15,42,2023-01-07 00:09:00.258,Lband
15,43,2023-01-07 00:10:00.273,Lband
15,43,2023-01-07 00:11:00.253,Lband
15,43,2023-01-07 00:12:00.315,Lband
15,43,2023-01-07 00:13:00.300,Lband
15,43,2023-01-07 00:14:00.200,Lband
15,43,2023-01-07 00:15:00.188,Lband
15,43,2023-01-07 00:16:00.274,Lband
15,42,2023-01-07 00:17:00.304,Lband
15,42,2023-01-07 00:18:00.208,Lband
15,42,2023-01-07 00:19:00.243,Lband
15,43,2023-01-07 00:20:00.249,Lband
15,42,2023-01-07 00:21:00.299,Lband
15,42,2023-01-07 00:22:00.224,Lband
15,42,2023-01-07 00:23:00.253,Lband
15,42,2023-01-07 00:24:00.251,Lband
15,43,2023-01-07 00:25:00.309,Lband
15,43,2023-01-07 00:26:00.262,Lband
15,42,2023-01-07 00:27:00.297,Lband
15,42,2023-01-07 00:28:00.449,Lband
15,42,2023-01-07 00:29:00.344,Lband
15,42,2023-01-07 00:30:00.315,Lband
15,42,2023-01-07 00:31:00.206,Lband
15,42,2023-01-07 00:32:00.306,Lband
15,42,2023-01-07 00:33:00.252,Lband
15,43,2023-01-07 00:34:00.258,Lband
15,43,2023-01-07 00:35:00.203,Lband
15,43,2023-01-07 00:36:00.389,Lband
15,43,2023-01-07 00:37:00.297,Lband
15,43,2023-01-07 00:38:00.278,Lband
15,42,2023-01-07 00:39:00.258,Lband
15,42,2023-01-07 00:40:00.235,Lband
15,42,2023-01-07 00:41:00.183,Lband
15,42,2023-01-07 00:42:00.291,Lband
15,42,2023-01-07 00:43:00.261,Lband
15,42,2023-01-07 00:44:00.318,Lband
15,42,2023-01-07 00:45:00.199,Lband
15,42,2023-01-07 00:46:00.294,Lband
15,42,2023-01-07 00:47:00.266,Lband
15,42,2023-01-07 00:48:00.244,Lband
15,43,2023-01-07 00:49:00.230,Lband
15,42,2023-01-07 00:50:00.256,Lband
15,42,2023-01-07 00:51:00.207,Lband
15,42,2023-01-07 00:52:00.314,Lband
15,42,2023-01-07 00:53:00.245,Lband
15,42,2023-01-07 00:54:00.250,Lband
15,42,2023-01-07 00:55:00.423,Lband
15,42,2023-01-07 00:56:00.254,Lband
15,42,2023-01-07 00:57:00.254,Lband
15,42,2023-01-07 00:58:00.247,Lband
15,42,2023-01-07 00:59:00.292,Lband
15,42,2023-01-07 01:00:00.316,Lband
15,42,2023-01-07 01:01:00.282,Lband
15,42,2023-01-07 01:02:00.209,Lband
15,42,2023-01-07 01:03:00.310,Lband
15,42,2023-01-07 01:04:00.231,Lband
15,42,2023-01-07 01:05:00.259,Lband
15,42,2023-01-07 01:06:00.256,Lband
15,42,2023-01-07 01:07:00.313,Lband
15,42,2023-01-07 01:08:00.244,Lband
15,42,2023-01-07 01:09:00.225,Lband
15,42,2023-01-07 01:10:00.184,Lband
15,42,2023-01-07 01:11:00.312,Lband
15,42,2023-01-07 01:12:00.309,Lband
15,42,2023-01-07 01:13:00.237,Lband
15,42,2023-01-07 01:14:00.252,Lband
15,42,2023-01-07 01:15:00.254,Lband
15,42,2023-01-07 01:16:00.227,Lband
15,42,2023-01-07 01:17:00.211,Lband
15,42,2023-01-07 01:18:00.311,Lband
15,42,2023-01-07 01:19:00.281,Lband
15,42,2023-01-07 01:20:00.265,Lband
15,41,2023-01-07 01:21:00.292,Lband
15,41,2023-01-07 01:22:00.195,Lband
15,41,2023-01-07 01:23:00.243,Lband
15,41,2023-01-07 01:24:00.358,Lband
15,41,2023-01-07 01:25:00.291,Lband
15,41,2023-01-07 01:26:00.314,Lband
15,41,2023-01-07 01:27:00.200,Lband
15,41,2023-01-07 01:28:00.315,Lband
15,42,2023-01-07 01:29:00.305,Lband
15,42,2023-01-07 01:30:00.309,Lband
15,42,2023-01-07 01:31:00.278,Lband
15,42,2023-01-07 01:32:00.229,Lband
15,42,2023-01-07 01:33:00.259,Lband
15,42,2023-01-07 01:34:00.307,Lband
15,42,2023-01-07 01:35:00.243,Lband
15,42,2023-01-07 01:36:00.377,Lband
15,42,2023-01-07 01:37:00.305,Lband
15,42,2023-01-07 01:38:00.251,Lband
15,42,2023-01-07 01:39:00.234,Lband
15,42,2023-01-07 01:40:00.301,Lband
15,42,2023-01-07 01:41:00.263,Lband
15,42,2023-01-07 01:42:00.255,Lband
15,42,2023-01-07 01:43:00.255,Lband
15,42,2023-01-07 01:44:00.259,Lband
15,42,2023-01-07 01:45:00.351,Lband
15,42,2023-01-07 01:46:00.256,Lband
15,42,2023-01-07 01:47:00.300,Lband
15,42,2023-01-07 01:48:00.242,Lband
15,42,2023-01-07 01:49:00.291,Lband
15,42,2023-01-07 01:50:00.255,Lband
14,41,2023-01-07 01:51:00.358,Lband
15,42,2023-01-07 01:52:00.292,Lband
15,42,2023-01-07 01:53:00.235,Lband
15,42,2023-01-07 01:54:00.367,Lband
15,41,2023-01-07 01:55:00.357,Lband
15,41,2023-01-07 01:56:00.291,Lband
15,41,2023-01-07 01:57:00.266,Lband
15,41,2023-01-07 01:58:00.362,Lband
15,41,2023-01-07 01:59:00.286,Lband
15,41,2023-01-07 02:00:00.355,Lband
15,41,2023-01-07 02:01:00.184,Lband
15,41,2023-01-07 02:02:00.260,Lband
15,41,2023-01-07 02:03:00.342,Lband
14,41,2023-01-07 02:04:00.235,Lband
14,41,2023-01-07 02:05:00.192,Lband
15,41,2023-01-07 02:06:00.331,Lband
15,41,2023-01-07 02:07:00.226,Lband
15,41,2023-01-07 02:08:00.265,Lband
15,41,2023-01-07 02:09:00.230,Lband
14,41,2023-01-07 02:10:00.232,Lband
14,41,2023-01-07 02:11:00.335,Lband
15,41,2023-01-07 02:12:00.346,Lband
15,41,2023-01-07 02:13:00.245,Lband
15,41,2023-01-07 02:14:00.328,Lband
15,41,2023-01-07 02:15:00.253,Lband
15,41,2023-01-07 02:16:00.216,Lband
15,41,2023-01-07 02:17:00.249,Lband
15,42,2023-01-07 02:18:00.358,Lband
15,42,2023-01-07 02:19:00.247,Lband
15,42,2023-01-07 02:20:00.331,Lband
15,42,2023-01-07 02:21:00.272,Lband
15,42,2023-01-07 02:22:00.241,Lband
15,42,2023-01-07 02:23:00.319,Lband
15,42,2023-01-07 02:24:00.247,Lband
15,42,2023-01-07 02:25:00.269,Lband
15,42,2023-01-07 02:26:00.345,Lband
15,42,2023-01-07 02:27:00.229,Lband
15,42,2023-01-07 02:28:00.237,Lband
15,42,2023-01-07 02:29:00.195,Lband
15,42,2023-01-07 02:30:00.266,Lband
15,42,2023-01-07 02:31:00.316,Lband
15,42,2023-01-07 02:32:00.346,Lband
15,42,2023-01-07 02:33:00.194,Lband
15,42,2023-01-07 02:34:00.314,Lband
15,42,2023-01-07 02:35:00.203,Lband
15,42,2023-01-07 02:36:00.362,Lband
15,42,2023-01-07 02:37:00.321,Lband
15,42,2023-01-07 02:38:00.248,Lband
15,42,2023-01-07 02:39:00.208,Lband
15,42,2023-01-07 02:40:00.355,Lband
15,42,2023-01-07 02:41:00.250,Lband
15,42,2023-01-07 02:42:00.359,Lband
15,42,2023-01-07 02:43:00.184,Lband
15,42,2023-01-07 02:44:00.214,Lband
15,42,2023-01-07 02:45:00.251,Lband
15,42,2023-01-07 02:46:00.306,Lband
15,43,2023-01-07 02:47:00.242,Lband
15,42,2023-01-07 02:48:00.306,Lband
15,42,2023-01-07 02:49:00.174,Lband
15,42,2023-01-07 02:50:00.248,Lband
15,42,2023-01-07 02:51:00.210,Lband
15,42,2023-01-07 02:52:00.283,Lband
15,42,2023-01-07 02:53:00.298,Lband
15,42,2023-01-07 02:54:00.316,Lband
15,42,2023-01-07 02:55:00.235,Lband
15,42,2023-01-07 02:56:00.356,Lband
15,42,2023-01-07 02:57:00.386,Lband
15,43,2023-01-07 02:58:00.254,Lband
15,42,2023-01-07 02:59:00.244,Lband
15,42,2023-01-07 03:00:00.182,Lband
15,42,2023-01-07 03:01:00.243,Lband
15,42,2023-01-07 03:02:00.311,Lband
15,42,2023-01-07 03:03:00.233,Lband
15,42,2023-01-07 03:04:00.171,Lband
15,42,2023-01-07 03:05:00.317,Lband
15,42,2023-01-07 03:06:00.183,Lband
15,42,2023-01-07 03:07:00.290,Lband
15,42,2023-01-07 03:08:00.244,Lband
15,42,2023-01-07 03:09:00.293,Lband
15,42,2023-01-07 03:10:00.193,Lband
15,42,2023-01-07 03:11:00.286,Lband
15,42,2023-01-07 03:12:00.243,Lband
15,42,2023-01-07 03:13:00.359,Lband
15,42,2023-01-07 03:14:00.225,Lband
15,42,2023-01-07 03:15:00.365,Lband
15,42,2023-01-07 03:16:00.281,Lband
15,42,2023-01-07 03:17:00.218,Lband
15,42,2023-01-07 03:18:00.361,Lband
15,42,2023-01-07 03:19:00.208,Lband
15,42,2023-01-07 03:20:00.219,Lband
15,42,2023-01-07 03:21:00.233,Lband
15,42,2023-01-07 03:22:00.389,Lband
15,42,2023-01-07 03:23:00.309,Lband
15,42,2023-01-07 03:24:00.323,Lband
15,42,2023-01-07 03:25:00.305,Lband
15,42,2023-01-07 03:26:00.315,Lband
15,42,2023-01-07 03:27:00.352,Lband
15,42,2023-01-07 03:28:00.190,Lband
15,42,2023-01-07 03:29:00.200,Lband
15,42,2023-01-07 03:30:00.279,Lband
15,42,2023-01-07 03:31:00.354,Lband
15,42,2023-01-07 03:32:00.219,Lband
15,42,2023-01-07 03:33:00.331,Lband
15,42,2023-01-07 03:34:00.279,Lband
15,42,2023-01-07 03:35:00.300,Lband
15,42,2023-01-07 03:36:00.308,Lband
15,42,2023-01-07 03:37:00.224,Lband
15,42,2023-01-07 03:38:00.331,Lband
15,42,2023-01-07 03:39:00.270,Lband
15,42,2023-01-07 03:40:00.320,Lband
15,42,2023-01-07 03:41:00.345,Lband
15,42,2023-01-07 03:42:00.273,Lband
15,42,2023-01-07 03:43:00.337,Lband
14,42,2023-01-07 03:44:00.277,Lband
14,42,2023-01-07 03:45:00.150,Lband
15,42,2023-01-07 03:46:00.283,Lband
15,42,2023-01-07 03:47:00.205,Lband
15,42,2023-01-07 03:48:00.353,Lband
15,41,2023-01-07 03:49:00.309,Lband
15,41,2023-01-07 03:50:00.292,Lband
15,41,2023-01-07 03:51:00.304,Lband
14,41,2023-01-07 03:52:00.411,Lband
14,40,2023-01-07 03:53:00.293,Lband
14,40,2023-01-07 03:54:00.266,Lband
14,40,2023-01-07 03:55:00.350,Lband
14,40,2023-01-07 03:56:00.289,Lband
14,40,2023-01-07 03:57:00.354,Lband
14,40,2023-01-07 03:58:00.281,Lband
14,40,2023-01-07 03:59:00.358,Lband
14,40,2023-01-07 04:00:00.254,Lband
14,40,2023-01-07 04:01:00.325,Lband
14,40,2023-01-07 04:02:00.347,Lband
14,40,2023-01-07 04:03:00.289,Lband
14,40,2023-01-07 04:04:00.262,Lband
14,40,2023-01-07 04:05:00.331,Lband
14,40,2023-01-07 04:06:00.308,Lband
15,41,2023-01-07 04:07:00.336,Lband
15,41,2023-01-07 04:08:00.311,Lband
14,41,2023-01-07 04:09:00.328,Lband
15,41,2023-01-07 04:10:00.340,Lband
14,41,2023-01-07 04:11:00.190,Lband
14,41,2023-01-07 04:12:00.353,Lband
14,41,2023-01-07 04:13:00.328,Lband
14,40,2023-01-07 04:14:00.335,Lband
14,40,2023-01-07 04:15:00.362,Lband
14,40,2023-01-07 04:16:00.306,Lband
14,40,2023-01-07 04:17:00.354,Lband
14,40,2023-01-07 04:18:00.187,Lband
14,40,2023-01-07 04:19:00.295,Lband
14,41,2023-01-07 04:20:00.282,Lband
15,41,2023-01-07 04:21:00.306,Lband
14,41,2023-01-07 04:22:00.188,Lband
14,40,2023-01-07 04:23:00.314,Lband
14,40,2023-01-07 04:24:00.302,Lband
14,40,2023-01-07 04:25:00.333,Lband
14,40,2023-01-07 04:26:00.316,Lband
14,40,2023-01-07 04:27:00.339,Lband
14,40,2023-01-07 04:28:00.295,Lband
14,41,2023-01-07 04:29:00.282,Lband
15,41,2023-01-07 04:30:00.298,Lband
15,41,2023-01-07 04:31:00.285,Lband
15,41,2023-01-07 04:32:00.319,Lband
14,41,2023-01-07 04:33:00.292,Lband
14,41,2023-01-07 04:34:00.302,Lband
14,41,2023-01-07 04:35:00.328,Lband
15,41,2023-01-07 04:36:00.365,Lband
15,41,2023-01-07 04:37:00.345,Lband
15,41,2023-01-07 04:38:00.271,Lband
15,41,2023-01-07 04:39:00.255,Lband
14,41,2023-01-07 04:40:00.245,Lband
15,42,2023-01-07 04:41:00.313,Lband
14,42,2023-01-07 04:42:00.309,Lband
14,42,2023-01-07 04:43:00.218,Lband
14,42,2023-01-07 04:44:00.305,Lband
14,42,2023-01-07 04:45:00.321,Lband
14,42,2023-01-07 04:46:00.218,Lband
15,42,2023-01-07 04:47:00.257,Lband
15,42,2023-01-07 04:48:00.230,Lband
14,42,2023-01-07 04:49:00.185,Lband
15,41,2023-01-07 04:50:00.282,Lband
14,41,2023-01-07 04:51:00.250,Lband
14,41,2023-01-07 04:52:00.247,Lband
15,42,2023-01-07 04:53:00.189,Lband
14,41,2023-01-07 04:54:00.245,Lband
14,41,2023-01-07 04:55:00.193,Lband
15,41,2023-01-07 04:56:00.298,Lband
14,41,2023-01-07 04:57:00.290,Lband
14,41,2023-01-07 04:58:00.245,Lband
15,41,2023-01-07 04:59:00.186,Lband
15,41,2023-01-07 05:00:00.289,Lband
14,41,2023-01-07 05:01:00.218,Lband
14,41,2023-01-07 05:02:00.216,Lband
14,41,2023-01-07 05:03:00.245,Lband
14,41,2023-01-07 05:04:00.251,Lband
14,41,2023-01-07 05:05:00.271,Lband
14,41,2023-01-07 05:06:00.256,Lband
14,41,2023-01-07 05:07:00.249,Lband
14,41,2023-01-07 05:08:00.241,Lband
14,41,2023-01-07 05:09:00.279,Lband
14,41,2023-01-07 05:10:00.221,Lband
14,41,2023-01-07 05:11:00.180,Lband
14,41,2023-01-07 05:12:00.180,Lband
14,41,2023-01-07 05:13:00.303,Lband
14,41,2023-01-07 05:14:00.211,Lband
14,41,2023-01-07 05:15:00.260,Lband
14,40,2023-01-07 05:16:00.199,Lband
14,40,2023-01-07 05:17:00.246,Lband
14,40,2023-01-07 05:18:00.261,Lband
14,40,2023-01-07 05:19:00.245,Lband
14,41,2023-01-07 05:20:00.293,Lband
14,41,2023-01-07 05:21:00.310,Lband
14,41,2023-01-07 05:22:00.271,Lband
14,41,2023-01-07 05:23:00.300,Lband
14,41,2023-01-07 05:24:00.269,Lband
14,41,2023-01-07 05:25:00.246,Lband
14,41,2023-01-07 05:26:00.187,Lband
14,41,2023-01-07 05:27:00.224,Lband
14,41,2023-01-07 05:28:00.289,Lband
14,41,2023-01-07 05:29:00.244,Lband
14,41,2023-01-07 05:30:00.147,Lband
14,41,2023-01-07 05:31:00.199,Lband
14,41,2023-01-07 05:32:00.235,Lband
14,41,2023-01-07 05:33:00.311,Lband
14,41,2023-01-07 05:34:00.222,Lband
14,41,2023-01-07 05:35:00.282,Lband
15,41,2023-01-07 05:36:00.257,Lband
14,41,2023-01-07 05:37:00.257,Lband
14,41,2023-01-07 05:38:00.200,Lband
14,40,2023-01-07 05:39:00.223,Lband
14,40,2023-01-07 05:40:00.240,Lband
14,40,2023-01-07 05:41:00.254,Lband
14,40,2023-01-07 05:42:00.207,Lband
14,40,2023-01-07 05:43:00.251,Lband
14,40,2023-01-07 05:44:00.245,Lband
14,40,2023-01-07 05:45:00.255,Lband
14,40,2023-01-07 05:46:00.319,Lband
14,40,2023-01-07 05:47:00.234,Lband
14,40,2023-01-07 05:48:00.329,Lband
14,40,2023-01-07 05:49:00.196,Lband
14,40,2023-01-07 05:50:00.191,Lband
14,40,2023-01-07 05:51:00.254,Lband
14,40,2023-01-07 05:52:00.196,Lband
14,40,2023-01-07 05:53:00.259,Lband
14,40,2023-01-07 05:54:00.191,Lband
14,39,2023-01-07 05:55:00.183,Lband
14,40,2023-01-07 05:56:00.352,Lband
14,40,2023-01-07 05:57:00.207,Lband
14,39,2023-01-07 05:58:00.314,Lband
14,39,2023-01-07 05:59:00.287,Lband
14,39,2023-01-07 06:00:00.244,Lband
14,39,2023-01-07 06:01:00.293,Lband
14,39,2023-01-07 06:02:00.210,Lband
14,39,2023-01-07 06:03:00.246,Lband
14,39,2023-01-07 06:04:00.228,Lband
14,39,2023-01-07 06:05:00.259,Lband
14,39,2023-01-07 06:06:00.274,Lband
14,39,2023-01-07 06:07:00.305,Lband
14,39,2023-01-07 06:08:00.314,Lband
14,39,2023-01-07 06:09:00.333,Lband
14,39,2023-01-07 06:10:00.275,Lband
14,39,2023-01-07 06:11:00.311,Lband
14,39,2023-01-07 06:12:00.243,Lband
14,39,2023-01-07 06:13:00.270,Lband
14,39,2023-01-07 06:14:00.250,Lband
14,39,2023-01-07 06:15:00.282,Lband
14,39,2023-01-07 06:16:00.248,Lband
14,39,2023-01-07 06:17:00.299,Lband
14,39,2023-01-07 06:18:00.283,Lband
14,39,2023-01-07 06:19:00.298,Lband
14,39,2023-01-07 06:20:00.284,Lband
14,39,2023-01-07 06:21:00.302,Lband
14,39,2023-01-07 06:22:00.224,Lband
14,39,2023-01-07 06:23:00.253,Lband
14,39,2023-01-07 06:24:00.306,Lband
14,39,2023-01-07 06:25:00.209,Lband
14,39,2023-01-07 06:26:00.273,Lband
14,39,2023-01-07 06:27:00.198,Lband
14,39,2023-01-07 06:28:00.204,Lband
14,40,2023-01-07 06:29:00.312,Lband
14,40,2023-01-07 06:30:00.196,Lband
14,40,2023-01-07 06:31:00.193,Lband
14,40,2023-01-07 06:32:00.250,Lband
14,40,2023-01-07 06:33:00.248,Lband
14,40,2023-01-07 06:34:00.236,Lband
14,40,2023-01-07 06:35:00.266,Lband
14,39,2023-01-07 06:36:00.304,Lband
14,39,2023-01-07 06:37:00.199,Lband
14,39,2023-01-07 06:38:00.218,Lband
14,39,2023-01-07 06:39:00.271,Lband
14,39,2023-01-07 06:40:00.296,Lband
14,39,2023-01-07 06:41:00.298,Lband
14,39,2023-01-07 06:42:00.206,Lband
14,39,2023-01-07 06:43:00.175,Lband
14,39,2023-01-07 06:44:00.304,Lband
14,39,2023-01-07 06:45:00.240,Lband
14,39,2023-01-07 06:46:00.259,Lband
14,39,2023-01-07 06:47:00.314,Lband
14,39,2023-01-07 06:48:00.201,Lband
14,39,2023-01-07 06:49:00.285,Lband
14,39,2023-01-07 06:50:00.221,Lband
14,39,2023-01-07 06:51:00.249,Lband
14,39,2023-01-07 06:52:00.272,Lband
14,39,2023-01-07 06:53:00.312,Lband
14,39,2023-01-07 06:54:00.291,Lband
14,39,2023-01-07 06:55:00.235,Lband
14,39,2023-01-07 06:56:00.286,Lband
14,39,2023-01-07 06:57:00.264,Lband
14,39,2023-01-07 06:58:00.284,Lband
14,39,2023-01-07 06:59:00.245,Lband
14,39,2023-01-07 07:00:00.220,Lband
14,39,2023-01-07 07:01:00.242,Lband
14,39,2023-01-07 07:02:00.235,Lband
14,39,2023-01-07 07:03:00.239,Lband
14,39,2023-01-07 07:04:00.241,Lband
14,39,2023-01-07 07:05:00.311,Lband
14,39,2023-01-07 07:06:00.230,Lband
14,39,2023-01-07 07:07:00.266,Lband
14,39,2023-01-07 07:08:00.301,Lband
14,39,2023-01-07 07:09:00.190,Lband
14,39,2023-01-07 07:10:00.246,Lband
14,39,2023-01-07 07:11:00.248,Lband
14,39,2023-01-07 07:12:00.239,Lband
14,39,2023-01-07 07:13:00.219,Lband
14,39,2023-01-07 07:14:00.217,Lband
14,39,2023-01-07 07:15:00.360,Lband
14,39,2023-01-07 07:16:00.385,Lband
14,39,2023-01-07 07:17:00.312,Lband
14,39,2023-01-07 07:18:00.239,Lband
14,40,2023-01-07 07:19:00.305,Lband
14,40,2023-01-07 07:20:00.229,Lband
14,40,2023-01-07 07:21:00.300,Lband
14,40,2023-01-07 07:22:00.231,Lband
14,40,2023-01-07 07:23:00.297,Lband
14,40,2023-01-07 07:24:00.193,Lband
14,41,2023-01-07 07:25:00.294,Lband
14,40,2023-01-07 07:26:00.184,Lband
14,40,2023-01-07 07:27:00.294,Lband
14,40,2023-01-07 07:28:00.251,Lband
14,40,2023-01-07 07:29:00.238,Lband
14,40,2023-01-07 07:30:00.208,Lband
14,40,2023-01-07 07:31:00.137,Lband
14,40,2023-01-07 07:32:00.226,Lband
14,40,2023-01-07 07:33:00.270,Lband
14,40,2023-01-07 07:34:00.263,Lband
14,40,2023-01-07 07:35:00.183,Lband
14,40,2023-01-07 07:36:00.206,Lband
14,40,2023-01-07 07:37:00.180,Lband
14,40,2023-01-07 07:38:00.296,Lband
14,40,2023-01-07 07:39:00.222,Lband
14,40,2023-01-07 07:40:00.281,Lband
14,40,2023-01-07 07:41:00.230,Lband
14,40,2023-01-07 07:42:00.269,Lband
14,40,2023-01-07 07:43:00.249,Lband
14,40,2023-01-07 07:44:00.256,Lband
14,40,2023-01-07 07:45:00.237,Lband
14,40,2023-01-07 07:46:00.403,Lband
14,40,2023-01-07 07:47:00.246,Lband
14,40,2023-01-07 07:48:00.266,Lband
14,40,2023-01-07 07:49:00.246,Lband
14,40,2023-01-07 07:50:00.202,Lband
14,40,2023-01-07 07:51:00.242,Lband
14,40,2023-01-07 07:52:00.337,Lband
14,40,2023-01-07 07:53:00.274,Lband
14,40,2023-01-07 07:54:00.339,Lband
14,40,2023-01-07 07:55:00.362,Lband
14,40,2023-01-07 07:56:00.208,Lband
14,39,2023-01-07 07:57:00.248,Lband
14,40,2023-01-07 07:58:00.189,Lband
14,40,2023-01-07 07:59:00.197,Lband
14,40,2023-01-07 08:00:00.228,Lband
14,40,2023-01-07 08:01:00.250,Lband
14,40,2023-01-07 08:02:00.271,Lband
14,40,2023-01-07 08:03:00.254,Lband
14,40,2023-01-07 08:04:00.224,Lband
14,40,2023-01-07 08:05:00.258,Lband
14,40,2023-01-07 08:06:00.326,Lband
14,40,2023-01-07 08:07:00.329,Lband
14,40,2023-01-07 08:08:00.194,Lband
14,40,2023-01-07 08:09:00.260,Lband
14,40,2023-01-07 08:10:00.235,Lband
14,40,2023-01-07 08:11:00.275,Lband
14,40,2023-01-07 08:12:00.254,Lband
14,40,2023-01-07 08:13:00.176,Lband
14,40,2023-01-07 08:14:00.237,Lband
14,40,2023-01-07 08:15:00.224,Lband
14,40,2023-01-07 08:16:00.391,Lband
14,40,2023-01-07 08:17:00.265,Lband
14,40,2023-01-07 08:18:00.236,Lband
14,40,2023-01-07 08:19:00.198,Lband
14,40,2023-01-07 08:20:00.270,Lband
14,40,2023-01-07 08:21:00.238,Lband
14,40,2023-01-07 08:22:00.312,Lband
14,40,2023-01-07 08:23:00.270,Lband
14,40,2023-01-07 08:24:00.313,Lband
14,40,2023-01-07 08:25:00.311,Lband
14,40,2023-01-07 08:26:00.316,Lband
14,40,2023-01-07 08:27:00.257,Lband
14,40,2023-01-07 08:28:00.254,Lband
14,40,2023-01-07 08:29:00.246,Lband
14,40,2023-01-07 08:30:00.349,Lband
14,40,2023-01-07 08:31:00.245,Lband
14,40,2023-01-07 08:32:00.245,Lband
14,40,2023-01-07 08:33:00.306,Lband
14,40,2023-01-07 08:34:00.309,Lband
14,40,2023-01-07 08:35:00.263,Lband
14,40,2023-01-07 08:36:00.303,Lband
14,41,2023-01-07 08:37:00.304,Lband
14,40,2023-01-07 08:38:00.249,Lband
14,41,2023-01-07 08:39:00.312,Lband
14,41,2023-01-07 08:40:00.361,Lband
14,40,2023-01-07 08:41:00.247,Lband
14,41,2023-01-07 08:42:00.347,Lband
14,40,2023-01-07 08:43:00.319,Lband
14,40,2023-01-07 08:44:00.319,Lband
14,40,2023-01-07 08:45:00.175,Lband
14,40,2023-01-07 08:46:00.207,Lband
14,41,2023-01-07 08:47:00.255,Lband
14,41,2023-01-07 08:48:00.391,Lband
14,41,2023-01-07 08:49:00.235,Lband
14,41,2023-01-07 08:50:00.223,Lband
15,41,2023-01-07 08:51:00.183,Lband
14,41,2023-01-07 08:52:00.292,Lband
14,41,2023-01-07 08:53:00.224,Lband
15,41,2023-01-07 08:54:00.309,Lband
14,41,2023-01-07 08:55:00.299,Lband
14,41,2023-01-07 08:56:00.336,Lband
14,41,2023-01-07 08:57:00.306,Lband
14,41,2023-01-07 08:58:00.305,Lband
14,41,2023-01-07 08:59:00.350,Lband
15,41,2023-01-07 09:00:00.198,Lband
14,41,2023-01-07 09:01:00.308,Lband
14,41,2023-01-07 09:02:00.286,Lband
15,42,2023-01-07 09:03:00.312,Lband
15,42,2023-01-07 09:04:00.298,Lband
15,42,2023-01-07 09:05:00.304,Lband
15,42,2023-01-07 09:06:00.357,Lband
15,42,2023-01-07 09:07:00.194,Lband
15,42,2023-01-07 09:08:00.219,Lband
15,42,2023-01-07 09:09:00.327,Lband
15,42,2023-01-07 09:10:00.297,Lband
14,41,2023-01-07 09:11:00.219,Lband
14,41,2023-01-07 09:12:00.295,Lband
15,41,2023-01-07 09:13:00.186,Lband
15,41,2023-01-07 09:14:00.364,Lband
15,41,2023-01-07 09:15:00.222,Lband
14,41,2023-01-07 09:16:00.357,Lband
14,41,2023-01-07 09:17:00.320,Lband
14,41,2023-01-07 09:18:00.343,Lband
15,41,2023-01-07 09:19:00.270,Lband
15,41,2023-01-07 09:20:00.303,Lband
15,41,2023-01-07 09:21:00.342,Lband
14,41,2023-01-07 09:22:00.276,Lband
15,41,2023-01-07 09:23:00.323,Lband
14,41,2023-01-07 09:24:00.363,Lband
15,41,2023-01-07 09:25:00.355,Lband
15,41,2023-01-07 09:26:00.301,Lband
15,41,2023-01-07 09:27:00.196,Lband
14,41,2023-01-07 09:28:00.264,Lband
15,41,2023-01-07 09:29:00.344,Lband
15,41,2023-01-07 09:30:00.261,Lband
15,41,2023-01-07 09:31:00.183,Lband
15,41,2023-01-07 09:32:00.212,Lband
15,41,2023-01-07 09:33:00.185,Lband
15,41,2023-01-07 09:34:00.274,Lband
15,41,2023-01-07 09:35:00.317,Lband
15,41,2023-01-07 09:36:00.293,Lband
15,41,2023-01-07 09:37:00.329,Lband
15,41,2023-01-07 09:38:00.292,Lband
15,41,2023-01-07 09:39:00.305,Lband
15,41,2023-01-07 09:40:00.340,Lband
15,41,2023-01-07 09:41:00.282,Lband
15,41,2023-01-07 09:42:00.308,Lband
15,41,2023-01-07 09:43:00.389,Lband
15,41,2023-01-07 09:44:00.277,Lband
15,41,2023-01-07 09:45:00.358,Lband
15,41,2023-01-07 09:46:00.347,Lband
15,41,2023-01-07 09:47:00.300,Lband
15,41,2023-01-07 09:48:00.299,Lband
15,41,2023-01-07 09:49:00.184,Lband
15,41,2023-01-07 09:50:00.257,Lband
15,41,2023-01-07 09:51:00.303,Lband
15,41,2023-01-07 09:52:00.193,Lband
15,41,2023-01-07 09:53:00.295,Lband
15,41,2023-01-07 09:54:00.244,Lband
15,41,2023-01-07 09:55:00.192,Lband
15,41,2023-01-07 09:56:00.287,Lband
15,41,2023-01-07 09:57:00.242,Lband
15,41,2023-01-07 09:58:00.254,Lband
15,41,2023-01-07 09:59:00.312,Lband
15,41,2023-01-07 10:00:00.296,Lband
15,41,2023-01-07 10:01:00.348,Lband
15,41,2023-01-07 10:02:00.320,Lband
15,41,2023-01-07 10:03:00.372,Lband
15,41,2023-01-07 10:04:00.322,Lband
15,41,2023-01-07 10:05:00.303,Lband
15,41,2023-01-07 10:06:00.282,Lband
15,41,2023-01-07 10:07:00.179,Lband
15,41,2023-01-07 10:08:00.356,Lband
15,41,2023-01-07 10:09:00.291,Lband
15,41,2023-01-07 10:10:00.294,Lband
15,41,2023-01-07 10:11:00.423,Lband
15,41,2023-01-07 10:12:00.341,Lband
15,41,2023-01-07 10:13:00.319,Lband
15,41,2023-01-07 10:14:00.298,Lband
15,41,2023-01-07 10:15:00.328,Lband
15,41,2023-01-07 10:16:00.314,Lband
15,41,2023-01-07 10:17:00.336,Lband
15,41,2023-01-07 10:18:00.334,Lband
15,41,2023-01-07 10:19:00.278,Lband
15,41,2023-01-07 10:20:00.305,Lband
15,41,2023-01-07 10:21:00.323,Lband
15,42,2023-01-07 10:22:00.229,Lband
15,42,2023-01-07 10:23:00.267,Lband
15,42,2023-01-07 10:24:00.310,Lband
15,42,2023-01-07 10:25:00.339,Lband
15,42,2023-01-07 10:26:00.323,Lband
15,42,2023-01-07 10:27:00.286,Lband
15,42,2023-01-07 10:28:00.363,Lband
15,43,2023-01-07 10:29:00.251,Lband
15,43,2023-01-07 10:30:00.347,Lband
15,43,2023-01-07 10:31:00.294,Lband
15,43,2023-01-07 10:32:00.242,Lband
15,43,2023-01-07 10:33:00.310,Lband
15,43,2023-01-07 10:34:00.359,Lband
15,43,2023-01-07 10:35:00.312,Lband
15,43,2023-01-07 10:36:00.304,Lband
16,43,2023-01-07 10:37:00.232,Lband
16,43,2023-01-07 10:38:00.304,Lband
15,43,2023-01-07 10:39:00.313,Lband
16,44,2023-01-07 10:40:00.470,Lband
16,44,2023-01-07 10:41:00.307,Lband
16,44,2023-01-07 10:42:00.315,Lband
16,44,2023-01-07 10:43:00.320,Lband
16,44,2023-01-07 10:44:00.258,Lband
16,44,2023-01-07 10:45:00.334,Lband
16,44,2023-01-07 10:46:00.317,Lband
16,44,2023-01-07 10:47:00.228,Lband
16,44,2023-01-07 10:48:00.299,Lband
15,43,2023-01-07 10:49:00.251,Lband
15,43,2023-01-07 10:50:00.300,Lband
15,43,2023-01-07 10:51:00.311,Lband
15,43,2023-01-07 10:52:00.286,Lband
15,43,2023-01-07 10:53:00.291,Lband
15,43,2023-01-07 10:54:00.353,Lband
15,43,2023-01-07 10:55:00.346,Lband
15,43,2023-01-07 10:56:00.358,Lband
16,43,2023-01-07 10:57:00.243,Lband
16,43,2023-01-07 10:58:00.307,Lband
15,43,2023-01-07 10:59:00.291,Lband
15,43,2023-01-07 11:00:00.354,Lband
16,43,2023-01-07 11:01:00.250,Lband
16,44,2023-01-07 11:02:00.273,Lband
16,44,2023-01-07 11:03:00.341,Lband
16,44,2023-01-07 11:04:00.240,Lband
16,44,2023-01-07 11:05:00.297,Lband
16,44,2023-01-07 11:06:00.296,Lband
16,44,2023-01-07 11:07:00.289,Lband
16,44,2023-01-07 11:08:00.225,Lband
16,44,2023-01-07 11:09:00.306,Lband
16,44,2023-01-07 11:10:00.376,Lband
16,44,2023-01-07 11:11:00.365,Lband
16,44,2023-01-07 11:12:00.293,Lband
16,44,2023-01-07 11:13:00.328,Lband
16,44,2023-01-07 11:14:00.265,Lband
16,44,2023-01-07 11:15:00.323,Lband
16,44,2023-01-07 11:16:00.364,Lband
16,44,2023-01-07 11:17:00.258,Lband
16,44,2023-01-07 11:18:00.321,Lband
16,44,2023-01-07 11:19:00.261,Lband
16,44,2023-01-07 11:20:00.245,Lband
16,44,2023-01-07 11:21:00.302,Lband
16,44,2023-01-07 11:22:00.302,Lband
16,44,2023-01-07 11:23:00.222,Lband
16,44,2023-01-07 11:24:00.248,Lband
16,44,2023-01-07 11:25:00.283,Lband
16,44,2023-01-07 11:26:00.311,Lband
16,44,2023-01-07 11:27:00.302,Lband
16,44,2023-01-07 11:28:00.277,Lband
16,44,2023-01-07 11:29:00.205,Lband
16,44,2023-01-07 11:30:00.263,Lband
16,44,2023-01-07 11:31:00.314,Lband
16,43,2023-01-07 11:32:00.250,Lband
16,43,2023-01-07 11:33:00.251,Lband
16,43,2023-01-07 11:34:00.317,Lband
16,43,2023-01-07 11:35:00.185,Lband
16,43,2023-01-07 11:36:00.251,Lband
16,43,2023-01-07 11:37:00.286,Lband
16,43,2023-01-07 11:38:00.203,Lband
16,43,2023-01-07 11:39:00.225,Lband
16,43,2023-01-07 11:40:00.317,Lband
16,43,2023-01-07 11:41:00.254,Lband
16,43,2023-01-07 11:42:00.288,Lband
16,43,2023-01-07 11:43:00.251,Lband
16,43,2023-01-07 11:44:00.248,Lband
16,43,2023-01-07 11:45:00.174,Lband
16,42,2023-01-07 11:46:00.263,Lband
16,42,2023-01-07 11:47:00.278,Lband
16,42,2023-01-07 11:48:00.233,Lband
16,42,2023-01-07 11:49:00.249,Lband
16,42,2023-01-07 11:50:00.298,Lband
16,42,2023-01-07 11:51:00.256,Lband
16,42,2023-01-07 11:52:00.244,Lband
16,42,2023-01-07 11:53:00.224,Lband
16,42,2023-01-07 11:54:00.249,Lband
16,42,2023-01-07 11:55:00.189,Lband
16,42,2023-01-07 11:56:00.205,Lband
16,42,2023-01-07 11:57:00.177,Lband
16,42,2023-01-07 11:58:00.207,Lband
16,42,2023-01-07 11:59:00.247,Lband
16,42,2023-01-07 12:00:00.301,Lband
16,42,2023-01-07 12:01:00.281,Lband
16,42,2023-01-07 12:02:00.254,Lband
16,42,2023-01-07 12:03:00.276,Lband
16,42,2023-01-07 12:04:00.249,Lband
16,42,2023-01-07 12:05:00.209,Lband
16,42,2023-01-07 12:06:00.241,Lband
16,42,2023-01-07 12:07:00.204,Lband
16,42,2023-01-07 12:08:00.300,Lband
16,42,2023-01-07 12:09:00.379,Lband
16,42,2023-01-07 12:10:00.297,Lband
16,42,2023-01-07 12:11:00.261,Lband
16,42,2023-01-07 12:12:00.241,Lband
16,42,2023-01-07 12:13:00.298,Lband
16,42,2023-01-07 12:14:00.260,Lband
16,42,2023-01-07 12:15:00.366,Lband
16,42,2023-01-07 12:16:00.250,Lband
16,42,2023-01-07 12:17:00.282,Lband
16,42,2023-01-07 12:18:00.213,Lband
16,42,2023-01-07 12:19:00.361,Lband
16,42,2023-01-07 12:20:00.235,Lband
16,42,2023-01-07 12:21:00.243,Lband
16,42,2023-01-07 12:22:00.229,Lband
16,42,2023-01-07 12:23:00.367,Lband
16,42,2023-01-07 12:24:00.208,Lband
16,42,2023-01-07 12:25:00.420,Lband
16,42,2023-01-07 12:26:00.203,Lband
16,42,2023-01-07 12:27:00.391,Lband
16,42,2023-01-07 12:28:00.246,Lband
16,42,2023-01-07 12:29:00.261,Lband
16,42,2023-01-07 12:30:00.196,Lband
16,42,2023-01-07 12:31:00.364,Lband
16,42,2023-01-07 12:32:00.203,Lband
16,42,2023-01-07 12:33:00.243,Lband
16,42,2023-01-07 12:34:00.214,Lband
16,42,2023-01-07 12:35:00.267,Lband
16,42,2023-01-07 12:36:00.330,Lband
16,42,2023-01-07 12:37:00.404,Lband
16,42,2023-01-07 12:38:00.196,Lband
16,42,2023-01-07 12:39:00.245,Lband
16,42,2023-01-07 12:40:00.255,Lband
16,42,2023-01-07 12:41:00.246,Lband
16,42,2023-01-07 12:42:00.250,Lband
16,43,2023-01-07 12:43:00.261,Lband
16,43,2023-01-07 12:44:00.176,Lband
16,43,2023-01-07 12:45:00.248,Lband
16,43,2023-01-07 12:46:00.239,Lband
16,43,2023-01-07 12:47:00.261,Lband
16,43,2023-01-07 12:48:00.217,Lband
16,43,2023-01-07 12:49:00.233,Lband
16,43,2023-01-07 12:50:00.269,Lband
16,43,2023-01-07 12:51:00.256,Lband
16,43,2023-01-07 12:52:00.333,Lband
16,44,2023-01-07 12:53:00.213,Lband
16,44,2023-01-07 12:54:00.278,Lband
16,44,2023-01-07 12:55:00.189,Lband
16,44,2023-01-07 12:56:00.258,Lband
16,44,2023-01-07 12:57:00.262,Lband
16,44,2023-01-07 12:58:00.340,Lband
16,44,2023-01-07 12:59:00.247,Lband
16,44,2023-01-07 13:00:00.249,Lband
16,44,2023-01-07 13:01:00.237,Lband
16,44,2023-01-07 13:02:00.273,Lband
16,44,2023-01-07 13:03:00.249,Lband
16,44,2023-01-07 13:04:00.249,Lband
16,44,2023-01-07 13:05:00.402,Lband
16,44,2023-01-07 13:06:00.361,Lband
16,44,2023-01-07 13:07:00.324,Lband
16,44,2023-01-07 13:08:00.254,Lband
16,44,2023-01-07 13:09:00.230,Lband
16,44,2023-01-07 13:10:00.221,Lband
16,44,2023-01-07 13:11:00.240,Lband
16,44,2023-01-07 13:12:00.330,Lband
16,44,2023-01-07 13:13:00.234,Lband
16,44,2023-01-07 13:14:00.297,Lband
16,44,2023-01-07 13:15:00.263,Lband
16,44,2023-01-07 13:16:00.325,Lband
16,44,2023-01-07 13:17:00.306,Lband
16,44,2023-01-07 13:18:00.227,Lband
16,44,2023-01-07 13:19:00.306,Lband
16,44,2023-01-07 13:20:00.348,Lband
16,44,2023-01-07 13:21:00.235,Lband
16,44,2023-01-07 13:22:00.255,Lband
16,44,2023-01-07 13:23:00.216,Lband
17,44,2023-01-07 13:24:00.309,Lband
16,44,2023-01-07 13:25:00.244,Lband
17,44,2023-01-07 13:26:00.318,Lband
16,44,2023-01-07 13:27:00.301,Lband
16,44,2023-01-07 13:28:00.231,Lband
17,44,2023-01-07 13:29:00.192,Lband
17,44,2023-01-07 13:30:00.302,Lband
17,44,2023-01-07 13:31:00.250,Lband
17,44,2023-01-07 13:32:00.215,Lband
17,44,2023-01-07 13:33:00.237,Lband
17,44,2023-01-07 13:34:00.205,Lband
16,44,2023-01-07 13:35:00.253,Lband
17,44,2023-01-07 13:36:00.321,Lband
17,44,2023-01-07 13:37:00.211,Lband
17,44,2023-01-07 13:38:00.203,Lband
17,44,2023-01-07 13:39:00.247,Lband
17,44,2023-01-07 13:40:00.201,Lband
17,44,2023-01-07 13:41:00.354,Lband
17,44,2023-01-07 13:42:00.310,Lband
17,44,2023-01-07 13:43:00.247,Lband
17,44,2023-01-07 13:44:00.360,Lband
17,44,2023-01-07 13:45:00.348,Lband
17,44,2023-01-07 13:46:00.301,Lband
17,44,2023-01-07 13:47:00.229,Lband
17,44,2023-01-07 13:48:00.175,Lband
17,44,2023-01-07 13:49:00.294,Lband
17,44,2023-01-07 13:50:00.225,Lband
17,44,2023-01-07 13:51:00.298,Lband
17,44,2023-01-07 13:52:00.230,Lband
17,44,2023-01-07 13:53:00.304,Lband
17,44,2023-01-07 13:54:00.216,Lband
17,44,2023-01-07 13:55:00.307,Lband
17,44,2023-01-07 13:56:00.192,Lband
17,44,2023-01-07 13:57:00.175,Lband
17,44,2023-01-07 13:58:00.289,Lband
17,44,2023-01-07 13:59:00.150,Lband
17,44,2023-01-07 14:00:00.231,Lband
17,44,2023-01-07 14:01:00.172,Lband
17,44,2023-01-07 14:02:00.204,Lband
17,44,2023-01-07 14:03:00.331,Lband
17,44,2023-01-07 14:04:00.188,Lband
17,44,2023-01-07 14:05:00.306,Lband
17,44,2023-01-07 14:06:00.349,Lband
17,44,2023-01-07 14:07:00.340,Lband
17,44,2023-01-07 14:08:00.339,Lband
17,44,2023-01-07 14:09:00.281,Lband
17,44,2023-01-07 14:10:00.298,Lband
17,44,2023-01-07 14:11:00.296,Lband
17,44,2023-01-07 14:12:00.184,Lband
17,44,2023-01-07 14:13:00.206,Lband
17,44,2023-01-07 14:14:00.202,Lband
17,44,2023-01-07 14:15:00.350,Lband
17,44,2023-01-07 14:16:00.308,Lband
17,44,2023-01-07 14:17:00.225,Lband
17,44,2023-01-07 14:18:00.308,Lband
17,44,2023-01-07 14:19:00.401,Lband
17,44,2023-01-07 14:20:00.355,Lband
17,44,2023-01-07 14:21:00.265,Lband
17,44,2023-01-07 14:22:00.220,Lband
16,44,2023-01-07 14:23:00.262,Lband
17,44,2023-01-07 14:24:00.252,Lband
16,44,2023-01-07 14:25:00.163,Lband
16,43,2023-01-07 14:26:00.249,Lband
16,43,2023-01-07 14:27:00.259,Lband
16,43,2023-01-07 14:28:00.171,Lband
16,43,2023-01-07 14:29:00.326,Lband
16,43,2023-01-07 14:30:00.312,Lband
16,43,2023-01-07 14:31:00.335,Lband
16,43,2023-01-07 14:32:00.295,Lband
16,43,2023-01-07 14:33:00.308,Lband
16,43,2023-01-07 14:34:00.276,Lband
16,43,2023-01-07 14:35:00.349,Lband
16,43,2023-01-07 14:36:00.337,Lband
16,42,2023-01-07 14:37:00.339,Lband
16,42,2023-01-07 14:38:00.309,Lband
16,42,2023-01-07 14:39:00.300,Lband
16,42,2023-01-07 14:40:00.295,Lband
16,42,2023-01-07 14:41:00.252,Lband
16,42,2023-01-07 14:42:00.345,Lband
16,42,2023-01-07 14:43:00.358,Lband
16,42,2023-01-07 14:44:00.329,Lband
16,42,2023-01-07 14:45:00.299,Lband
16,43,2023-01-07 14:46:00.271,Lband
16,42,2023-01-07 14:47:00.317,Lband
16,42,2023-01-07 14:48:00.309,Lband
16,43,2023-01-07 14:49:00.191,Lband
16,42,2023-01-07 14:50:00.304,Lband
16,42,2023-01-07 14:51:00.275,Lband
16,42,2023-01-07 14:52:00.205,Lband
16,42,2023-01-07 14:53:00.312,Lband
16,42,2023-01-07 14:54:00.311,Lband
16,42,2023-01-07 14:55:00.278,Lband
16,42,2023-01-07 14:56:00.250,Lband
16,43,2023-01-07 14:57:00.261,Lband
16,42,2023-01-07 14:58:00.371,Lband
16,42,2023-01-07 14:59:00.188,Lband
16,42,2023-01-07 15:00:00.345,Lband
16,42,2023-01-07 15:01:00.285,Lband
16,42,2023-01-07 15:02:00.268,Lband
16,42,2023-01-07 15:03:00.375,Lband
16,42,2023-01-07 15:04:00.311,Lband
16,42,2023-01-07 15:05:00.191,Lband
16,43,2023-01-07 15:06:00.304,Lband
16,42,2023-01-07 15:07:00.287,Lband
16,43,2023-01-07 15:08:00.307,Lband
16,43,2023-01-07 15:09:00.286,Lband
16,42,2023-01-07 15:10:00.281,Lband
16,43,2023-01-07 15:11:00.311,Lband
16,43,2023-01-07 15:12:00.301,Lband
16,42,2023-01-07 15:13:00.339,Lband
16,43,2023-01-07 15:14:00.285,Lband
16,43,2023-01-07 15:15:00.347,Lband
16,43,2023-01-07 15:16:00.296,Lband
16,43,2023-01-07 15:17:00.283,Lband
16,42,2023-01-07 15:18:00.240,Lband
16,42,2023-01-07 15:19:00.292,Lband
16,43,2023-01-07 15:20:00.302,Lband
16,43,2023-01-07 15:21:00.327,Lband
16,43,2023-01-07 15:22:00.304,Lband
16,43,2023-01-07 15:23:00.305,Lband
16,43,2023-01-07 15:24:00.346,Lband
16,43,2023-01-07 15:25:00.266,Lband
16,43,2023-01-07 15:26:00.183,Lband
16,43,2023-01-07 15:27:00.251,Lband
16,43,2023-01-07 15:28:00.321,Lband
16,43,2023-01-07 15:29:00.269,Lband
16,43,2023-01-07 15:30:00.313,Lband
16,42,2023-01-07 15:31:00.289,Lband
16,42,2023-01-07 15:32:00.319,Lband
16,42,2023-01-07 15:33:00.311,Lband
16,43,2023-01-07 15:34:00.318,Lband
16,42,2023-01-07 15:35:00.367,Lband
16,42,2023-01-07 15:36:00.299,Lband
16,43,2023-01-07 15:37:00.282,Lband
16,43,2023-01-07 15:38:00.288,Lband
16,43,2023-01-07 15:39:00.314,Lband
16,43,2023-01-07 15:40:00.276,Lband
16,42,2023-01-07 15:41:00.257,Lband
16,43,2023-01-07 15:42:00.353,Lband
16,42,2023-01-07 15:43:00.285,Lband
16,43,2023-01-07 15:44:00.327,Lband
16,42,2023-01-07 15:45:00.203,Lband
16,42,2023-01-07 15:46:00.303,Lband
16,43,2023-01-07 15:47:00.336,Lband
16,42,2023-01-07 15:48:00.266,Lband
16,43,2023-01-07 15:49:00.254,Lband
16,42,2023-01-07 15:50:00.293,Lband
16,42,2023-01-07 15:51:00.280,Lband
16,42,2023-01-07 15:52:00.236,Lband
16,42,2023-01-07 15:53:00.260,Lband
16,43,2023-01-07 15:54:00.337,Lband
16,43,2023-01-07 15:55:00.306,Lband
16,43,2023-01-07 15:56:00.278,Lband
16,43,2023-01-07 15:57:00.285,Lband
16,43,2023-01-07 15:58:00.408,Lband
16,43,2023-01-07 15:59:00.303,Lband
16,42,2023-01-07 16:00:00.351,Lband
16,42,2023-01-07 16:01:00.333,Lband
17,42,2023-01-07 16:02:00.358,Lband
16,43,2023-01-07 16:03:00.341,Lband
16,42,2023-01-07 16:04:00.298,Lband
16,42,2023-01-07 16:05:00.248,Lband
16,43,2023-01-07 16:06:00.341,Lband
16,43,2023-01-07 16:07:00.291,Lband
16,43,2023-01-07 16:08:00.255,Lband
16,42,2023-01-07 16:09:00.281,Lband
16,43,2023-01-07 16:10:00.374,Lband
16,43,2023-01-07 16:11:00.304,Lband
16,43,2023-01-07 16:12:00.299,Lband
16,43,2023-01-07 16:13:00.311,Lband
16,42,2023-01-07 16:14:00.349,Lband
16,43,2023-01-07 16:15:00.271,Lband
16,43,2023-01-07 16:16:00.359,Lband
16,43,2023-01-07 16:17:00.236,Lband
16,43,2023-01-07 16:18:00.255,Lband
16,43,2023-01-07 16:19:00.271,Lband
17,43,2023-01-07 16:20:00.304,Lband
16,43,2023-01-07 16:21:00.303,Lband
17,43,2023-01-07 16:22:00.298,Lband
16,43,2023-01-07 16:23:00.264,Lband
16,43,2023-01-07 16:24:00.329,Lband
16,43,2023-01-07 16:25:00.356,Lband
16,43,2023-01-07 16:26:00.241,Lband
16,43,2023-01-07 16:27:00.249,Lband
16,43,2023-01-07 16:28:00.296,Lband
16,43,2023-01-07 16:29:00.404,Lband
17,43,2023-01-07 16:30:00.256,Lband
17,43,2023-01-07 16:31:00.302,Lband
17,43,2023-01-07 16:32:00.254,Lband
16,43,2023-01-07 16:33:00.265,Lband
17,43,2023-01-07 16:34:00.243,Lband
17,43,2023-01-07 16:35:00.292,Lband
16,43,2023-01-07 16:36:00.303,Lband
16,43,2023-01-07 16:37:00.273,Lband
17,43,2023-01-07 16:38:00.364,Lband
17,43,2023-01-07 16:39:00.352,Lband
17,43,2023-01-07 16:40:00.240,Lband
17,43,2023-01-07 16:41:00.302,Lband
17,43,2023-01-07 16:42:00.368,Lband
16,43,2023-01-07 16:43:00.253,Lband
17,43,2023-01-07 16:44:00.260,Lband
17,43,2023-01-07 16:45:00.334,Lband
17,43,2023-01-07 16:46:00.298,Lband
16,43,2023-01-07 16:47:00.235,Lband
16,43,2023-01-07 16:48:00.346,Lband
17,43,2023-01-07 16:49:00.237,Lband
17,43,2023-01-07 16:50:00.248,Lband
17,43,2023-01-07 16:51:00.372,Lband
17,43,2023-01-07 16:52:00.338,Lband
17,43,2023-01-07 16:53:00.344,Lband
17,43,2023-01-07 16:54:00.283,Lband
17,43,2023-01-07 16:55:00.278,Lband
16,43,2023-01-07 16:56:00.266,Lband
16,43,2023-01-07 16:57:00.348,Lband
17,43,2023-01-07 16:58:00.293,Lband
17,43,2023-01-07 16:59:00.337,Lband
17,43,2023-01-07 17:00:00.227,Lband
17,43,2023-01-07 17:01:00.347,Lband
17,43,2023-01-07 17:02:00.350,Lband
17,43,2023-01-07 17:03:00.355,Lband
17,43,2023-01-07 17:04:00.350,Lband
17,43,2023-01-07 17:05:00.303,Lband
17,43,2023-01-07 17:06:00.247,Lband
16,43,2023-01-07 17:07:00.317,Lband
16,43,2023-01-07 17:08:00.234,Lband
17,43,2023-01-07 17:09:00.294,Lband
17,42,2023-01-07 17:10:00.327,Lband
17,43,2023-01-07 17:11:00.345,Lband
17,42,2023-01-07 17:12:00.345,Lband
17,43,2023-01-07 17:13:00.344,Lband
17,42,2023-01-07 17:14:00.229,Lband
17,42,2023-01-07 17:15:00.287,Lband
17,43,2023-01-07 17:16:00.244,Lband
17,42,2023-01-07 17:17:00.274,Lband
17,43,2023-01-07 17:18:00.255,Lband
17,42,2023-01-07 17:19:00.366,Lband
16,42,2023-01-07 17:20:00.321,Lband
16,42,2023-01-07 17:21:00.341,Lband
16,42,2023-01-07 17:22:00.327,Lband
16,42,2023-01-07 17:23:00.326,Lband
16,42,2023-01-07 17:24:00.297,Lband
16,42,2023-01-07 17:25:00.234,Lband
16,42,2023-01-07 17:26:00.222,Lband
16,42,2023-01-07 17:27:00.300,Lband
16,42,2023-01-07 17:28:00.340,Lband
16,42,2023-01-07 17:29:00.228,Lband
16,42,2023-01-07 17:30:00.263,Lband
16,42,2023-01-07 17:31:00.225,Lband
16,42,2023-01-07 17:32:00.256,Lband
16,42,2023-01-07 17:33:00.233,Lband
16,42,2023-01-07 17:34:00.299,Lband
17,42,2023-01-07 17:35:00.330,Lband
16,42,2023-01-07 17:36:00.357,Lband
16,42,2023-01-07 17:37:00.257,Lband
16,42,2023-01-07 17:38:00.260,Lband
16,42,2023-01-07 17:39:00.226,Lband
17,42,2023-01-07 17:40:00.265,Lband
17,42,2023-01-07 17:41:00.306,Lband
16,42,2023-01-07 17:42:00.284,Lband
16,42,2023-01-07 17:43:00.306,Lband
16,42,2023-01-07 17:44:00.274,Lband
17,42,2023-01-07 17:45:00.360,Lband
16,42,2023-01-07 17:46:00.359,Lband
17,42,2023-01-07 17:47:00.292,Lband
16,42,2023-01-07 17:48:00.266,Lband
16,42,2023-01-07 17:49:00.334,Lband
17,42,2023-01-07 17:50:00.291,Lband
16,42,2023-01-07 17:51:00.307,Lband
17,42,2023-01-07 17:52:00.309,Lband
17,42,2023-01-07 17:53:00.269,Lband
17,42,2023-01-07 17:54:00.341,Lband
17,42,2023-01-07 17:55:00.262,Lband
17,42,2023-01-07 17:56:00.329,Lband
17,42,2023-01-07 17:57:00.295,Lband
17,42,2023-01-07 17:58:00.385,Lband
16,42,2023-01-07 17:59:00.301,Lband
16,42,2023-01-07 18:00:00.279,Lband
16,42,2023-01-07 18:01:00.298,Lband
16,42,2023-01-07 18:02:00.369,Lband
17,42,2023-01-07 18:03:00.286,Lband
17,42,2023-01-07 18:04:00.354,Lband
17,42,2023-01-07 18:05:00.350,Lband
16,42,2023-01-07 18:06:00.381,Lband
16,42,2023-01-07 18:07:00.283,Lband
16,42,2023-01-07 18:08:00.323,Lband
17,42,2023-01-07 18:09:00.322,Lband
16,42,2023-01-07 18:10:00.251,Lband
16,42,2023-01-07 18:11:00.256,Lband
16,42,2023-01-07 18:12:00.250,Lband
17,42,2023-01-07 18:13:00.270,Lband
17,42,2023-01-07 18:14:00.314,Lband
17,42,2023-01-07 18:15:00.306,Lband
17,42,2023-01-07 18:16:00.284,Lband
17,42,2023-01-07 18:17:00.344,Lband
17,42,2023-01-07 18:18:00.300,Lband
17,42,2023-01-07 18:19:00.320,Lband
17,42,2023-01-07 18:20:00.240,Lband
17,42,2023-01-07 18:21:00.342,Lband
16,42,2023-01-07 18:22:00.264,Lband
17,42,2023-01-07 18:23:00.332,Lband
16,42,2023-01-07 18:24:00.338,Lband
16,42,2023-01-07 18:25:00.303,Lband
16,42,2023-01-07 18:26:00.245,Lband
16,42,2023-01-07 18:27:00.305,Lband
16,42,2023-01-07 18:28:00.305,Lband
16,42,2023-01-07 18:29:00.258,Lband
16,42,2023-01-07 18:30:00.333,Lband
16,42,2023-01-07 18:31:00.291,Lband
16,42,2023-01-07 18:32:00.299,Lband
16,42,2023-01-07 18:33:00.329,Lband
16,42,2023-01-07 18:34:00.347,Lband
16,41,2023-01-07 18:35:00.367,Lband
16,41,2023-01-07 18:36:00.260,Lband
16,41,2023-01-07 18:37:00.332,Lband
16,41,2023-01-07 18:38:00.228,Lband
16,41,2023-01-07 18:39:00.403,Lband
16,41,2023-01-07 18:40:00.264,Lband
16,41,2023-01-07 18:41:00.276,Lband
16,41,2023-01-07 18:42:00.272,Lband
16,41,2023-01-07 18:43:00.233,Lband
16,41,2023-01-07 18:44:00.256,Lband
16,41,2023-01-07 18:45:00.277,Lband
16,41,2023-01-07 18:46:00.272,Lband
16,41,2023-01-07 18:47:00.335,Lband
16,41,2023-01-07 18:48:00.261,Lband
16,41,2023-01-07 18:49:00.291,Lband
16,41,2023-01-07 18:50:00.326,Lband
16,41,2023-01-07 18:51:00.258,Lband
16,41,2023-01-07 18:52:00.285,Lband
16,41,2023-01-07 18:53:00.276,Lband
16,41,2023-01-07 18:54:00.321,Lband
16,41,2023-01-07 18:55:00.285,Lband
16,41,2023-01-07 18:56:00.276,Lband
16,41,2023-01-07 18:57:00.313,Lband
16,41,2023-01-07 18:58:00.308,Lband
16,41,2023-01-07 18:59:00.282,Lband
16,41,2023-01-07 19:00:00.288,Lband
16,41,2023-01-07 19:01:00.344,Lband
16,41,2023-01-07 19:02:00.335,Lband
16,41,2023-01-07 19:03:00.373,Lband
16,41,2023-01-07 19:04:00.320,Lband
16,41,2023-01-07 19:05:00.294,Lband
16,41,2023-01-07 19:06:00.279,Lband
16,41,2023-01-07 19:07:00.325,Lband
16,41,2023-01-07 19:08:00.307,Lband
16,41,2023-01-07 19:09:00.294,Lband
16,41,2023-01-07 19:10:00.248,Lband
16,41,2023-01-07 19:11:00.353,Lband
16,41,2023-01-07 19:12:00.359,Lband
16,41,2023-01-07 19:13:00.280,Lband
16,41,2023-01-07 19:14:00.362,Lband
16,41,2023-01-07 19:15:00.320,Lband
16,41,2023-01-07 19:16:00.337,Lband
16,41,2023-01-07 19:17:00.310,Lband
16,41,2023-01-07 19:18:00.229,Lband
16,41,2023-01-07 19:19:00.303,Lband
16,41,2023-01-07 19:20:00.262,Lband
16,41,2023-01-07 19:21:00.242,Lband
16,41,2023-01-07 19:22:00.222,Lband
16,41,2023-01-07 19:23:00.239,Lband
16,41,2023-01-07 19:24:00.294,Lband
16,41,2023-01-07 19:25:00.254,Lband
16,41,2023-01-07 19:26:00.348,Lband
16,41,2023-01-07 19:27:00.222,Lband
16,41,2023-01-07 19:28:00.292,Lband
16,41,2023-01-07 19:29:00.263,Lband
16,41,2023-01-07 19:30:00.400,Lband
16,41,2023-01-07 19:31:00.264,Lband
16,41,2023-01-07 19:32:00.268,Lband
16,41,2023-01-07 19:33:00.352,Lband
16,41,2023-01-07 19:34:00.254,Lband
16,41,2023-01-07 19:35:00.299,Lband
16,41,2023-01-07 19:36:00.236,Lband
16,41,2023-01-07 19:37:00.262,Lband
16,41,2023-01-07 19:38:00.283,Lband
16,41,2023-01-07 19:39:00.308,Lband
16,41,2023-01-07 19:40:00.311,Lband
16,41,2023-01-07 19:41:00.261,Lband
16,41,2023-01-07 19:42:00.298,Lband
16,41,2023-01-07 19:43:00.242,Lband
16,41,2023-01-07 19:44:00.330,Lband
16,41,2023-01-07 19:45:00.247,Lband
16,41,2023-01-07 19:46:00.322,Lband
16,41,2023-01-07 19:47:00.314,Lband
16,40,2023-01-07 19:48:00.244,Lband
16,41,2023-01-07 19:49:00.278,Lband
16,41,2023-01-07 19:50:00.308,Lband
16,40,2023-01-07 19:51:00.248,Lband
16,40,2023-01-07 19:52:00.270,Lband
16,40,2023-01-07 19:53:00.241,Lband
16,40,2023-01-07 19:54:00.305,Lband
16,40,2023-01-07 19:55:00.233,Lband
16,41,2023-01-07 19:56:00.321,Lband
16,40,2023-01-07 19:57:00.290,Lband
16,40,2023-01-07 19:58:00.259,Lband
16,40,2023-01-07 19:59:00.267,Lband
16,40,2023-01-07 20:00:00.230,Lband
16,40,2023-01-07 20:01:00.225,Lband
16,40,2023-01-07 20:02:00.338,Lband
16,40,2023-01-07 20:03:00.257,Lband
15,40,2023-01-07 20:04:00.270,Lband
15,40,2023-01-07 20:05:00.284,Lband
16,40,2023-01-07 20:06:00.260,Lband
16,40,2023-01-07 20:07:00.223,Lband
16,40,2023-01-07 20:08:00.279,Lband
16,40,2023-01-07 20:09:00.246,Lband
15,40,2023-01-07 20:10:00.259,Lband
15,40,2023-01-07 20:11:00.234,Lband
16,40,2023-01-07 20:12:00.298,Lband
16,40,2023-01-07 20:13:00.235,Lband
16,40,2023-01-07 20:14:00.266,Lband
16,40,2023-01-07 20:15:00.211,Lband
15,40,2023-01-07 20:16:00.242,Lband
15,40,2023-01-07 20:17:00.240,Lband
15,40,2023-01-07 20:18:00.305,Lband
16,40,2023-01-07 20:19:00.206,Lband
16,40,2023-01-07 20:20:00.279,Lband
15,40,2023-01-07 20:21:00.274,Lband
15,40,2023-01-07 20:22:00.228,Lband
15,40,2023-01-07 20:23:00.263,Lband
15,40,2023-01-07 20:24:00.291,Lband
16,40,2023-01-07 20:25:00.296,Lband
15,40,2023-01-07 20:26:00.268,Lband
15,40,2023-01-07 20:27:00.198,Lband
15,40,2023-01-07 20:28:00.252,Lband
15,40,2023-01-07 20:29:00.264,Lband
15,40,2023-01-07 20:30:00.285,Lband
15,40,2023-01-07 20:31:00.256,Lband
15,40,2023-01-07 20:32:00.383,Lband
15,40,2023-01-07 20:33:00.302,Lband
15,40,2023-01-07 20:34:00.308,Lband
15,40,2023-01-07 20:35:00.255,Lband
15,40,2023-01-07 20:36:00.218,Lband
15,40,2023-01-07 20:37:00.270,Lband
15,40,2023-01-07 20:38:00.252,Lband
15,40,2023-01-07 20:39:00.244,Lband
15,40,2023-01-07 20:40:00.307,Lband
15,40,2023-01-07 20:41:00.232,Lband
15,40,2023-01-07 20:42:00.200,Lband
15,40,2023-01-07 20:43:00.322,Lband
15,40,2023-01-07 20:44:00.247,Lband
15,40,2023-01-07 20:45:00.169,Lband
15,40,2023-01-07 20:46:00.311,Lband
15,40,2023-01-07 20:47:00.283,Lband
15,40,2023-01-07 20:48:00.257,Lband
15,40,2023-01-07 20:49:00.175,Lband
15,40,2023-01-07 20:50:00.224,Lband
15,40,2023-01-07 20:51:00.301,Lband
16,40,2023-01-07 20:52:00.249,Lband
16,41,2023-01-07 20:53:00.253,Lband
16,41,2023-01-07 20:54:00.279,Lband
16,41,2023-01-07 20:55:00.193,Lband
16,41,2023-01-07 20:56:00.247,Lband
16,41,2023-01-07 20:57:00.276,Lband
16,41,2023-01-07 20:58:00.301,Lband
16,41,2023-01-07 20:59:00.253,Lband
16,41,2023-01-07 21:00:00.395,Lband
16,42,2023-01-07 21:01:00.291,Lband
16,42,2023-01-07 21:02:00.253,Lband
16,42,2023-01-07 21:03:00.223,Lband
16,42,2023-01-07 21:04:00.256,Lband
16,42,2023-01-07 21:05:00.300,Lband
16,42,2023-01-07 21:06:00.175,Lband
16,42,2023-01-07 21:07:00.204,Lband
16,42,2023-01-07 21:08:00.225,Lband
16,42,2023-01-07 21:09:00.238,Lband
16,42,2023-01-07 21:10:00.221,Lband
16,42,2023-01-07 21:11:00.268,Lband
16,42,2023-01-07 21:12:00.317,Lband
16,42,2023-01-07 21:13:00.214,Lband
16,42,2023-01-07 21:14:00.195,Lband
16,42,2023-01-07 21:15:00.303,Lband
16,42,2023-01-07 21:16:00.288,Lband
16,42,2023-01-07 21:17:00.230,Lband
16,42,2023-01-07 21:18:00.295,Lband
16,42,2023-01-07 21:19:00.255,Lband
16,42,2023-01-07 21:20:00.250,Lband
16,42,2023-01-07 21:21:00.277,Lband
16,42,2023-01-07 21:22:00.252,Lband
16,42,2023-01-07 21:23:00.306,Lband
16,42,2023-01-07 21:24:00.201,Lband
16,42,2023-01-07 21:25:00.292,Lband
16,42,2023-01-07 21:26:00.227,Lband
16,42,2023-01-07 21:27:00.267,Lband
16,42,2023-01-07 21:28:00.464,Lband
16,42,2023-01-07 21:29:00.211,Lband
16,42,2023-01-07 21:30:00.251,Lband
16,42,2023-01-07 21:31:00.237,Lband
16,42,2023-01-07 21:32:00.227,Lband
16,42,2023-01-07 21:33:00.288,Lband
16,42,2023-01-07 21:34:00.202,Lband
16,42,2023-01-07 21:35:00.230,Lband
16,42,2023-01-07 21:36:00.237,Lband
16,42,2023-01-07 21:37:00.294,Lband
16,42,2023-01-07 21:38:00.170,Lband
16,42,2023-01-07 21:39:00.293,Lband
16,42,2023-01-07 21:40:00.234,Lband
16,42,2023-01-07 21:41:00.226,Lband
16,42,2023-01-07 21:42:00.249,Lband
16,42,2023-01-07 21:43:00.203,Lband
16,42,2023-01-07 21:44:00.313,Lband
16,42,2023-01-07 21:45:00.285,Lband
16,42,2023-01-07 21:46:00.170,Lband
16,42,2023-01-07 21:47:00.241,Lband
16,42,2023-01-07 21:48:00.304,Lband
16,42,2023-01-07 21:49:00.248,Lband
16,42,2023-01-07 21:50:00.207,Lband
16,42,2023-01-07 21:51:00.305,Lband
16,42,2023-01-07 21:52:00.179,Lband
16,42,2023-01-07 21:53:00.281,Lband
16,42,2023-01-07 21:54:00.309,Lband
16,42,2023-01-07 21:55:00.411,Lband
16,42,2023-01-07 21:56:00.280,Lband
16,42,2023-01-07 21:57:00.242,Lband
16,42,2023-01-07 21:58:00.277,Lband
16,42,2023-01-07 21:59:00.300,Lband
16,42,2023-01-07 22:00:00.269,Lband
16,42,2023-01-07 22:01:00.208,Lband
16,42,2023-01-07 22:02:00.239,Lband
16,42,2023-01-07 22:03:00.307,Lband
16,42,2023-01-07 22:04:00.235,Lband
16,42,2023-01-07 22:05:00.277,Lband
16,42,2023-01-07 22:06:00.261,Lband
16,42,2023-01-07 22:07:00.265,Lband
16,42,2023-01-07 22:08:00.180,Lband
16,42,2023-01-07 22:09:00.263,Lband
16,42,2023-01-07 22:10:00.209,Lband
16,42,2023-01-07 22:11:00.241,Lband
16,42,2023-01-07 22:12:00.194,Lband
16,42,2023-01-07 22:13:00.205,Lband
16,42,2023-01-07 22:14:00.303,Lband
16,42,2023-01-07 22:15:00.182,Lband
16,42,2023-01-07 22:16:00.265,Lband
16,42,2023-01-07 22:17:00.261,Lband
16,42,2023-01-07 22:18:00.290,Lband
16,42,2023-01-07 22:19:00.200,Lband
16,42,2023-01-07 22:20:00.315,Lband
16,42,2023-01-07 22:21:00.229,Lband
16,42,2023-01-07 22:22:00.283,Lband
16,42,2023-01-07 22:23:00.175,Lband
16,42,2023-01-07 22:24:00.252,Lband
16,42,2023-01-07 22:25:00.236,Lband
16,42,2023-01-07 22:26:00.348,Lband
16,42,2023-01-07 22:27:00.266,Lband
16,42,2023-01-07 22:28:00.298,Lband
16,42,2023-01-07 22:29:00.219,Lband
16,42,2023-01-07 22:30:00.307,Lband
16,42,2023-01-07 22:31:00.307,Lband
16,42,2023-01-07 22:32:00.281,Lband
16,42,2023-01-07 22:33:00.238,Lband
16,42,2023-01-07 22:34:00.242,Lband
15,42,2023-01-07 22:35:00.259,Lband
16,42,2023-01-07 22:36:00.281,Lband
16,42,2023-01-07 22:37:00.208,Lband
16,42,2023-01-07 22:38:00.188,Lband
16,42,2023-01-07 22:39:00.253,Lband
15,42,2023-01-07 22:40:00.287,Lband
16,42,2023-01-07 22:41:00.215,Lband
15,42,2023-01-07 22:42:00.246,Lband
16,42,2023-01-07 22:43:00.227,Lband
16,42,2023-01-07 22:44:00.288,Lband
16,42,2023-01-07 22:45:00.210,Lband
16,42,2023-01-07 22:46:00.300,Lband
15,42,2023-01-07 22:47:00.238,Lband
15,42,2023-01-07 22:48:00.171,Lband
16,42,2023-01-07 22:49:00.370,Lband
16,42,2023-01-07 22:50:00.212,Lband
16,42,2023-01-07 22:51:00.220,Lband
15,42,2023-01-07 22:52:00.256,Lband
15,42,2023-01-07 22:53:00.247,Lband
16,42,2023-01-07 22:54:00.282,Lband
16,42,2023-01-07 22:55:00.262,Lband
16,42,2023-01-07 22:56:00.292,Lband
16,42,2023-01-07 22:57:00.266,Lband
16,42,2023-01-07 22:58:00.242,Lband
15,42,2023-01-07 22:59:00.255,Lband
16,42,2023-01-07 23:00:00.258,Lband
16,42,2023-01-07 23:01:00.272,Lband
16,42,2023-01-07 23:02:00.247,Lband
16,42,2023-01-07 23:03:00.319,Lband
16,42,2023-01-07 23:04:00.236,Lband
16,42,2023-01-07 23:05:00.277,Lband
16,42,2023-01-07 23:06:00.181,Lband
15,42,2023-01-07 23:07:00.227,Lband
16,42,2023-01-07 23:08:00.236,Lband
15,42,2023-01-07 23:09:00.220,Lband
16,42,2023-01-07 23:10:00.308,Lband
16,42,2023-01-07 23:11:00.271,Lband
16,42,2023-01-07 23:12:00.305,Lband
16,42,2023-01-07 23:13:00.265,Lband
16,42,2023-01-07 23:14:00.143,Lband
15,42,2023-01-07 23:15:00.263,Lband
15,42,2023-01-07 23:16:00.197,Lband
16,42,2023-01-07 23:17:00.300,Lband
15,42,2023-01-07 23:18:00.264,Lband
15,42,2023-01-07 23:19:00.160,Lband
15,42,2023-01-07 23:20:00.244,Lband
15,41,2023-01-07 23:21:00.231,Lband
15,42,2023-01-07 23:22:00.284,Lband
16,41,2023-01-07 23:23:00.257,Lband
15,42,2023-01-07 23:24:00.298,Lband
16,42,2023-01-07 23:25:00.243,Lband
16,41,2023-01-07 23:26:00.211,Lband
15,41,2023-01-07 23:27:00.185,Lband
15,42,2023-01-07 23:28:00.315,Lband
15,42,2023-01-07 23:29:00.208,Lband
15,41,2023-01-07 23:30:00.229,Lband
16,42,2023-01-07 23:31:00.212,Lband
16,42,2023-01-07 23:32:00.156,Lband
15,41,2023-01-07 23:33:00.334,Lband
16,41,2023-01-07 23:34:00.299,Lband
15,41,2023-01-07 23:35:00.232,Lband
15,41,2023-01-07 23:36:00.270,Lband
16,41,2023-01-07 23:37:00.260,Lband
15,41,2023-01-07 23:38:00.235,Lband
15,41,2023-01-07 23:39:00.293,Lband
15,41,2023-01-07 23:40:00.282,Lband
15,41,2023-01-07 23:41:00.263,Lband
15,41,2023-01-07 23:42:00.331,Lband
16,41,2023-01-07 23:43:00.262,Lband
15,41,2023-01-07 23:44:00.246,Lband
15,41,2023-01-07 23:45:00.251,Lband
15,41,2023-01-07 23:46:00.209,Lband
15,41,2023-01-07 23:47:00.296,Lband
15,42,2023-01-07 23:48:00.258,Lband
15,41,2023-01-07 23:49:00.310,Lband
15,41,2023-01-07 23:50:00.244,Lband
15,41,2023-01-07 23:51:00.189,Lband
15,41,2023-01-07 23:52:00.229,Lband
15,41,2023-01-07 23:53:00.352,Lband
15,42,2023-01-07 23:54:00.317,Lband
15,41,2023-01-07 23:55:00.237,Lband
15,41,2023-01-07 23:56:00.236,Lband
15,41,2023-01-07 23:57:00.315,Lband
15,41,2023-01-07 23:58:00.196,Lband
15,41,2023-01-07 23:59:00.206,Lband
