T15,T70,date,sensorName
9,40,2023-01-06 00:00:00.284,Kband
10,40,2023-01-06 00:01:00.272,Kband
10,40,2023-01-06 00:02:00.209,Kband
9,40,2023-01-06 00:03:00.354,Kband
9,40,2023-01-06 00:04:00.262,Kband
10,40,2023-01-06 00:05:00.269,Kband
10,40,2023-01-06 00:06:00.261,Kband
9,40,2023-01-06 00:07:00.289,Kband
9,40,2023-01-06 00:08:00.260,Kband
9,40,2023-01-06 00:09:00.190,Kband
10,40,2023-01-06 00:10:00.198,Kband
9,40,2023-01-06 00:11:00.260,Kband
9,40,2023-01-06 00:12:00.254,Kband
9,40,2023-01-06 00:13:00.300,Kband
10,40,2023-01-06 00:14:00.311,Kband
10,40,2023-01-06 00:15:00.307,Kband
8,40,2023-01-06 00:16:00.269,Kband
9,40,2023-01-06 00:17:00.265,Kband
10,40,2023-01-06 00:18:00.315,Kband
9,40,2023-01-06 00:19:00.283,Kband
8,40,2023-01-06 00:20:00.252,Kband
10,40,2023-01-06 00:21:00.254,Kband
10,40,2023-01-06 00:22:00.296,Kband
9,40,2023-01-06 00:23:00.200,Kband
9,40,2023-01-06 00:24:00.256,Kband
9,40,2023-01-06 00:25:00.318,Kband
10,40,2023-01-06 00:26:00.311,Kband
10,40,2023-01-06 00:27:00.262,Kband
10,40,2023-01-06 00:28:00.312,Kband
10,40,2023-01-06 00:29:00.202,Kband
9,40,2023-01-06 00:30:00.287,Kband
9,40,2023-01-06 00:31:00.298,Kband
10,40,2023-01-06 00:32:00.226,Kband
10,40,2023-01-06 00:33:00.260,Kband
9,40,2023-01-06 00:34:00.242,Kband
10,40,2023-01-06 00:35:00.200,Kband
10,40,2023-01-06 00:36:00.264,Kband
9,40,2023-01-06 00:37:00.279,Kband
8,40,2023-01-06 00:38:00.309,Kband
9,40,2023-01-06 00:39:00.330,Kband
10,40,2023-01-06 00:40:00.290,Kband
9,40,2023-01-06 00:41:00.290,Kband
9,40,2023-01-06 00:42:00.318,Kband
10,40,2023-01-06 00:43:00.305,Kband
10,40,2023-01-06 00:44:00.299,Kband
10,40,2023-01-06 00:45:00.229,Kband
10,40,2023-01-06 00:46:00.203,Kband
9,40,2023-01-06 00:47:00.308,Kband
8,40,2023-01-06 00:48:00.237,Kband
9,40,2023-01-06 00:49:00.309,Kband
10,40,2023-01-06 00:50:00.244,Kband
9,40,2023-01-06 00:51:00.289,Kband
9,40,2023-01-06 00:52:00.216,Kband
10,40,2023-01-06 00:53:00.207,Kband
9,40,2023-01-06 00:54:00.303,Kband
9,40,2023-01-06 00:55:00.244,Kband
9,40,2023-01-06 00:56:00.267,Kband
9,40,2023-01-06 00:57:00.253,Kband
8,40,2023-01-06 00:58:00.251,Kband
10,40,2023-01-06 00:59:00.262,Kband
9,40,2023-01-06 01:00:00.311,Kband
10,40,2023-01-06 01:01:00.306,Kband
10,40,2023-01-06 01:02:00.264,Kband
8,40,2023-01-06 01:03:00.284,Kband
9,40,2023-01-06 01:04:00.261,Kband
9,40,2023-01-06 01:05:00.307,Kband
8,40,2023-01-06 01:06:00.270,Kband
10,40,2023-01-06 01:07:00.374,Kband
9,40,2023-01-06 01:08:00.370,Kband
9,40,2023-01-06 01:09:00.314,Kband
9,40,2023-01-06 01:10:00.289,Kband
8,40,2023-01-06 01:11:00.336,Kband
10,40,2023-01-06 01:12:00.267,Kband
10,40,2023-01-06 01:13:00.262,Kband
9,40,2023-01-06 01:14:00.195,Kband
9,40,2023-01-06 01:15:00.314,Kband
9,40,2023-01-06 01:16:00.265,Kband
10,40,2023-01-06 01:17:00.214,Kband
10,40,2023-01-06 01:18:00.259,Kband
9,40,2023-01-06 01:19:00.267,Kband
10,40,2023-01-06 01:20:00.261,Kband
10,40,2023-01-06 01:21:00.253,Kband
8,40,2023-01-06 01:22:00.308,Kband
9,40,2023-01-06 01:23:00.194,Kband
10,40,2023-01-06 01:24:00.210,Kband
10,40,2023-01-06 01:25:00.187,Kband
10,40,2023-01-06 01:26:00.199,Kband
9,40,2023-01-06 01:27:00.264,Kband
9,40,2023-01-06 01:28:00.187,Kband
9,40,2023-01-06 01:29:00.230,Kband
10,40,2023-01-06 01:30:00.311,Kband
10,40,2023-01-06 01:31:00.195,Kband
9,40,2023-01-06 01:32:00.316,Kband
8,40,2023-01-06 01:33:00.186,Kband
10,40,2023-01-06 01:34:00.277,Kband
10,40,2023-01-06 01:35:00.261,Kband
9,40,2023-01-06 01:36:00.307,Kband
9,40,2023-01-06 01:37:00.247,Kband
10,40,2023-01-06 01:38:00.292,Kband
9,40,2023-01-06 01:39:00.265,Kband
9,40,2023-01-06 01:40:00.242,Kband
10,40,2023-01-06 01:41:00.293,Kband
10,40,2023-01-06 01:42:00.199,Kband
9,40,2023-01-06 01:43:00.386,Kband
9,40,2023-01-06 01:44:00.304,Kband
9,40,2023-01-06 01:45:00.195,Kband
10,40,2023-01-06 01:46:00.344,Kband
10,40,2023-01-06 01:47:00.203,Kband
10,40,2023-01-06 01:48:00.328,Kband
9,40,2023-01-06 01:49:00.215,Kband
9,40,2023-01-06 01:50:00.319,Kband
10,40,2023-01-06 01:51:00.264,Kband
10,40,2023-01-06 01:52:00.255,Kband
10,40,2023-01-06 01:53:00.264,Kband
9,40,2023-01-06 01:54:00.296,Kband
9,40,2023-01-06 01:55:00.195,Kband
9,40,2023-01-06 01:56:00.247,Kband
10,40,2023-01-06 01:57:00.251,Kband
9,40,2023-01-06 01:58:00.246,Kband
9,40,2023-01-06 01:59:00.280,Kband
9,40,2023-01-06 02:00:00.203,Kband
10,40,2023-01-06 02:01:00.255,Kband
10,40,2023-01-06 02:02:00.205,Kband
10,40,2023-01-06 02:03:00.231,Kband
9,40,2023-01-06 02:04:00.323,Kband
9,40,2023-01-06 02:05:00.209,Kband
8,40,2023-01-06 02:06:00.352,Kband
9,40,2023-01-06 02:07:00.244,Kband
10,40,2023-01-06 02:08:00.318,Kband
8,40,2023-01-06 02:09:00.203,Kband
9,40,2023-01-06 02:10:00.257,Kband
9,40,2023-01-06 02:11:00.268,Kband
10,40,2023-01-06 02:12:00.301,Kband
9,40,2023-01-06 02:13:00.199,Kband
9,40,2023-01-06 02:14:00.255,Kband
10,40,2023-01-06 02:15:00.313,Kband
10,40,2023-01-06 02:16:00.210,Kband
10,40,2023-01-06 02:17:00.210,Kband
10,40,2023-01-06 02:18:00.304,Kband
10,40,2023-01-06 02:19:00.237,Kband
9,40,2023-01-06 02:20:00.322,Kband
10,40,2023-01-06 02:21:00.321,Kband
10,40,2023-01-06 02:22:00.312,Kband
10,40,2023-01-06 02:23:00.191,Kband
10,40,2023-01-06 02:24:00.273,Kband
9,40,2023-01-06 02:25:00.291,Kband
10,40,2023-01-06 02:26:00.190,Kband
10,40,2023-01-06 02:27:00.300,Kband
10,40,2023-01-06 02:28:00.363,Kband
10,40,2023-01-06 02:29:00.298,Kband
8,40,2023-01-06 02:30:00.323,Kband
10,40,2023-01-06 02:31:00.297,Kband
10,40,2023-01-06 02:32:00.261,Kband
9,40,2023-01-06 02:33:00.275,Kband
8,40,2023-01-06 02:34:00.241,Kband
9,40,2023-01-06 02:35:00.306,Kband
10,40,2023-01-06 02:36:00.306,Kband
10,40,2023-01-06 02:37:00.202,Kband
9,40,2023-01-06 02:38:00.349,Kband
10,40,2023-01-06 02:39:00.293,Kband
10,40,2023-01-06 02:40:00.343,Kband
9,41,2023-01-06 02:41:00.263,Kband
9,40,2023-01-06 02:42:00.307,Kband
10,41,2023-01-06 02:43:00.310,Kband
9,40,2023-01-06 02:44:00.237,Kband
10,40,2023-01-06 02:45:00.301,Kband
9,40,2023-01-06 02:46:00.366,Kband
9,40,2023-01-06 02:47:00.363,Kband
9,40,2023-01-06 02:48:00.307,Kband
9,40,2023-01-06 02:49:00.270,Kband
10,40,2023-01-06 02:50:00.298,Kband
10,40,2023-01-06 02:51:00.271,Kband
10,40,2023-01-06 02:52:00.308,Kband
9,40,2023-01-06 02:53:00.322,Kband
8,40,2023-01-06 02:54:00.325,Kband
8,40,2023-01-06 02:55:00.288,Kband
9,40,2023-01-06 02:56:00.323,Kband
9,40,2023-01-06 02:57:00.294,Kband
10,40,2023-01-06 02:58:00.366,Kband
9,40,2023-01-06 02:59:00.297,Kband
9,40,2023-01-06 03:00:00.310,Kband
10,40,2023-01-06 03:01:00.336,Kband
10,40,2023-01-06 03:02:00.329,Kband
10,40,2023-01-06 03:03:00.292,Kband
10,40,2023-01-06 03:04:00.320,Kband
10,40,2023-01-06 03:05:00.364,Kband
10,40,2023-01-06 03:06:00.267,Kband
9,40,2023-01-06 03:07:00.300,Kband
10,40,2023-01-06 03:08:00.326,Kband
10,40,2023-01-06 03:09:00.309,Kband
10,40,2023-01-06 03:10:00.309,Kband
10,40,2023-01-06 03:11:00.261,Kband
9,40,2023-01-06 03:12:00.335,Kband
10,40,2023-01-06 03:13:00.365,Kband
9,40,2023-01-06 03:14:00.348,Kband
10,40,2023-01-06 03:15:00.261,Kband
10,41,2023-01-06 03:16:00.300,Kband
10,41,2023-01-06 03:17:00.314,Kband
8,41,2023-01-06 03:18:00.268,Kband
8,40,2023-01-06 03:19:00.286,Kband
10,40,2023-01-06 03:20:00.322,Kband
9,40,2023-01-06 03:21:00.302,Kband
10,40,2023-01-06 03:22:00.313,Kband
10,40,2023-01-06 03:23:00.362,Kband
9,40,2023-01-06 03:24:00.302,Kband
9,40,2023-01-06 03:25:00.309,Kband
9,40,2023-01-06 03:26:00.312,Kband
10,40,2023-01-06 03:27:00.359,Kband
10,40,2023-01-06 03:28:00.294,Kband
9,40,2023-01-06 03:29:00.373,Kband
8,40,2023-01-06 03:30:00.349,Kband
9,40,2023-01-06 03:31:00.319,Kband
9,41,2023-01-06 03:32:00.360,Kband
10,41,2023-01-06 03:33:00.358,Kband
10,40,2023-01-06 03:34:00.307,Kband
9,41,2023-01-06 03:35:00.334,Kband
9,41,2023-01-06 03:36:00.313,Kband
8,41,2023-01-06 03:37:00.352,Kband
10,40,2023-01-06 03:38:00.259,Kband
10,40,2023-01-06 03:39:00.260,Kband
10,40,2023-01-06 03:40:00.356,Kband
9,40,2023-01-06 03:41:00.275,Kband
9,41,2023-01-06 03:42:00.313,Kband
10,41,2023-01-06 03:43:00.256,Kband
10,41,2023-01-06 03:44:00.264,Kband
9,40,2023-01-06 03:45:00.403,Kband
9,40,2023-01-06 03:46:00.315,Kband
8,41,2023-01-06 03:47:00.316,Kband
8,41,2023-01-06 03:48:00.315,Kband
10,40,2023-01-06 03:49:00.276,Kband
10,41,2023-01-06 03:50:00.246,Kband
10,40,2023-01-06 03:51:00.271,Kband
10,40,2023-01-06 03:52:00.317,Kband
9,40,2023-01-06 03:53:00.362,Kband
10,40,2023-01-06 03:54:00.370,Kband
10,41,2023-01-06 03:55:00.261,Kband
9,41,2023-01-06 03:56:00.325,Kband
9,40,2023-01-06 03:57:00.309,Kband
8,41,2023-01-06 03:58:00.363,Kband
10,41,2023-01-06 03:59:00.296,Kband
9,40,2023-01-06 04:00:00.272,Kband
9,41,2023-01-06 04:01:00.272,Kband
10,40,2023-01-06 04:02:00.322,Kband
10,40,2023-01-06 04:03:00.315,Kband
9,41,2023-01-06 04:04:00.253,Kband
9,41,2023-01-06 04:05:00.320,Kband
9,40,2023-01-06 04:06:00.309,Kband
10,41,2023-01-06 04:07:00.253,Kband
9,40,2023-01-06 04:08:00.358,Kband
8,41,2023-01-06 04:09:00.297,Kband
10,41,2023-01-06 04:10:00.479,Kband
10,40,2023-01-06 04:11:00.460,Kband
9,40,2023-01-06 04:12:00.370,Kband
9,40,2023-01-06 04:13:00.266,Kband
10,40,2023-01-06 04:14:00.286,Kband
10,41,2023-01-06 04:15:00.282,Kband
9,41,2023-01-06 04:16:00.362,Kband
9,40,2023-01-06 04:17:00.362,Kband
8,40,2023-01-06 04:18:00.312,Kband
9,40,2023-01-06 04:19:00.302,Kband
10,41,2023-01-06 04:20:00.265,Kband
9,41,2023-01-06 04:21:00.371,Kband
10,40,2023-01-06 04:22:00.361,Kband
10,40,2023-01-06 04:23:00.281,Kband
10,40,2023-01-06 04:24:00.365,Kband
9,40,2023-01-06 04:25:00.310,Kband
9,40,2023-01-06 04:26:00.357,Kband
10,41,2023-01-06 04:27:00.379,Kband
10,40,2023-01-06 04:28:00.282,Kband
9,40,2023-01-06 04:29:00.302,Kband
9,41,2023-01-06 04:30:00.352,Kband
9,40,2023-01-06 04:31:00.285,Kband
8,41,2023-01-06 04:32:00.249,Kband
9,40,2023-01-06 04:33:00.318,Kband
10,41,2023-01-06 04:34:00.291,Kband
9,40,2023-01-06 04:35:00.329,Kband
9,40,2023-01-06 04:36:00.325,Kband
9,40,2023-01-06 04:37:00.361,Kband
9,41,2023-01-06 04:38:00.283,Kband
10,40,2023-01-06 04:39:00.340,Kband
9,41,2023-01-06 04:40:00.313,Kband
9,40,2023-01-06 04:41:00.328,Kband
9,40,2023-01-06 04:42:00.254,Kband
9,40,2023-01-06 04:43:00.302,Kband
10,41,2023-01-06 04:44:00.259,Kband
9,41,2023-01-06 04:45:00.312,Kband
10,40,2023-01-06 04:46:00.251,Kband
9,41,2023-01-06 04:47:00.360,Kband
8,41,2023-01-06 04:48:00.247,Kband
8,40,2023-01-06 04:49:00.313,Kband
10,41,2023-01-06 04:50:00.319,Kband
10,41,2023-01-06 04:51:00.252,Kband
10,40,2023-01-06 04:52:00.316,Kband
10,41,2023-01-06 04:53:00.309,Kband
10,40,2023-01-06 04:54:00.317,Kband
9,40,2023-01-06 04:55:00.360,Kband
10,40,2023-01-06 04:56:00.339,Kband
10,40,2023-01-06 04:57:00.313,Kband
9,41,2023-01-06 04:58:00.367,Kband
9,41,2023-01-06 04:59:00.297,Kband
10,40,2023-01-06 05:00:00.300,Kband
9,40,2023-01-06 05:01:00.304,Kband
10,41,2023-01-06 05:02:00.276,Kband
10,41,2023-01-06 05:03:00.322,Kband
9,41,2023-01-06 05:04:00.294,Kband
9,41,2023-01-06 05:05:00.380,Kband
10,40,2023-01-06 05:06:00.306,Kband
10,40,2023-01-06 05:07:00.374,Kband
8,41,2023-01-06 05:08:00.271,Kband
9,41,2023-01-06 05:09:00.250,Kband
10,40,2023-01-06 05:10:00.306,Kband
9,40,2023-01-06 05:11:00.328,Kband
9,41,2023-01-06 05:12:00.323,Kband
10,40,2023-01-06 05:13:00.344,Kband
10,40,2023-01-06 05:14:00.294,Kband
10,40,2023-01-06 05:15:00.250,Kband
9,40,2023-01-06 05:16:00.221,Kband
10,40,2023-01-06 05:17:00.290,Kband
10,40,2023-01-06 05:18:00.354,Kband
9,40,2023-01-06 05:19:00.341,Kband
10,40,2023-01-06 05:20:00.278,Kband
10,40,2023-01-06 05:21:00.315,Kband
9,40,2023-01-06 05:22:00.260,Kband
10,40,2023-01-06 05:23:00.310,Kband
10,40,2023-01-06 05:24:00.292,Kband
9,40,2023-01-06 05:25:00.258,Kband
10,40,2023-01-06 05:26:00.313,Kband
9,41,2023-01-06 05:27:00.361,Kband
9,40,2023-01-06 05:28:00.307,Kband
8,40,2023-01-06 05:29:00.286,Kband
9,40,2023-01-06 05:30:00.305,Kband
10,40,2023-01-06 05:31:00.313,Kband
10,40,2023-01-06 05:32:00.307,Kband
9,40,2023-01-06 05:33:00.315,Kband
10,40,2023-01-06 05:34:00.314,Kband
10,41,2023-01-06 05:35:00.373,Kband
10,40,2023-01-06 05:36:00.282,Kband
9,40,2023-01-06 05:37:00.288,Kband
9,41,2023-01-06 05:38:00.349,Kband
9,40,2023-01-06 05:39:00.294,Kband
10,40,2023-01-06 05:40:00.293,Kband
9,41,2023-01-06 05:41:00.366,Kband
9,40,2023-01-06 05:42:00.285,Kband
9,41,2023-01-06 05:43:00.361,Kband
10,40,2023-01-06 05:44:00.294,Kband
10,41,2023-01-06 05:45:00.287,Kband
9,40,2023-01-06 05:46:00.330,Kband
9,40,2023-01-06 05:47:00.253,Kband
9,40,2023-01-06 05:48:00.329,Kband
10,40,2023-01-06 05:49:00.308,Kband
10,40,2023-01-06 05:50:00.283,Kband
9,40,2023-01-06 05:51:00.321,Kband
10,40,2023-01-06 05:52:00.313,Kband
9,40,2023-01-06 05:53:00.324,Kband
10,40,2023-01-06 05:54:00.314,Kband
9,40,2023-01-06 05:55:00.319,Kband
8,40,2023-01-06 05:56:00.300,Kband
9,40,2023-01-06 05:57:00.408,Kband
10,40,2023-01-06 05:58:00.314,Kband
9,40,2023-01-06 05:59:00.382,Kband
9,41,2023-01-06 06:00:00.264,Kband
10,40,2023-01-06 06:01:00.238,Kband
9,41,2023-01-06 06:02:00.321,Kband
9,40,2023-01-06 06:03:00.317,Kband
10,40,2023-01-06 06:04:00.176,Kband
10,40,2023-01-06 06:05:00.297,Kband
9,40,2023-01-06 06:06:00.369,Kband
9,41,2023-01-06 06:07:00.287,Kband
10,41,2023-01-06 06:08:00.236,Kband
9,41,2023-01-06 06:09:00.363,Kband
9,40,2023-01-06 06:10:00.305,Kband
9,40,2023-01-06 06:11:00.312,Kband
10,40,2023-01-06 06:12:00.374,Kband
9,40,2023-01-06 06:13:00.318,Kband
9,40,2023-01-06 06:14:00.301,Kband
10,40,2023-01-06 06:15:00.309,Kband
9,41,2023-01-06 06:16:00.368,Kband
10,40,2023-01-06 06:17:00.322,Kband
10,40,2023-01-06 06:18:00.370,Kband
9,40,2023-01-06 06:19:00.358,Kband
10,40,2023-01-06 06:20:00.296,Kband
10,40,2023-01-06 06:21:00.291,Kband
9,40,2023-01-06 06:22:00.363,Kband
9,40,2023-01-06 06:23:00.307,Kband
10,40,2023-01-06 06:24:00.311,Kband
9,40,2023-01-06 06:25:00.332,Kband
9,40,2023-01-06 06:26:00.303,Kband
9,41,2023-01-06 06:27:00.314,Kband
10,40,2023-01-06 06:28:00.300,Kband
10,40,2023-01-06 06:29:00.606,Kband
10,40,2023-01-06 06:30:00.345,Kband
9,40,2023-01-06 06:31:00.163,Kband
8,40,2023-01-06 06:32:00.262,Kband
9,40,2023-01-06 06:33:00.258,Kband
10,41,2023-01-06 06:34:00.361,Kband
10,40,2023-01-06 06:35:00.312,Kband
10,40,2023-01-06 06:36:00.262,Kband
9,40,2023-01-06 06:37:00.319,Kband
9,40,2023-01-06 06:38:00.325,Kband
10,41,2023-01-06 06:39:00.364,Kband
10,40,2023-01-06 06:40:00.347,Kband
9,40,2023-01-06 06:41:00.315,Kband
8,40,2023-01-06 06:42:00.361,Kband
10,40,2023-01-06 06:43:00.267,Kband
9,40,2023-01-06 06:44:00.272,Kband
9,40,2023-01-06 06:45:00.354,Kband
10,40,2023-01-06 06:46:00.254,Kband
10,40,2023-01-06 06:47:00.295,Kband
9,40,2023-01-06 06:48:00.277,Kband
9,40,2023-01-06 06:49:00.321,Kband
10,40,2023-01-06 06:50:00.361,Kband
10,40,2023-01-06 06:51:00.257,Kband
10,40,2023-01-06 06:52:00.253,Kband
10,40,2023-01-06 06:53:00.321,Kband
9,40,2023-01-06 06:54:00.250,Kband
10,40,2023-01-06 06:55:00.268,Kband
10,40,2023-01-06 06:56:00.270,Kband
10,40,2023-01-06 06:57:00.296,Kband
9,40,2023-01-06 06:58:00.308,Kband
10,40,2023-01-06 06:59:00.315,Kband
10,40,2023-01-06 07:00:00.295,Kband
9,40,2023-01-06 07:01:00.352,Kband
9,40,2023-01-06 07:02:00.472,Kband
10,40,2023-01-06 07:03:00.339,Kband
10,40,2023-01-06 07:04:00.331,Kband
9,40,2023-01-06 07:05:00.240,Kband
9,40,2023-01-06 07:06:00.267,Kband
10,40,2023-01-06 07:07:00.246,Kband
10,40,2023-01-06 07:08:00.293,Kband
9,40,2023-01-06 07:09:00.316,Kband
9,40,2023-01-06 07:10:00.359,Kband
10,40,2023-01-06 07:11:00.249,Kband
10,40,2023-01-06 07:12:00.276,Kband
9,40,2023-01-06 07:13:00.365,Kband
9,40,2023-01-06 07:14:00.366,Kband
9,40,2023-01-06 07:15:00.366,Kband
9,40,2023-01-06 07:16:00.224,Kband
10,40,2023-01-06 07:17:00.260,Kband
10,40,2023-01-06 07:18:00.330,Kband
8,40,2023-01-06 07:19:00.361,Kband
9,40,2023-01-06 07:20:00.268,Kband
10,40,2023-01-06 07:21:00.370,Kband
9,40,2023-01-06 07:22:00.322,Kband
9,40,2023-01-06 07:23:00.241,Kband
10,40,2023-01-06 07:24:00.284,Kband
10,40,2023-01-06 07:25:00.314,Kband
9,40,2023-01-06 07:26:00.272,Kband
9,40,2023-01-06 07:27:00.299,Kband
9,40,2023-01-06 07:28:00.319,Kband
10,40,2023-01-06 07:29:00.331,Kband
10,40,2023-01-06 07:30:00.308,Kband
9,40,2023-01-06 07:31:00.308,Kband
10,40,2023-01-06 07:32:00.293,Kband
10,40,2023-01-06 07:33:00.246,Kband
10,40,2023-01-06 07:34:00.357,Kband
9,40,2023-01-06 07:35:00.336,Kband
9,40,2023-01-06 07:36:00.365,Kband
9,40,2023-01-06 07:37:00.327,Kband
10,40,2023-01-06 07:38:00.272,Kband
10,40,2023-01-06 07:39:00.399,Kband
9,40,2023-01-06 07:40:00.326,Kband
10,40,2023-01-06 07:41:00.345,Kband
10,40,2023-01-06 07:42:00.344,Kband
10,40,2023-01-06 07:43:00.251,Kband
9,40,2023-01-06 07:44:00.277,Kband
9,40,2023-01-06 07:45:00.293,Kband
10,40,2023-01-06 07:46:00.256,Kband
10,40,2023-01-06 07:47:00.250,Kband
10,40,2023-01-06 07:48:00.321,Kband
9,40,2023-01-06 07:49:00.317,Kband
9,40,2023-01-06 07:50:00.303,Kband
10,40,2023-01-06 07:51:00.346,Kband
10,40,2023-01-06 07:52:00.242,Kband
10,40,2023-01-06 07:53:00.321,Kband
9,40,2023-01-06 07:54:00.311,Kband
9,40,2023-01-06 07:55:00.311,Kband
10,40,2023-01-06 07:56:00.308,Kband
10,40,2023-01-06 07:57:00.264,Kband
10,40,2023-01-06 07:58:00.327,Kband
9,40,2023-01-06 07:59:00.255,Kband
9,40,2023-01-06 08:00:00.346,Kband
10,40,2023-01-06 08:01:00.308,Kband
9,40,2023-01-06 08:02:00.339,Kband
9,40,2023-01-06 08:03:00.366,Kband
10,40,2023-01-06 08:04:00.330,Kband
10,40,2023-01-06 08:05:00.320,Kband
9,40,2023-01-06 08:06:00.355,Kband
9,40,2023-01-06 08:07:00.307,Kband
9,40,2023-01-06 08:08:00.253,Kband
10,40,2023-01-06 08:09:00.296,Kband
10,40,2023-01-06 08:10:00.310,Kband
9,40,2023-01-06 08:11:00.362,Kband
10,40,2023-01-06 08:12:00.377,Kband
10,40,2023-01-06 08:13:00.317,Kband
10,40,2023-01-06 08:14:00.325,Kband
9,40,2023-01-06 08:15:00.307,Kband
9,40,2023-01-06 08:16:00.464,Kband
9,40,2023-01-06 08:17:00.360,Kband
10,40,2023-01-06 08:18:00.435,Kband
10,40,2023-01-06 08:19:00.321,Kband
10,40,2023-01-06 08:20:00.360,Kband
10,40,2023-01-06 08:21:00.327,Kband
9,40,2023-01-06 08:22:00.295,Kband
9,40,2023-01-06 08:23:00.279,Kband
10,40,2023-01-06 08:24:00.362,Kband
10,40,2023-01-06 08:25:00.263,Kband
9,40,2023-01-06 08:26:00.356,Kband
10,40,2023-01-06 08:27:00.325,Kband
9,40,2023-01-06 08:28:00.299,Kband
10,40,2023-01-06 08:29:00.368,Kband
10,40,2023-01-06 08:30:00.249,Kband
9,40,2023-01-06 08:31:00.346,Kband
9,40,2023-01-06 08:32:00.315,Kband
9,40,2023-01-06 08:33:00.267,Kband
10,40,2023-01-06 08:34:00.307,Kband
9,40,2023-01-06 08:35:00.308,Kband
9,40,2023-01-06 08:36:00.278,Kband
9,40,2023-01-06 08:37:00.366,Kband
9,40,2023-01-06 08:38:00.284,Kband
10,40,2023-01-06 08:39:00.297,Kband
10,40,2023-01-06 08:40:00.223,Kband
9,40,2023-01-06 08:41:00.343,Kband
10,40,2023-01-06 08:42:00.255,Kband
9,40,2023-01-06 08:43:00.262,Kband
10,40,2023-01-06 08:44:00.259,Kband
10,40,2023-01-06 08:45:00.239,Kband
10,40,2023-01-06 08:46:00.333,Kband
10,40,2023-01-06 08:47:00.293,Kband
10,40,2023-01-06 08:48:00.310,Kband
9,40,2023-01-06 08:49:00.307,Kband
10,40,2023-01-06 08:50:00.350,Kband
9,40,2023-01-06 08:51:00.321,Kband
10,40,2023-01-06 08:52:00.324,Kband
10,40,2023-01-06 08:53:00.223,Kband
9,40,2023-01-06 08:54:00.303,Kband
10,40,2023-01-06 08:55:00.317,Kband
10,40,2023-01-06 08:56:00.291,Kband
10,40,2023-01-06 08:57:00.301,Kband
9,40,2023-01-06 08:58:00.258,Kband
9,40,2023-01-06 08:59:00.353,Kband
10,40,2023-01-06 09:00:00.265,Kband
10,40,2023-01-06 09:01:00.307,Kband
9,40,2023-01-06 09:02:00.244,Kband
9,40,2023-01-06 09:03:00.290,Kband
10,40,2023-01-06 09:04:00.304,Kband
10,40,2023-01-06 09:05:00.315,Kband
10,40,2023-01-06 09:06:00.311,Kband
9,40,2023-01-06 09:07:00.280,Kband
9,40,2023-01-06 09:08:00.294,Kband
9,40,2023-01-06 09:09:00.315,Kband
9,40,2023-01-06 09:10:00.294,Kband
9,40,2023-01-06 09:11:00.326,Kband
10,40,2023-01-06 09:12:00.311,Kband
10,40,2023-01-06 09:13:00.361,Kband
9,40,2023-01-06 09:14:00.349,Kband
9,40,2023-01-06 09:15:00.241,Kband
9,40,2023-01-06 09:16:00.280,Kband
10,40,2023-01-06 09:17:00.289,Kband
10,40,2023-01-06 09:18:00.302,Kband
10,40,2023-01-06 09:19:00.295,Kband
10,40,2023-01-06 09:20:00.267,Kband
10,40,2023-01-06 09:21:00.238,Kband
9,40,2023-01-06 09:22:00.287,Kband
10,40,2023-01-06 09:23:00.277,Kband
10,40,2023-01-06 09:24:00.276,Kband
10,40,2023-01-06 09:25:00.364,Kband
10,40,2023-01-06 09:26:00.285,Kband
10,40,2023-01-06 09:27:00.340,Kband
9,40,2023-01-06 09:28:00.296,Kband
9,40,2023-01-06 09:29:00.360,Kband
10,40,2023-01-06 09:30:00.259,Kband
10,40,2023-01-06 09:31:00.293,Kband
9,40,2023-01-06 09:32:00.376,Kband
10,40,2023-01-06 09:33:00.243,Kband
10,40,2023-01-06 09:34:00.302,Kband
9,40,2023-01-06 09:35:00.359,Kband
9,40,2023-01-06 09:36:00.355,Kband
9,40,2023-01-06 09:37:00.313,Kband
9,40,2023-01-06 09:38:00.256,Kband
9,40,2023-01-06 09:39:00.299,Kband
10,40,2023-01-06 09:40:00.260,Kband
9,40,2023-01-06 09:41:00.285,Kband
9,40,2023-01-06 09:42:00.337,Kband
10,40,2023-01-06 09:43:00.276,Kband
9,40,2023-01-06 09:44:00.360,Kband
10,40,2023-01-06 09:45:00.361,Kband
9,40,2023-01-06 09:46:00.360,Kband
9,40,2023-01-06 09:47:00.295,Kband
10,40,2023-01-06 09:48:00.296,Kband
10,40,2023-01-06 09:49:00.291,Kband
9,40,2023-01-06 09:50:00.178,Kband
9,40,2023-01-06 09:51:00.250,Kband
9,40,2023-01-06 09:52:00.275,Kband
10,40,2023-01-06 09:53:00.292,Kband
9,40,2023-01-06 09:54:00.282,Kband
10,40,2023-01-06 09:55:00.317,Kband
10,40,2023-01-06 09:56:00.388,Kband
10,40,2023-01-06 09:57:00.319,Kband
9,40,2023-01-06 09:58:00.353,Kband
9,40,2023-01-06 09:59:00.283,Kband
10,40,2023-01-06 10:00:00.330,Kband
10,40,2023-01-06 10:01:00.258,Kband
9,40,2023-01-06 10:02:00.239,Kband
9,40,2023-01-06 10:03:00.363,Kband
10,40,2023-01-06 10:04:00.302,Kband
10,40,2023-01-06 10:05:00.291,Kband
9,40,2023-01-06 10:06:00.282,Kband
9,40,2023-01-06 10:07:00.324,Kband
9,40,2023-01-06 10:08:00.361,Kband
9,40,2023-01-06 10:09:00.293,Kband
10,40,2023-01-06 10:10:00.260,Kband
10,40,2023-01-06 10:11:00.361,Kband
9,40,2023-01-06 10:12:00.297,Kband
10,40,2023-01-06 10:13:00.323,Kband
9,40,2023-01-06 10:14:00.375,Kband
10,40,2023-01-06 10:15:00.261,Kband
10,40,2023-01-06 10:16:00.315,Kband
10,40,2023-01-06 10:17:00.293,Kband
10,40,2023-01-06 10:18:00.364,Kband
9,40,2023-01-06 10:19:00.275,Kband
10,40,2023-01-06 10:20:00.278,Kband
9,40,2023-01-06 10:21:00.293,Kband
9,40,2023-01-06 10:22:00.257,Kband
10,40,2023-01-06 10:23:00.306,Kband
9,40,2023-01-06 10:24:00.353,Kband
9,40,2023-01-06 10:25:00.274,Kband
10,40,2023-01-06 10:26:00.297,Kband
10,40,2023-01-06 10:27:00.313,Kband
9,40,2023-01-06 10:28:00.329,Kband
9,40,2023-01-06 10:29:00.310,Kband
9,40,2023-01-06 10:30:00.312,Kband
10,40,2023-01-06 10:31:00.293,Kband
9,40,2023-01-06 10:32:00.345,Kband
9,40,2023-01-06 10:33:00.374,Kband
9,40,2023-01-06 10:34:00.312,Kband
9,40,2023-01-06 10:35:00.311,Kband
10,40,2023-01-06 10:36:00.290,Kband
10,40,2023-01-06 10:37:00.302,Kband
10,40,2023-01-06 10:38:00.310,Kband
9,40,2023-01-06 10:39:00.297,Kband
9,40,2023-01-06 10:40:00.320,Kband
9,40,2023-01-06 10:41:00.272,Kband
9,40,2023-01-06 10:42:00.298,Kband
10,40,2023-01-06 10:43:00.297,Kband
10,40,2023-01-06 10:44:00.322,Kband
9,40,2023-01-06 10:45:00.308,Kband
9,40,2023-01-06 10:46:00.247,Kband
9,40,2023-01-06 10:47:00.312,Kband
10,40,2023-01-06 10:48:00.242,Kband
10,40,2023-01-06 10:49:00.299,Kband
9,40,2023-01-06 10:50:00.318,Kband
10,40,2023-01-06 10:51:00.260,Kband
10,40,2023-01-06 10:52:00.262,Kband
10,40,2023-01-06 10:53:00.281,Kband
10,40,2023-01-06 10:54:00.358,Kband
9,40,2023-01-06 10:55:00.304,Kband
9,40,2023-01-06 10:56:00.304,Kband
9,40,2023-01-06 10:57:00.364,Kband
10,40,2023-01-06 10:58:00.241,Kband
10,40,2023-01-06 10:59:00.304,Kband
9,40,2023-01-06 11:00:00.314,Kband
9,40,2023-01-06 11:01:00.369,Kband
10,40,2023-01-06 11:02:00.294,Kband
10,40,2023-01-06 11:03:00.329,Kband
10,40,2023-01-06 11:04:00.308,Kband
9,40,2023-01-06 11:05:00.308,Kband
9,40,2023-01-06 11:06:00.248,Kband
10,39,2023-01-06 11:07:00.339,Kband
10,39,2023-01-06 11:08:00.278,Kband
10,40,2023-01-06 11:09:00.250,Kband
10,40,2023-01-06 11:10:00.458,Kband
10,39,2023-01-06 11:11:00.424,Kband
9,40,2023-01-06 11:12:00.356,Kband
10,40,2023-01-06 11:13:00.327,Kband
10,40,2023-01-06 11:14:00.276,Kband
10,39,2023-01-06 11:15:00.277,Kband
10,39,2023-01-06 11:16:00.279,Kband
9,40,2023-01-06 11:17:00.250,Kband
10,40,2023-01-06 11:18:00.282,Kband
10,40,2023-01-06 11:19:00.243,Kband
10,40,2023-01-06 11:20:00.265,Kband
10,40,2023-01-06 11:21:00.175,Kband
9,39,2023-01-06 11:22:00.289,Kband
9,40,2023-01-06 11:23:00.244,Kband
10,40,2023-01-06 11:24:00.327,Kband
10,40,2023-01-06 11:25:00.250,Kband
10,40,2023-01-06 11:26:00.320,Kband
9,40,2023-01-06 11:27:00.303,Kband
9,40,2023-01-06 11:28:00.300,Kband
9,40,2023-01-06 11:29:00.259,Kband
9,40,2023-01-06 11:30:00.312,Kband
10,40,2023-01-06 11:31:00.319,Kband
10,39,2023-01-06 11:32:00.250,Kband
10,40,2023-01-06 11:33:00.308,Kband
9,39,2023-01-06 11:34:00.321,Kband
9,40,2023-01-06 11:35:00.297,Kband
10,39,2023-01-06 11:36:00.339,Kband
9,40,2023-01-06 11:37:00.265,Kband
9,40,2023-01-06 11:38:00.307,Kband
10,40,2023-01-06 11:39:00.285,Kband
10,40,2023-01-06 11:40:00.372,Kband
9,40,2023-01-06 11:41:00.294,Kband
9,40,2023-01-06 11:42:00.296,Kband
10,40,2023-01-06 11:43:00.257,Kband
10,40,2023-01-06 11:44:00.335,Kband
10,40,2023-01-06 11:45:00.323,Kband
9,40,2023-01-06 11:46:00.315,Kband
9,40,2023-01-06 11:47:00.417,Kband
9,40,2023-01-06 11:48:00.224,Kband
9,40,2023-01-06 11:49:00.286,Kband
10,40,2023-01-06 11:50:00.219,Kband
10,40,2023-01-06 11:51:00.261,Kband
10,40,2023-01-06 11:52:00.294,Kband
10,40,2023-01-06 11:53:00.290,Kband
10,40,2023-01-06 11:54:00.287,Kband
9,40,2023-01-06 11:55:00.303,Kband
9,40,2023-01-06 11:56:00.247,Kband
9,40,2023-01-06 11:57:00.353,Kband
10,40,2023-01-06 11:58:00.225,Kband
9,40,2023-01-06 11:59:00.304,Kband
10,40,2023-01-06 12:00:00.346,Kband
10,40,2023-01-06 12:01:00.305,Kband
10,40,2023-01-06 12:02:00.211,Kband
9,40,2023-01-06 12:03:00.274,Kband
9,40,2023-01-06 12:04:00.293,Kband
10,40,2023-01-06 12:05:00.294,Kband
10,40,2023-01-06 12:06:00.255,Kband
10,40,2023-01-06 12:07:00.271,Kband
10,40,2023-01-06 12:08:00.287,Kband
9,40,2023-01-06 12:09:00.332,Kband
9,40,2023-01-06 12:10:00.261,Kband
9,40,2023-01-06 12:11:00.308,Kband
10,40,2023-01-06 12:12:00.273,Kband
10,40,2023-01-06 12:13:00.285,Kband
10,40,2023-01-06 12:14:00.308,Kband
10,40,2023-01-06 12:15:00.293,Kband
9,40,2023-01-06 12:16:00.328,Kband
9,40,2023-01-06 12:17:00.308,Kband
9,40,2023-01-06 12:18:00.249,Kband
10,40,2023-01-06 12:19:00.380,Kband
10,40,2023-01-06 12:20:00.335,Kband
10,40,2023-01-06 12:21:00.383,Kband
9,40,2023-01-06 12:22:00.439,Kband
10,40,2023-01-06 12:23:00.368,Kband
10,40,2023-01-06 12:24:00.307,Kband
10,40,2023-01-06 12:25:00.358,Kband
10,40,2023-01-06 12:26:00.356,Kband
9,40,2023-01-06 12:27:00.256,Kband
9,40,2023-01-06 12:28:00.296,Kband
9,40,2023-01-06 12:29:00.302,Kband
10,40,2023-01-06 12:30:00.254,Kband
10,40,2023-01-06 12:31:00.302,Kband
9,40,2023-01-06 12:32:00.314,Kband
10,40,2023-01-06 12:33:00.266,Kband
10,40,2023-01-06 12:34:00.305,Kband
9,40,2023-01-06 12:35:00.248,Kband
9,40,2023-01-06 12:36:00.287,Kband
10,40,2023-01-06 12:37:00.344,Kband
10,40,2023-01-06 12:38:00.244,Kband
9,40,2023-01-06 12:39:00.363,Kband
10,40,2023-01-06 12:40:00.245,Kband
9,40,2023-01-06 12:41:00.323,Kband
9,40,2023-01-06 12:42:00.255,Kband
9,40,2023-01-06 12:43:00.251,Kband
10,40,2023-01-06 12:44:00.357,Kband
10,40,2023-01-06 12:45:00.298,Kband
10,40,2023-01-06 12:46:00.312,Kband
9,40,2023-01-06 12:47:00.361,Kband
10,40,2023-01-06 12:48:00.368,Kband
10,40,2023-01-06 12:49:00.280,Kband
9,40,2023-01-06 12:50:00.305,Kband
10,40,2023-01-06 12:51:00.292,Kband
10,40,2023-01-06 12:52:00.274,Kband
10,40,2023-01-06 12:53:00.309,Kband
9,40,2023-01-06 12:54:00.350,Kband
10,40,2023-01-06 12:55:00.298,Kband
10,40,2023-01-06 12:56:00.295,Kband
9,40,2023-01-06 12:57:00.283,Kband
9,40,2023-01-06 12:58:00.268,Kband
10,40,2023-01-06 12:59:00.406,Kband
10,40,2023-01-06 13:00:00.358,Kband
9,40,2023-01-06 13:01:00.305,Kband
9,40,2023-01-06 13:02:00.364,Kband
9,40,2023-01-06 13:03:00.362,Kband
10,40,2023-01-06 13:04:00.308,Kband
10,40,2023-01-06 13:05:00.298,Kband
9,40,2023-01-06 13:06:00.295,Kband
9,40,2023-01-06 13:07:00.294,Kband
10,40,2023-01-06 13:08:00.248,Kband
10,40,2023-01-06 13:09:00.285,Kband
9,40,2023-01-06 13:10:00.294,Kband
9,40,2023-01-06 13:11:00.361,Kband
9,40,2023-01-06 13:12:00.364,Kband
9,40,2023-01-06 13:13:00.297,Kband
9,40,2023-01-06 13:14:00.181,Kband
9,40,2023-01-06 13:15:00.291,Kband
10,40,2023-01-06 13:16:00.275,Kband
10,40,2023-01-06 13:17:00.310,Kband
9,40,2023-01-06 13:18:00.318,Kband
9,40,2023-01-06 13:19:00.294,Kband
10,40,2023-01-06 13:20:00.282,Kband
10,40,2023-01-06 13:21:00.255,Kband
10,40,2023-01-06 13:22:00.349,Kband
10,40,2023-01-06 13:23:00.296,Kband
9,40,2023-01-06 13:24:00.361,Kband
9,40,2023-01-06 13:25:00.293,Kband
10,40,2023-01-06 13:26:00.338,Kband
10,40,2023-01-06 13:27:00.309,Kband
9,40,2023-01-06 13:28:00.302,Kband
9,40,2023-01-06 13:29:00.265,Kband
9,40,2023-01-06 13:30:00.369,Kband
10,40,2023-01-06 13:31:00.266,Kband
9,40,2023-01-06 13:32:00.245,Kband
9,40,2023-01-06 13:33:00.395,Kband
10,40,2023-01-06 13:34:00.382,Kband
10,40,2023-01-06 13:35:00.310,Kband
10,40,2023-01-06 13:36:00.365,Kband
9,40,2023-01-06 13:37:00.312,Kband
9,40,2023-01-06 13:38:00.371,Kband
10,40,2023-01-06 13:39:00.220,Kband
10,40,2023-01-06 13:40:00.361,Kband
9,40,2023-01-06 13:41:00.315,Kband
9,40,2023-01-06 13:42:00.296,Kband
8,40,2023-01-06 13:43:00.372,Kband
10,40,2023-01-06 13:44:00.307,Kband
10,40,2023-01-06 13:45:00.173,Kband
9,40,2023-01-06 13:46:00.260,Kband
9,40,2023-01-06 13:47:00.290,Kband
10,40,2023-01-06 13:48:00.363,Kband
10,40,2023-01-06 13:49:00.289,Kband
10,40,2023-01-06 13:50:00.301,Kband
10,40,2023-01-06 13:51:00.251,Kband
9,40,2023-01-06 13:52:00.303,Kband
9,40,2023-01-06 13:53:00.313,Kband
10,40,2023-01-06 13:54:00.311,Kband
10,40,2023-01-06 13:55:00.293,Kband
10,40,2023-01-06 13:56:00.273,Kband
9,40,2023-01-06 13:57:00.243,Kband
9,40,2023-01-06 13:58:00.283,Kband
10,40,2023-01-06 13:59:00.318,Kband
10,40,2023-01-06 14:00:00.279,Kband
9,40,2023-01-06 14:01:00.363,Kband
9,40,2023-01-06 14:02:00.311,Kband
9,40,2023-01-06 14:03:00.363,Kband
10,40,2023-01-06 14:04:00.253,Kband
9,40,2023-01-06 14:05:00.220,Kband
9,40,2023-01-06 14:06:00.387,Kband
10,39,2023-01-06 14:07:00.371,Kband
10,40,2023-01-06 14:08:00.320,Kband
10,39,2023-01-06 14:09:00.287,Kband
9,40,2023-01-06 14:10:00.223,Kband
9,39,2023-01-06 14:11:00.300,Kband
10,39,2023-01-06 14:12:00.315,Kband
10,40,2023-01-06 14:13:00.256,Kband
10,39,2023-01-06 14:14:00.277,Kband
9,40,2023-01-06 14:15:00.247,Kband
9,40,2023-01-06 14:16:00.309,Kband
10,39,2023-01-06 14:17:00.317,Kband
9,40,2023-01-06 14:18:00.297,Kband
9,40,2023-01-06 14:19:00.256,Kband
9,40,2023-01-06 14:20:00.284,Kband
9,40,2023-01-06 14:21:00.242,Kband
10,40,2023-01-06 14:22:00.343,Kband
9,39,2023-01-06 14:23:00.317,Kband
10,40,2023-01-06 14:24:00.178,Kband
10,39,2023-01-06 14:25:00.381,Kband
10,40,2023-01-06 14:26:00.367,Kband
9,40,2023-01-06 14:27:00.300,Kband
10,39,2023-01-06 14:28:00.259,Kband
10,40,2023-01-06 14:29:00.267,Kband
9,39,2023-01-06 14:30:00.293,Kband
9,39,2023-01-06 14:31:00.304,Kband
10,39,2023-01-06 14:32:00.347,Kband
10,40,2023-01-06 14:33:00.298,Kband
10,40,2023-01-06 14:34:00.372,Kband
9,40,2023-01-06 14:35:00.270,Kband
9,40,2023-01-06 14:36:00.313,Kband
10,40,2023-01-06 14:37:00.269,Kband
10,40,2023-01-06 14:38:00.314,Kband
10,39,2023-01-06 14:39:00.286,Kband
9,40,2023-01-06 14:40:00.357,Kband
9,40,2023-01-06 14:41:00.370,Kband
9,40,2023-01-06 14:42:00.247,Kband
10,39,2023-01-06 14:43:00.412,Kband
10,40,2023-01-06 14:44:00.313,Kband
10,40,2023-01-06 14:45:00.363,Kband
10,40,2023-01-06 14:46:00.245,Kband
10,40,2023-01-06 14:47:00.309,Kband
9,40,2023-01-06 14:48:00.295,Kband
10,39,2023-01-06 14:49:00.252,Kband
10,39,2023-01-06 14:50:00.260,Kband
9,40,2023-01-06 14:51:00.367,Kband
10,39,2023-01-06 14:52:00.309,Kband
10,40,2023-01-06 14:53:00.328,Kband
9,40,2023-01-06 14:54:00.294,Kband
9,40,2023-01-06 14:55:00.238,Kband
10,40,2023-01-06 14:56:00.252,Kband
10,40,2023-01-06 14:57:00.288,Kband
10,40,2023-01-06 14:58:00.277,Kband
9,39,2023-01-06 14:59:00.309,Kband
9,40,2023-01-06 15:00:00.354,Kband
10,40,2023-01-06 15:01:00.291,Kband
9,40,2023-01-06 15:02:00.329,Kband
10,40,2023-01-06 15:03:00.249,Kband
9,40,2023-01-06 15:04:00.280,Kband
9,40,2023-01-06 15:05:00.323,Kband
10,40,2023-01-06 15:06:00.310,Kband
10,40,2023-01-06 15:07:00.359,Kband
9,40,2023-01-06 15:08:00.256,Kband
9,40,2023-01-06 15:09:00.229,Kband
9,40,2023-01-06 15:10:00.314,Kband
10,40,2023-01-06 15:11:00.369,Kband
10,40,2023-01-06 15:12:00.293,Kband
10,40,2023-01-06 15:13:00.309,Kband
9,40,2023-01-06 15:14:00.374,Kband
9,40,2023-01-06 15:15:00.219,Kband
10,40,2023-01-06 15:16:00.284,Kband
10,40,2023-01-06 15:17:00.328,Kband
10,40,2023-01-06 15:18:00.313,Kband
9,40,2023-01-06 15:19:00.249,Kband
9,40,2023-01-06 15:20:00.333,Kband
9,40,2023-01-06 15:21:00.293,Kband
10,40,2023-01-06 15:22:00.282,Kband
9,40,2023-01-06 15:23:00.349,Kband
10,40,2023-01-06 15:24:00.328,Kband
10,40,2023-01-06 15:25:00.262,Kband
9,40,2023-01-06 15:26:00.387,Kband
10,40,2023-01-06 15:27:00.327,Kband
10,40,2023-01-06 15:28:00.341,Kband
10,40,2023-01-06 15:29:00.365,Kband
10,40,2023-01-06 15:30:00.282,Kband
9,40,2023-01-06 15:31:00.366,Kband
10,40,2023-01-06 15:32:00.306,Kband
10,40,2023-01-06 15:33:00.300,Kband
9,40,2023-01-06 15:34:00.301,Kband
10,40,2023-01-06 15:35:00.356,Kband
9,40,2023-01-06 15:36:00.288,Kband
10,40,2023-01-06 15:37:00.285,Kband
9,40,2023-01-06 15:38:00.328,Kband
10,40,2023-01-06 15:39:00.415,Kband
10,40,2023-01-06 15:40:00.294,Kband
9,40,2023-01-06 15:41:00.370,Kband
9,40,2023-01-06 15:42:00.307,Kband
10,40,2023-01-06 15:43:00.220,Kband
9,40,2023-01-06 15:44:00.325,Kband
9,40,2023-01-06 15:45:00.315,Kband
10,40,2023-01-06 15:46:00.314,Kband
9,40,2023-01-06 15:47:00.262,Kband
10,40,2023-01-06 15:48:00.312,Kband
10,40,2023-01-06 15:49:00.409,Kband
10,40,2023-01-06 15:50:00.342,Kband
9,40,2023-01-06 15:51:00.239,Kband
9,40,2023-01-06 15:52:00.306,Kband
9,40,2023-01-06 15:53:00.340,Kband
10,40,2023-01-06 15:54:00.269,Kband
10,40,2023-01-06 15:55:00.313,Kband
9,40,2023-01-06 15:56:00.308,Kband
9,40,2023-01-06 15:57:00.251,Kband
9,40,2023-01-06 15:58:00.297,Kband
10,40,2023-01-06 15:59:00.245,Kband
10,40,2023-01-06 16:00:00.340,Kband
10,39,2023-01-06 16:01:00.324,Kband
9,40,2023-01-06 16:02:00.310,Kband
9,40,2023-01-06 16:03:00.302,Kband
9,40,2023-01-06 16:04:00.271,Kband
10,39,2023-01-06 16:05:00.335,Kband
10,40,2023-01-06 16:06:00.319,Kband
10,40,2023-01-06 16:07:00.292,Kband
10,39,2023-01-06 16:08:00.338,Kband
10,39,2023-01-06 16:09:00.325,Kband
9,39,2023-01-06 16:10:00.252,Kband
9,39,2023-01-06 16:11:00.298,Kband
10,40,2023-01-06 16:12:00.311,Kband
10,40,2023-01-06 16:13:00.275,Kband
10,40,2023-01-06 16:14:00.307,Kband
10,40,2023-01-06 16:15:00.263,Kband
10,39,2023-01-06 16:16:00.365,Kband
9,40,2023-01-06 16:17:00.244,Kband
10,39,2023-01-06 16:18:00.295,Kband
9,40,2023-01-06 16:19:00.263,Kband
9,39,2023-01-06 16:20:00.389,Kband
10,39,2023-01-06 16:21:00.260,Kband
10,39,2023-01-06 16:22:00.238,Kband
10,40,2023-01-06 16:23:00.352,Kband
9,40,2023-01-06 16:24:00.311,Kband
9,39,2023-01-06 16:25:00.315,Kband
10,40,2023-01-06 16:26:00.292,Kband
10,40,2023-01-06 16:27:00.254,Kband
10,40,2023-01-06 16:28:00.281,Kband
10,40,2023-01-06 16:29:00.311,Kband
10,40,2023-01-06 16:30:00.342,Kband
9,39,2023-01-06 16:31:00.305,Kband
10,40,2023-01-06 16:32:00.312,Kband
10,39,2023-01-06 16:33:00.338,Kband
9,39,2023-01-06 16:34:00.369,Kband
9,39,2023-01-06 16:35:00.276,Kband
9,39,2023-01-06 16:36:00.303,Kband
9,40,2023-01-06 16:37:00.318,Kband
10,40,2023-01-06 16:38:00.329,Kband
10,40,2023-01-06 16:39:00.289,Kband
9,40,2023-01-06 16:40:00.310,Kband
10,40,2023-01-06 16:41:00.363,Kband
9,40,2023-01-06 16:42:00.289,Kband
9,39,2023-01-06 16:43:00.253,Kband
10,39,2023-01-06 16:44:00.315,Kband
10,40,2023-01-06 16:45:00.331,Kband
10,40,2023-01-06 16:46:00.245,Kband
9,40,2023-01-06 16:47:00.267,Kband
9,40,2023-01-06 16:48:00.274,Kband
9,40,2023-01-06 16:49:00.301,Kband
10,40,2023-01-06 16:50:00.276,Kband
10,40,2023-01-06 16:51:00.305,Kband
10,40,2023-01-06 16:52:00.299,Kband
10,40,2023-01-06 16:53:00.370,Kband
9,40,2023-01-06 16:54:00.308,Kband
9,40,2023-01-06 16:55:00.301,Kband
9,40,2023-01-06 16:56:00.267,Kband
9,40,2023-01-06 16:57:00.327,Kband
9,40,2023-01-06 16:58:00.308,Kband
10,40,2023-01-06 16:59:00.342,Kband
9,40,2023-01-06 17:00:00.360,Kband
9,40,2023-01-06 17:01:00.372,Kband
10,40,2023-01-06 17:02:00.246,Kband
10,40,2023-01-06 17:03:00.307,Kband
10,40,2023-01-06 17:04:00.295,Kband
9,40,2023-01-06 17:05:00.283,Kband
9,40,2023-01-06 17:06:00.320,Kband
9,40,2023-01-06 17:07:00.349,Kband
10,40,2023-01-06 17:08:00.266,Kband
10,40,2023-01-06 17:09:00.310,Kband
9,40,2023-01-06 17:10:00.356,Kband
9,40,2023-01-06 17:11:00.378,Kband
10,40,2023-01-06 17:12:00.283,Kband
10,40,2023-01-06 17:13:00.264,Kband
10,40,2023-01-06 17:14:00.272,Kband
9,40,2023-01-06 17:15:00.366,Kband
9,40,2023-01-06 17:16:00.365,Kband
10,40,2023-01-06 17:17:00.267,Kband
10,40,2023-01-06 17:18:00.302,Kband
10,40,2023-01-06 17:19:00.370,Kband
9,40,2023-01-06 17:20:00.308,Kband
10,40,2023-01-06 17:21:00.258,Kband
9,40,2023-01-06 17:22:00.307,Kband
10,40,2023-01-06 17:23:00.307,Kband
9,40,2023-01-06 17:24:00.307,Kband
9,40,2023-01-06 17:25:00.255,Kband
9,40,2023-01-06 17:26:00.264,Kband
9,40,2023-01-06 17:27:00.363,Kband
9,40,2023-01-06 17:28:00.244,Kband
10,40,2023-01-06 17:29:00.319,Kband
10,40,2023-01-06 17:30:00.241,Kband
10,40,2023-01-06 17:31:00.302,Kband
10,40,2023-01-06 17:32:00.293,Kband
9,40,2023-01-06 17:33:00.319,Kband
9,40,2023-01-06 17:34:00.293,Kband
9,40,2023-01-06 17:35:00.275,Kband
9,40,2023-01-06 17:36:00.310,Kband
9,40,2023-01-06 17:37:00.263,Kband
9,40,2023-01-06 17:38:00.311,Kband
9,40,2023-01-06 17:39:00.286,Kband
9,40,2023-01-06 17:40:00.311,Kband
9,40,2023-01-06 17:41:00.269,Kband
10,40,2023-01-06 17:42:00.258,Kband
9,40,2023-01-06 17:43:00.310,Kband
9,40,2023-01-06 17:44:00.366,Kband
9,40,2023-01-06 17:45:00.285,Kband
10,40,2023-01-06 17:46:00.240,Kband
10,40,2023-01-06 17:47:00.285,Kband
9,40,2023-01-06 17:48:00.312,Kband
9,40,2023-01-06 17:49:00.280,Kband
10,40,2023-01-06 17:50:00.295,Kband
10,40,2023-01-06 17:51:00.295,Kband
10,40,2023-01-06 17:52:00.245,Kband
9,40,2023-01-06 17:53:00.271,Kband
10,40,2023-01-06 17:54:00.304,Kband
9,40,2023-01-06 17:55:00.342,Kband
10,40,2023-01-06 17:56:00.311,Kband
10,40,2023-01-06 17:57:00.262,Kband
9,40,2023-01-06 17:58:00.268,Kband
10,40,2023-01-06 17:59:00.243,Kband
10,40,2023-01-06 18:00:00.196,Kband
9,40,2023-01-06 18:01:00.204,Kband
9,40,2023-01-06 18:02:00.202,Kband
9,40,2023-01-06 18:03:00.294,Kband
9,40,2023-01-06 18:04:00.295,Kband
9,40,2023-01-06 18:05:00.188,Kband
9,40,2023-01-06 18:06:00.320,Kband
10,40,2023-01-06 18:07:00.205,Kband
10,40,2023-01-06 18:08:00.317,Kband
9,40,2023-01-06 18:09:00.301,Kband
9,40,2023-01-06 18:10:00.259,Kband
10,40,2023-01-06 18:11:00.309,Kband
10,40,2023-01-06 18:12:00.263,Kband
10,40,2023-01-06 18:13:00.257,Kband
10,40,2023-01-06 18:14:00.269,Kband
10,40,2023-01-06 18:15:00.172,Kband
9,40,2023-01-06 18:16:00.312,Kband
9,40,2023-01-06 18:17:00.312,Kband
9,40,2023-01-06 18:18:00.248,Kband
10,40,2023-01-06 18:19:00.297,Kband
10,40,2023-01-06 18:20:00.244,Kband
10,40,2023-01-06 18:21:00.321,Kband
10,40,2023-01-06 18:22:00.317,Kband
10,40,2023-01-06 18:23:00.225,Kband
9,40,2023-01-06 18:24:00.202,Kband
10,40,2023-01-06 18:25:00.224,Kband
9,40,2023-01-06 18:26:00.294,Kband
9,40,2023-01-06 18:27:00.291,Kband
10,40,2023-01-06 18:28:00.245,Kband
9,40,2023-01-06 18:29:00.227,Kband
9,40,2023-01-06 18:30:00.320,Kband
10,40,2023-01-06 18:31:00.309,Kband
9,40,2023-01-06 18:32:00.288,Kband
9,40,2023-01-06 18:33:00.208,Kband
9,40,2023-01-06 18:34:00.312,Kband
9,40,2023-01-06 18:35:00.294,Kband
10,40,2023-01-06 18:36:00.388,Kband
10,40,2023-01-06 18:37:00.240,Kband
10,40,2023-01-06 18:38:00.310,Kband
9,40,2023-01-06 18:39:00.290,Kband
9,40,2023-01-06 18:40:00.184,Kband
10,40,2023-01-06 18:41:00.316,Kband
9,40,2023-01-06 18:42:00.232,Kband
9,40,2023-01-06 18:43:00.198,Kband
9,40,2023-01-06 18:44:00.304,Kband
10,40,2023-01-06 18:45:00.242,Kband
9,40,2023-01-06 18:46:00.221,Kband
9,40,2023-01-06 18:47:00.259,Kband
9,40,2023-01-06 18:48:00.189,Kband
9,40,2023-01-06 18:49:00.284,Kband
10,40,2023-01-06 18:50:00.292,Kband
10,40,2023-01-06 18:51:00.253,Kband
9,40,2023-01-06 18:52:00.238,Kband
9,40,2023-01-06 18:53:00.268,Kband
10,40,2023-01-06 18:54:00.307,Kband
10,40,2023-01-06 18:55:00.283,Kband
9,40,2023-01-06 18:56:00.257,Kband
9,40,2023-01-06 18:57:00.253,Kband
10,40,2023-01-06 18:58:00.235,Kband
9,40,2023-01-06 18:59:00.286,Kband
9,40,2023-01-06 19:00:00.251,Kband
9,40,2023-01-06 19:01:00.301,Kband
10,40,2023-01-06 19:02:00.311,Kband
10,40,2023-01-06 19:03:00.257,Kband
9,40,2023-01-06 19:04:00.304,Kband
10,40,2023-01-06 19:05:00.191,Kband
9,40,2023-01-06 19:06:00.290,Kband
9,40,2023-01-06 19:07:00.207,Kband
10,40,2023-01-06 19:08:00.319,Kband
10,40,2023-01-06 19:09:00.195,Kband
10,40,2023-01-06 19:10:00.199,Kband
9,40,2023-01-06 19:11:00.406,Kband
9,40,2023-01-06 19:12:00.248,Kband
10,40,2023-01-06 19:13:00.271,Kband
10,40,2023-01-06 19:14:00.241,Kband
10,40,2023-01-06 19:15:00.265,Kband
10,40,2023-01-06 19:16:00.316,Kband
9,40,2023-01-06 19:17:00.204,Kband
9,40,2023-01-06 19:18:00.249,Kband
9,40,2023-01-06 19:19:00.214,Kband
10,40,2023-01-06 19:20:00.316,Kband
10,40,2023-01-06 19:21:00.264,Kband
9,40,2023-01-06 19:22:00.242,Kband
10,40,2023-01-06 19:23:00.308,Kband
9,40,2023-01-06 19:24:00.258,Kband
9,40,2023-01-06 19:25:00.252,Kband
10,40,2023-01-06 19:26:00.302,Kband
10,40,2023-01-06 19:27:00.239,Kband
9,40,2023-01-06 19:28:00.237,Kband
9,40,2023-01-06 19:29:00.183,Kband
10,40,2023-01-06 19:30:00.220,Kband
9,40,2023-01-06 19:31:00.253,Kband
9,40,2023-01-06 19:32:00.252,Kband
9,40,2023-01-06 19:33:00.242,Kband
9,40,2023-01-06 19:34:00.298,Kband
10,40,2023-01-06 19:35:00.271,Kband
10,40,2023-01-06 19:36:00.268,Kband
10,40,2023-01-06 19:37:00.188,Kband
10,40,2023-01-06 19:38:00.247,Kband
9,40,2023-01-06 19:39:00.270,Kband
10,40,2023-01-06 19:40:00.243,Kband
9,40,2023-01-06 19:41:00.251,Kband
10,40,2023-01-06 19:42:00.308,Kband
10,40,2023-01-06 19:43:00.294,Kband
10,40,2023-01-06 19:44:00.313,Kband
10,40,2023-01-06 19:45:00.314,Kband
9,40,2023-01-06 19:46:00.258,Kband
9,40,2023-01-06 19:47:00.310,Kband
9,40,2023-01-06 19:48:00.284,Kband
9,40,2023-01-06 19:49:00.293,Kband
10,40,2023-01-06 19:50:00.225,Kband
9,40,2023-01-06 19:51:00.270,Kband
9,40,2023-01-06 19:52:00.207,Kband
9,40,2023-01-06 19:53:00.308,Kband
9,40,2023-01-06 19:54:00.418,Kband
10,40,2023-01-06 19:55:00.224,Kband
9,40,2023-01-06 19:56:00.206,Kband
10,40,2023-01-06 19:57:00.258,Kband
10,40,2023-01-06 19:58:00.242,Kband
10,40,2023-01-06 19:59:00.308,Kband
10,40,2023-01-06 20:00:00.321,Kband
10,40,2023-01-06 20:01:00.270,Kband
10,40,2023-01-06 20:02:00.244,Kband
10,40,2023-01-06 20:03:00.300,Kband
10,40,2023-01-06 20:04:00.420,Kband
10,40,2023-01-06 20:05:00.221,Kband
9,40,2023-01-06 20:06:00.193,Kband
10,40,2023-01-06 20:07:00.265,Kband
9,40,2023-01-06 20:08:00.258,Kband
10,40,2023-01-06 20:09:00.230,Kband
10,40,2023-01-06 20:10:00.286,Kband
9,40,2023-01-06 20:11:00.315,Kband
9,40,2023-01-06 20:12:00.201,Kband
9,40,2023-01-06 20:13:00.316,Kband
10,40,2023-01-06 20:14:00.313,Kband
10,39,2023-01-06 20:15:00.258,Kband
9,39,2023-01-06 20:16:00.273,Kband
9,39,2023-01-06 20:17:00.387,Kband
9,39,2023-01-06 20:18:00.245,Kband
10,40,2023-01-06 20:19:00.264,Kband
9,40,2023-01-06 20:20:00.262,Kband
10,40,2023-01-06 20:21:00.257,Kband
10,40,2023-01-06 20:22:00.258,Kband
10,40,2023-01-06 20:23:00.264,Kband
10,40,2023-01-06 20:24:00.283,Kband
10,40,2023-01-06 20:25:00.261,Kband
9,40,2023-01-06 20:26:00.296,Kband
10,40,2023-01-06 20:27:00.284,Kband
10,40,2023-01-06 20:28:00.251,Kband
10,40,2023-01-06 20:29:00.259,Kband
10,40,2023-01-06 20:30:00.263,Kband
9,40,2023-01-06 20:31:00.308,Kband
9,40,2023-01-06 20:32:00.227,Kband
9,40,2023-01-06 20:33:00.407,Kband
10,40,2023-01-06 20:34:00.297,Kband
10,40,2023-01-06 20:35:00.188,Kband
10,40,2023-01-06 20:36:00.309,Kband
9,40,2023-01-06 20:37:00.272,Kband
9,40,2023-01-06 20:38:00.257,Kband
10,40,2023-01-06 20:39:00.262,Kband
10,40,2023-01-06 20:40:00.302,Kband
10,40,2023-01-06 20:41:00.242,Kband
9,40,2023-01-06 20:42:00.270,Kband
10,40,2023-01-06 20:43:00.260,Kband
9,40,2023-01-06 20:44:00.223,Kband
9,40,2023-01-06 20:45:00.256,Kband
10,40,2023-01-06 20:46:00.254,Kband
10,40,2023-01-06 20:47:00.290,Kband
10,40,2023-01-06 20:48:00.280,Kband
10,40,2023-01-06 20:49:00.200,Kband
10,40,2023-01-06 20:50:00.218,Kband
10,40,2023-01-06 20:51:00.277,Kband
10,40,2023-01-06 20:52:00.192,Kband
9,40,2023-01-06 20:53:00.311,Kband
10,40,2023-01-06 20:54:00.270,Kband
10,40,2023-01-06 20:55:00.297,Kband
10,40,2023-01-06 20:56:00.283,Kband
9,40,2023-01-06 20:57:00.260,Kband
9,40,2023-01-06 20:58:00.242,Kband
10,40,2023-01-06 20:59:00.192,Kband
10,40,2023-01-06 21:00:00.207,Kband
9,40,2023-01-06 21:01:00.248,Kband
9,40,2023-01-06 21:02:00.309,Kband
9,40,2023-01-06 21:03:00.259,Kband
10,40,2023-01-06 21:04:00.262,Kband
10,40,2023-01-06 21:05:00.285,Kband
9,40,2023-01-06 21:06:00.326,Kband
9,40,2023-01-06 21:07:00.262,Kband
9,40,2023-01-06 21:08:00.314,Kband
10,40,2023-01-06 21:09:00.255,Kband
10,40,2023-01-06 21:10:00.196,Kband
9,40,2023-01-06 21:11:00.320,Kband
10,40,2023-01-06 21:12:00.196,Kband
9,40,2023-01-06 21:13:00.311,Kband
10,40,2023-01-06 21:14:00.263,Kband
10,40,2023-01-06 21:15:00.293,Kband
10,40,2023-01-06 21:16:00.249,Kband
9,40,2023-01-06 21:17:00.256,Kband
9,40,2023-01-06 21:18:00.196,Kband
10,40,2023-01-06 21:19:00.188,Kband
9,40,2023-01-06 21:20:00.199,Kband
10,40,2023-01-06 21:21:00.300,Kband
9,40,2023-01-06 21:22:00.257,Kband
9,40,2023-01-06 21:23:00.241,Kband
10,40,2023-01-06 21:24:00.308,Kband
9,40,2023-01-06 21:25:00.252,Kband
10,40,2023-01-06 21:26:00.292,Kband
9,40,2023-01-06 21:27:00.196,Kband
9,40,2023-01-06 21:28:00.248,Kband
9,40,2023-01-06 21:29:00.253,Kband
10,40,2023-01-06 21:30:00.219,Kband
10,40,2023-01-06 21:31:00.315,Kband
10,40,2023-01-06 21:32:00.203,Kband
9,40,2023-01-06 21:33:00.208,Kband
9,40,2023-01-06 21:34:00.227,Kband
10,40,2023-01-06 21:35:00.270,Kband
10,40,2023-01-06 21:36:00.302,Kband
10,40,2023-01-06 21:37:00.240,Kband
9,40,2023-01-06 21:38:00.307,Kband
9,40,2023-01-06 21:39:00.292,Kband
9,40,2023-01-06 21:40:00.249,Kband
9,40,2023-01-06 21:41:00.317,Kband
10,40,2023-01-06 21:42:00.271,Kband
10,40,2023-01-06 21:43:00.292,Kband
10,40,2023-01-06 21:44:00.194,Kband
9,40,2023-01-06 21:45:00.300,Kband
9,40,2023-01-06 21:46:00.305,Kband
10,40,2023-01-06 21:47:00.249,Kband
10,40,2023-01-06 21:48:00.254,Kband
9,40,2023-01-06 21:49:00.221,Kband
10,40,2023-01-06 21:50:00.204,Kband
9,40,2023-01-06 21:51:00.282,Kband
9,40,2023-01-06 21:52:00.199,Kband
10,40,2023-01-06 21:53:00.314,Kband
9,40,2023-01-06 21:54:00.189,Kband
9,40,2023-01-06 21:55:00.303,Kband
10,40,2023-01-06 21:56:00.280,Kband
10,40,2023-01-06 21:57:00.251,Kband
9,40,2023-01-06 21:58:00.239,Kband
9,40,2023-01-06 21:59:00.262,Kband
9,40,2023-01-06 22:00:00.280,Kband
10,40,2023-01-06 22:01:00.229,Kband
10,40,2023-01-06 22:02:00.238,Kband
9,40,2023-01-06 22:03:00.206,Kband
9,40,2023-01-06 22:04:00.253,Kband
10,40,2023-01-06 22:05:00.265,Kband
10,40,2023-01-06 22:06:00.235,Kband
9,40,2023-01-06 22:07:00.418,Kband
10,40,2023-01-06 22:08:00.311,Kband
9,40,2023-01-06 22:09:00.311,Kband
10,40,2023-01-06 22:10:00.307,Kband
10,40,2023-01-06 22:11:00.295,Kband
9,40,2023-01-06 22:12:00.329,Kband
9,40,2023-01-06 22:13:00.301,Kband
9,40,2023-01-06 22:14:00.317,Kband
10,40,2023-01-06 22:15:00.240,Kband
10,40,2023-01-06 22:16:00.231,Kband
10,40,2023-01-06 22:17:00.277,Kband
10,40,2023-01-06 22:18:00.250,Kband
9,40,2023-01-06 22:19:00.328,Kband
10,40,2023-01-06 22:20:00.241,Kband
9,40,2023-01-06 22:21:00.235,Kband
9,40,2023-01-06 22:22:00.263,Kband
10,40,2023-01-06 22:23:00.238,Kband
10,40,2023-01-06 22:24:00.240,Kband
9,40,2023-01-06 22:25:00.271,Kband
9,40,2023-01-06 22:26:00.286,Kband
10,40,2023-01-06 22:27:00.326,Kband
9,40,2023-01-06 22:28:00.306,Kband
9,40,2023-01-06 22:29:00.313,Kband
10,40,2023-01-06 22:30:00.185,Kband
10,40,2023-01-06 22:31:00.324,Kband
10,40,2023-01-06 22:32:00.318,Kband
10,40,2023-01-06 22:33:00.309,Kband
10,40,2023-01-06 22:34:00.296,Kband
10,40,2023-01-06 22:35:00.260,Kband
9,40,2023-01-06 22:36:00.328,Kband
10,40,2023-01-06 22:37:00.312,Kband
10,40,2023-01-06 22:38:00.298,Kband
9,40,2023-01-06 22:39:00.301,Kband
9,40,2023-01-06 22:40:00.286,Kband
10,40,2023-01-06 22:41:00.308,Kband
10,40,2023-01-06 22:42:00.310,Kband
9,40,2023-01-06 22:43:00.231,Kband
9,40,2023-01-06 22:44:00.300,Kband
9,40,2023-01-06 22:45:00.179,Kband
9,40,2023-01-06 22:46:00.254,Kband
10,40,2023-01-06 22:47:00.238,Kband
10,40,2023-01-06 22:48:00.308,Kband
9,40,2023-01-06 22:49:00.232,Kband
10,40,2023-01-06 22:50:00.200,Kband
10,40,2023-01-06 22:51:00.314,Kband
10,40,2023-01-06 22:52:00.246,Kband
9,40,2023-01-06 22:53:00.304,Kband
10,40,2023-01-06 22:54:00.307,Kband
10,40,2023-01-06 22:55:00.258,Kband
10,40,2023-01-06 22:56:00.317,Kband
9,40,2023-01-06 22:57:00.307,Kband
9,40,2023-01-06 22:58:00.317,Kband
10,40,2023-01-06 22:59:00.296,Kband
10,40,2023-01-06 23:00:00.296,Kband
10,40,2023-01-06 23:01:00.273,Kband
9,40,2023-01-06 23:02:00.255,Kband
9,40,2023-01-06 23:03:00.213,Kband
10,40,2023-01-06 23:04:00.247,Kband
10,40,2023-01-06 23:05:00.270,Kband
10,40,2023-01-06 23:06:00.306,Kband
9,40,2023-01-06 23:07:00.248,Kband
9,40,2023-01-06 23:08:00.238,Kband
10,40,2023-01-06 23:09:00.419,Kband
10,40,2023-01-06 23:10:00.287,Kband
10,40,2023-01-06 23:11:00.200,Kband
9,40,2023-01-06 23:12:00.264,Kband
9,40,2023-01-06 23:13:00.259,Kband
9,40,2023-01-06 23:14:00.224,Kband
10,40,2023-01-06 23:15:00.263,Kband
10,40,2023-01-06 23:16:00.464,Kband
9,40,2023-01-06 23:17:00.267,Kband
10,40,2023-01-06 23:18:00.315,Kband
10,40,2023-01-06 23:19:00.269,Kband
9,40,2023-01-06 23:20:00.257,Kband
9,40,2023-01-06 23:21:00.245,Kband
10,40,2023-01-06 23:22:00.312,Kband
10,40,2023-01-06 23:23:00.270,Kband
10,40,2023-01-06 23:24:00.246,Kband
10,40,2023-01-06 23:25:00.226,Kband
10,40,2023-01-06 23:26:00.196,Kband
9,40,2023-01-06 23:27:00.408,Kband
9,40,2023-01-06 23:28:00.220,Kband
9,40,2023-01-06 23:29:00.236,Kband
10,40,2023-01-06 23:30:00.297,Kband
10,40,2023-01-06 23:31:00.235,Kband
9,40,2023-01-06 23:32:00.312,Kband
9,40,2023-01-06 23:33:00.250,Kband
9,40,2023-01-06 23:34:00.269,Kband
10,40,2023-01-06 23:35:00.212,Kband
10,40,2023-01-06 23:36:00.274,Kband
10,40,2023-01-06 23:37:00.293,Kband
10,40,2023-01-06 23:38:00.315,Kband
9,40,2023-01-06 23:39:00.313,Kband
10,40,2023-01-06 23:40:00.278,Kband
10,40,2023-01-06 23:41:00.265,Kband
10,40,2023-01-06 23:42:00.268,Kband
9,40,2023-01-06 23:43:00.275,Kband
10,40,2023-01-06 23:44:00.210,Kband
9,40,2023-01-06 23:45:00.303,Kband
9,40,2023-01-06 23:46:00.203,Kband
10,40,2023-01-06 23:47:00.242,Kband
10,40,2023-01-06 23:48:00.261,Kband
10,40,2023-01-06 23:49:00.236,Kband
9,40,2023-01-06 23:50:00.308,Kband
10,40,2023-01-06 23:51:00.245,Kband
10,40,2023-01-06 23:52:00.277,Kband
10,40,2023-01-06 23:53:00.238,Kband
9,40,2023-01-06 23:54:00.214,Kband
9,40,2023-01-06 23:55:00.261,Kband
9,40,2023-01-06 23:56:00.241,Kband
9,40,2023-01-06 23:57:00.311,Kband
10,40,2023-01-06 23:58:00.297,Kband
10,40,2023-01-06 23:59:00.205,Kband
