T15,T70,date,sensorName
10,39,2022-11-27 00:00:00.219,Kband
9,38,2022-11-27 00:01:00.246,Kband
9,38,2022-11-27 00:02:00.217,Kband
10,38,2022-11-27 00:03:00.248,Kband
10,39,2022-11-27 00:04:00.222,Kband
10,38,2022-11-27 00:05:00.251,Kband
10,39,2022-11-27 00:06:00.280,Kband
10,38,2022-11-27 00:07:00.231,Kband
9,39,2022-11-27 00:08:00.297,Kband
10,38,2022-11-27 00:09:00.176,Kband
9,38,2022-11-27 00:10:00.282,Kband
10,39,2022-11-27 00:11:00.218,Kband
10,38,2022-11-27 00:12:00.291,Kband
10,38,2022-11-27 00:13:00.307,Kband
10,38,2022-11-27 00:14:00.281,Kband
11,38,2022-11-27 00:15:00.368,Kband
10,38,2022-11-27 00:16:00.232,Kband
9,39,2022-11-27 00:17:00.257,Kband
10,38,2022-11-27 00:18:00.342,Kband
9,38,2022-11-27 00:19:00.261,Kband
10,39,2022-11-27 00:20:00.284,Kband
10,38,2022-11-27 00:21:00.254,Kband
9,38,2022-11-27 00:22:00.241,Kband
10,39,2022-11-27 00:23:00.307,Kband
10,38,2022-11-27 00:24:00.285,Kband
9,38,2022-11-27 00:25:00.275,Kband
10,39,2022-11-27 00:26:00.181,Kband
10,38,2022-11-27 00:27:00.231,Kband
10,39,2022-11-27 00:28:00.304,Kband
10,39,2022-11-27 00:29:00.243,Kband
10,38,2022-11-27 00:30:00.305,Kband
10,38,2022-11-27 00:31:00.300,Kband
10,38,2022-11-27 00:32:00.244,Kband
10,38,2022-11-27 00:33:00.194,Kband
10,38,2022-11-27 00:34:00.184,Kband
10,38,2022-11-27 00:35:00.307,Kband
10,38,2022-11-27 00:36:00.235,Kband
9,39,2022-11-27 00:37:00.269,Kband
11,38,2022-11-27 00:38:00.313,Kband
9,39,2022-11-27 00:39:00.299,Kband
10,39,2022-11-27 00:40:00.282,Kband
10,38,2022-11-27 00:41:00.252,Kband
9,38,2022-11-27 00:42:00.300,Kband
10,39,2022-11-27 00:43:00.304,Kband
10,38,2022-11-27 00:44:00.231,Kband
10,38,2022-11-27 00:45:00.222,Kband
9,38,2022-11-27 00:46:00.231,Kband
10,39,2022-11-27 00:47:00.220,Kband
10,39,2022-11-27 00:48:00.309,Kband
9,39,2022-11-27 00:49:00.293,Kband
10,38,2022-11-27 00:50:00.242,Kband
10,39,2022-11-27 00:51:00.305,Kband
10,38,2022-11-27 00:52:00.179,Kband
11,38,2022-11-27 00:53:00.354,Kband
10,38,2022-11-27 00:54:00.228,Kband
9,38,2022-11-27 00:55:00.311,Kband
11,38,2022-11-27 00:56:00.285,Kband
11,38,2022-11-27 00:57:00.293,Kband
11,38,2022-11-27 00:58:00.180,Kband
12,38,2022-11-27 00:59:00.309,Kband
11,38,2022-11-27 01:00:00.236,Kband
11,38,2022-11-27 01:01:00.315,Kband
12,38,2022-11-27 01:02:00.184,Kband
11,38,2022-11-27 01:03:00.297,Kband
11,38,2022-11-27 01:04:00.291,Kband
12,38,2022-11-27 01:05:00.304,Kband
11,38,2022-11-27 01:06:00.284,Kband
11,38,2022-11-27 01:07:00.255,Kband
11,38,2022-11-27 01:08:00.301,Kband
10,38,2022-11-27 01:09:00.293,Kband
10,38,2022-11-27 01:10:00.261,Kband
10,38,2022-11-27 01:11:00.301,Kband
9,38,2022-11-27 01:12:00.269,Kband
10,38,2022-11-27 01:13:00.299,Kband
10,38,2022-11-27 01:14:00.243,Kband
9,38,2022-11-27 01:15:00.274,Kband
10,38,2022-11-27 01:16:00.300,Kband
10,38,2022-11-27 01:17:00.253,Kband
10,38,2022-11-27 01:18:00.302,Kband
10,38,2022-11-27 01:19:00.218,Kband
10,38,2022-11-27 01:20:00.264,Kband
9,39,2022-11-27 01:21:00.295,Kband
10,38,2022-11-27 01:22:00.253,Kband
10,39,2022-11-27 01:23:00.298,Kband
9,38,2022-11-27 01:24:00.292,Kband
9,38,2022-11-27 01:25:00.304,Kband
10,39,2022-11-27 01:26:00.292,Kband
9,39,2022-11-27 01:27:00.212,Kband
9,38,2022-11-27 01:28:00.323,Kband
10,38,2022-11-27 01:29:00.246,Kband
9,38,2022-11-27 01:30:00.262,Kband
10,38,2022-11-27 01:31:00.201,Kband
10,38,2022-11-27 01:32:00.303,Kband
9,38,2022-11-27 01:33:00.226,Kband
10,38,2022-11-27 01:34:00.201,Kband
10,38,2022-11-27 01:35:00.295,Kband
10,39,2022-11-27 01:36:00.288,Kband
9,39,2022-11-27 01:37:00.239,Kband
10,38,2022-11-27 01:38:00.264,Kband
10,38,2022-11-27 01:39:00.252,Kband
9,38,2022-11-27 01:40:00.320,Kband
10,38,2022-11-27 01:41:00.280,Kband
10,38,2022-11-27 01:42:00.257,Kband
9,39,2022-11-27 01:43:00.223,Kband
10,38,2022-11-27 01:44:00.308,Kband
10,38,2022-11-27 01:45:00.182,Kband
10,39,2022-11-27 01:46:00.215,Kband
9,38,2022-11-27 01:47:00.242,Kband
9,39,2022-11-27 01:48:00.257,Kband
10,39,2022-11-27 01:49:00.257,Kband
9,38,2022-11-27 01:50:00.314,Kband
9,39,2022-11-27 01:51:00.210,Kband
10,38,2022-11-27 01:52:00.236,Kband
9,38,2022-11-27 01:53:00.252,Kband
10,38,2022-11-27 01:54:00.300,Kband
10,38,2022-11-27 01:55:00.308,Kband
10,38,2022-11-27 01:56:00.285,Kband
10,38,2022-11-27 01:57:00.282,Kband
9,38,2022-11-27 01:58:00.224,Kband
10,38,2022-11-27 01:59:00.197,Kband
10,38,2022-11-27 02:00:00.233,Kband
10,38,2022-11-27 02:01:00.220,Kband
10,39,2022-11-27 02:02:00.208,Kband
9,38,2022-11-27 02:03:00.276,Kband
10,38,2022-11-27 02:04:00.254,Kband
10,39,2022-11-27 02:05:00.308,Kband
9,38,2022-11-27 02:06:00.254,Kband
10,38,2022-11-27 02:07:00.237,Kband
10,38,2022-11-27 02:08:00.302,Kband
10,39,2022-11-27 02:09:00.266,Kband
10,38,2022-11-27 02:10:00.260,Kband
10,38,2022-11-27 02:11:00.252,Kband
9,38,2022-11-27 02:12:00.268,Kband
10,38,2022-11-27 02:13:00.205,Kband
10,38,2022-11-27 02:14:00.236,Kband
9,38,2022-11-27 02:15:00.168,Kband
10,38,2022-11-27 02:16:00.294,Kband
9,38,2022-11-27 02:17:00.200,Kband
10,38,2022-11-27 02:18:00.303,Kband
10,38,2022-11-27 02:19:00.218,Kband
11,38,2022-11-27 02:20:00.248,Kband
10,38,2022-11-27 02:21:00.290,Kband
10,38,2022-11-27 02:22:00.248,Kband
10,38,2022-11-27 02:23:00.207,Kband
10,38,2022-11-27 02:24:00.297,Kband
10,38,2022-11-27 02:25:00.294,Kband
10,38,2022-11-27 02:26:00.256,Kband
10,39,2022-11-27 02:27:00.244,Kband
10,38,2022-11-27 02:28:00.195,Kband
10,38,2022-11-27 02:29:00.346,Kband
9,39,2022-11-27 02:30:00.271,Kband
10,38,2022-11-27 02:31:00.204,Kband
9,38,2022-11-27 02:32:00.217,Kband
10,38,2022-11-27 02:33:00.244,Kband
10,39,2022-11-27 02:34:00.155,Kband
9,38,2022-11-27 02:35:00.295,Kband
9,38,2022-11-27 02:36:00.262,Kband
10,39,2022-11-27 02:37:00.287,Kband
9,38,2022-11-27 02:38:00.420,Kband
10,39,2022-11-27 02:39:00.279,Kband
10,38,2022-11-27 02:40:00.305,Kband
10,38,2022-11-27 02:41:00.215,Kband
10,38,2022-11-27 02:42:00.308,Kband
9,38,2022-11-27 02:43:00.254,Kband
10,38,2022-11-27 02:44:00.249,Kband
9,38,2022-11-27 02:45:00.268,Kband
10,38,2022-11-27 02:46:00.265,Kband
10,38,2022-11-27 02:47:00.224,Kband
9,38,2022-11-27 02:48:00.305,Kband
10,38,2022-11-27 02:49:00.288,Kband
10,38,2022-11-27 02:50:00.281,Kband
10,38,2022-11-27 02:51:00.235,Kband
10,38,2022-11-27 02:52:00.312,Kband
9,39,2022-11-27 02:53:00.241,Kband
10,38,2022-11-27 02:54:00.221,Kband
10,38,2022-11-27 02:55:00.251,Kband
10,38,2022-11-27 02:56:00.233,Kband
9,39,2022-11-27 02:57:00.262,Kband
10,39,2022-11-27 02:58:00.316,Kband
10,38,2022-11-27 02:59:00.206,Kband
10,38,2022-11-27 03:00:00.300,Kband
10,38,2022-11-27 03:01:00.226,Kband
9,39,2022-11-27 03:02:00.252,Kband
10,38,2022-11-27 03:03:00.297,Kband
9,38,2022-11-27 03:04:00.288,Kband
10,38,2022-11-27 03:05:00.229,Kband
10,38,2022-11-27 03:06:00.296,Kband
9,39,2022-11-27 03:07:00.307,Kband
10,38,2022-11-27 03:08:00.282,Kband
10,38,2022-11-27 03:09:00.268,Kband
9,39,2022-11-27 03:10:00.306,Kband
10,38,2022-11-27 03:11:00.244,Kband
10,38,2022-11-27 03:12:00.264,Kband
10,38,2022-11-27 03:13:00.314,Kband
10,39,2022-11-27 03:14:00.317,Kband
10,38,2022-11-27 03:15:00.239,Kband
10,38,2022-11-27 03:16:00.246,Kband
9,38,2022-11-27 03:17:00.302,Kband
10,38,2022-11-27 03:18:00.281,Kband
10,38,2022-11-27 03:19:00.221,Kband
10,38,2022-11-27 03:20:00.313,Kband
10,38,2022-11-27 03:21:00.281,Kband
10,39,2022-11-27 03:22:00.261,Kband
11,39,2022-11-27 03:23:00.295,Kband
10,38,2022-11-27 03:24:00.256,Kband
9,38,2022-11-27 03:25:00.268,Kband
10,38,2022-11-27 03:26:00.253,Kband
9,39,2022-11-27 03:27:00.288,Kband
10,39,2022-11-27 03:28:00.248,Kband
10,39,2022-11-27 03:29:00.235,Kband
10,39,2022-11-27 03:30:00.309,Kband
10,39,2022-11-27 03:31:00.283,Kband
10,39,2022-11-27 03:32:00.276,Kband
11,38,2022-11-27 03:33:00.241,Kband
11,39,2022-11-27 03:34:00.305,Kband
9,38,2022-11-27 03:35:00.231,Kband
10,38,2022-11-27 03:36:00.249,Kband
11,38,2022-11-27 03:37:00.263,Kband
11,39,2022-11-27 03:38:00.254,Kband
10,38,2022-11-27 03:39:00.228,Kband
10,38,2022-11-27 03:40:00.201,Kband
9,38,2022-11-27 03:41:00.238,Kband
9,39,2022-11-27 03:42:00.181,Kband
11,39,2022-11-27 03:43:00.292,Kband
10,38,2022-11-27 03:44:00.234,Kband
10,38,2022-11-27 03:45:00.245,Kband
11,38,2022-11-27 03:46:00.360,Kband
10,38,2022-11-27 03:47:00.254,Kband
11,38,2022-11-27 03:48:00.212,Kband
12,38,2022-11-27 03:49:00.245,Kband
12,38,2022-11-27 03:50:00.215,Kband
11,38,2022-11-27 03:51:00.300,Kband
11,38,2022-11-27 03:52:00.280,Kband
11,38,2022-11-27 03:53:00.317,Kband
12,38,2022-11-27 03:54:00.261,Kband
11,38,2022-11-27 03:55:00.288,Kband
11,38,2022-11-27 03:56:00.319,Kband
11,38,2022-11-27 03:57:00.245,Kband
10,38,2022-11-27 03:58:00.263,Kband
10,38,2022-11-27 03:59:00.285,Kband
10,38,2022-11-27 04:00:00.250,Kband
9,39,2022-11-27 04:01:00.281,Kband
10,38,2022-11-27 04:02:00.250,Kband
10,38,2022-11-27 04:03:00.306,Kband
9,38,2022-11-27 04:04:00.266,Kband
10,39,2022-11-27 04:05:00.306,Kband
10,38,2022-11-27 04:06:00.196,Kband
9,38,2022-11-27 04:07:00.305,Kband
9,38,2022-11-27 04:08:00.280,Kband
10,38,2022-11-27 04:09:00.264,Kband
9,39,2022-11-27 04:10:00.298,Kband
10,38,2022-11-27 04:11:00.264,Kband
10,38,2022-11-27 04:12:00.234,Kband
9,39,2022-11-27 04:13:00.169,Kband
10,38,2022-11-27 04:14:00.208,Kband
9,38,2022-11-27 04:15:00.264,Kband
10,39,2022-11-27 04:16:00.302,Kband
9,38,2022-11-27 04:17:00.271,Kband
10,39,2022-11-27 04:18:00.305,Kband
10,38,2022-11-27 04:19:00.239,Kband
10,38,2022-11-27 04:20:00.293,Kband
10,38,2022-11-27 04:21:00.257,Kband
10,38,2022-11-27 04:22:00.281,Kband
9,39,2022-11-27 04:23:00.276,Kband
10,38,2022-11-27 04:24:00.257,Kband
10,38,2022-11-27 04:25:00.287,Kband
10,38,2022-11-27 04:26:00.230,Kband
10,38,2022-11-27 04:27:00.307,Kband
9,38,2022-11-27 04:28:00.297,Kband
10,39,2022-11-27 04:29:00.247,Kband
10,38,2022-11-27 04:30:00.227,Kband
10,38,2022-11-27 04:31:00.295,Kband
9,38,2022-11-27 04:32:00.319,Kband
10,39,2022-11-27 04:33:00.250,Kband
10,39,2022-11-27 04:34:00.269,Kband
10,38,2022-11-27 04:35:00.234,Kband
9,38,2022-11-27 04:36:00.291,Kband
10,38,2022-11-27 04:37:00.222,Kband
9,38,2022-11-27 04:38:00.230,Kband
9,38,2022-11-27 04:39:00.221,Kband
10,39,2022-11-27 04:40:00.275,Kband
10,38,2022-11-27 04:41:00.209,Kband
10,38,2022-11-27 04:42:00.222,Kband
10,39,2022-11-27 04:43:00.311,Kband
10,38,2022-11-27 04:44:00.229,Kband
10,38,2022-11-27 04:45:00.247,Kband
9,38,2022-11-27 04:46:00.204,Kband
10,38,2022-11-27 04:47:00.232,Kband
10,39,2022-11-27 04:48:00.159,Kband
10,38,2022-11-27 04:49:00.240,Kband
10,38,2022-11-27 04:50:00.220,Kband
10,39,2022-11-27 04:51:00.252,Kband
10,39,2022-11-27 04:52:00.220,Kband
10,38,2022-11-27 04:53:00.278,Kband
9,38,2022-11-27 04:54:00.170,Kband
10,39,2022-11-27 04:55:00.155,Kband
10,38,2022-11-27 04:56:00.240,Kband
10,38,2022-11-27 04:57:00.263,Kband
10,38,2022-11-27 04:58:00.299,Kband
10,38,2022-11-27 04:59:00.302,Kband
10,39,2022-11-27 05:00:00.321,Kband
9,38,2022-11-27 05:01:00.205,Kband
9,39,2022-11-27 05:02:00.162,Kband
10,39,2022-11-27 05:03:00.196,Kband
9,39,2022-11-27 05:04:00.226,Kband
10,39,2022-11-27 05:05:00.290,Kband
11,38,2022-11-27 05:06:00.212,Kband
10,39,2022-11-27 05:07:00.166,Kband
10,38,2022-11-27 05:08:00.318,Kband
10,38,2022-11-27 05:09:00.254,Kband
10,38,2022-11-27 05:10:00.313,Kband
10,39,2022-11-27 05:11:00.274,Kband
10,39,2022-11-27 05:12:00.278,Kband
10,39,2022-11-27 05:13:00.247,Kband
10,38,2022-11-27 05:14:00.201,Kband
10,38,2022-11-27 05:15:00.195,Kband
10,39,2022-11-27 05:16:00.302,Kband
10,39,2022-11-27 05:17:00.280,Kband
9,38,2022-11-27 05:18:00.198,Kband
10,39,2022-11-27 05:19:00.267,Kband
10,39,2022-11-27 05:20:00.320,Kband
10,38,2022-11-27 05:21:00.228,Kband
10,38,2022-11-27 05:22:00.287,Kband
9,39,2022-11-27 05:23:00.279,Kband
10,39,2022-11-27 05:24:00.227,Kband
10,38,2022-11-27 05:25:00.295,Kband
9,38,2022-11-27 05:26:00.275,Kband
10,38,2022-11-27 05:27:00.267,Kband
10,38,2022-11-27 05:28:00.309,Kband
9,38,2022-11-27 05:29:00.244,Kband
10,38,2022-11-27 05:30:00.293,Kband
10,38,2022-11-27 05:31:00.260,Kband
9,38,2022-11-27 05:32:00.252,Kband
10,38,2022-11-27 05:33:00.339,Kband
10,39,2022-11-27 05:34:00.291,Kband
9,38,2022-11-27 05:35:00.239,Kband
10,38,2022-11-27 05:36:00.281,Kband
10,39,2022-11-27 05:37:00.304,Kband
10,39,2022-11-27 05:38:00.344,Kband
9,38,2022-11-27 05:39:00.211,Kband
10,39,2022-11-27 05:40:00.262,Kband
10,38,2022-11-27 05:41:00.234,Kband
10,38,2022-11-27 05:42:00.211,Kband
9,38,2022-11-27 05:43:00.308,Kband
10,38,2022-11-27 05:44:00.233,Kband
10,39,2022-11-27 05:45:00.309,Kband
10,39,2022-11-27 05:46:00.294,Kband
11,39,2022-11-27 05:47:00.303,Kband
9,39,2022-11-27 05:48:00.257,Kband
11,38,2022-11-27 05:49:00.244,Kband
11,38,2022-11-27 05:50:00.216,Kband
9,38,2022-11-27 05:51:00.225,Kband
10,39,2022-11-27 05:52:00.257,Kband
10,38,2022-11-27 05:53:00.273,Kband
10,38,2022-11-27 05:54:00.235,Kband
10,39,2022-11-27 05:55:00.217,Kband
10,39,2022-11-27 05:56:00.300,Kband
10,38,2022-11-27 05:57:00.273,Kband
11,39,2022-11-27 05:58:00.305,Kband
9,38,2022-11-27 05:59:00.243,Kband
11,38,2022-11-27 06:00:00.294,Kband
10,39,2022-11-27 06:01:00.228,Kband
10,39,2022-11-27 06:02:00.308,Kband
10,39,2022-11-27 06:03:00.234,Kband
10,38,2022-11-27 06:04:00.199,Kband
10,38,2022-11-27 06:05:00.338,Kband
10,38,2022-11-27 06:06:00.345,Kband
11,38,2022-11-27 06:07:00.223,Kband
9,39,2022-11-27 06:08:00.242,Kband
10,39,2022-11-27 06:09:00.297,Kband
10,39,2022-11-27 06:10:00.254,Kband
10,39,2022-11-27 06:11:00.261,Kband
10,39,2022-11-27 06:12:00.248,Kband
10,38,2022-11-27 06:13:00.243,Kband
10,39,2022-11-27 06:14:00.244,Kband
10,38,2022-11-27 06:15:00.278,Kband
10,38,2022-11-27 06:16:00.202,Kband
11,38,2022-11-27 06:17:00.253,Kband
12,38,2022-11-27 06:18:00.240,Kband
12,38,2022-11-27 06:19:00.304,Kband
12,38,2022-11-27 06:20:00.264,Kband
11,38,2022-11-27 06:21:00.296,Kband
11,38,2022-11-27 06:22:00.254,Kband
11,38,2022-11-27 06:23:00.307,Kband
12,38,2022-11-27 06:24:00.204,Kband
11,38,2022-11-27 06:25:00.169,Kband
11,38,2022-11-27 06:26:00.242,Kband
10,38,2022-11-27 06:27:00.200,Kband
11,38,2022-11-27 06:28:00.290,Kband
11,38,2022-11-27 06:29:00.262,Kband
12,38,2022-11-27 06:30:00.212,Kband
11,38,2022-11-27 06:31:00.184,Kband
10,38,2022-11-27 06:32:00.256,Kband
11,38,2022-11-27 06:33:00.211,Kband
9,39,2022-11-27 06:34:00.294,Kband
10,38,2022-11-27 06:35:00.357,Kband
10,38,2022-11-27 06:36:00.219,Kband
9,38,2022-11-27 06:37:00.241,Kband
10,39,2022-11-27 06:38:00.309,Kband
9,39,2022-11-27 06:39:00.223,Kband
10,38,2022-11-27 06:40:00.252,Kband
10,39,2022-11-27 06:41:00.158,Kband
10,38,2022-11-27 06:42:00.291,Kband
10,39,2022-11-27 06:43:00.182,Kband
10,38,2022-11-27 06:44:00.166,Kband
10,38,2022-11-27 06:45:00.220,Kband
10,38,2022-11-27 06:46:00.248,Kband
11,39,2022-11-27 06:47:00.219,Kband
10,39,2022-11-27 06:48:00.223,Kband
10,39,2022-11-27 06:49:00.167,Kband
10,38,2022-11-27 06:50:00.223,Kband
10,39,2022-11-27 06:51:00.279,Kband
10,38,2022-11-27 06:52:00.194,Kband
10,39,2022-11-27 06:53:00.261,Kband
10,38,2022-11-27 06:54:00.253,Kband
10,38,2022-11-27 06:55:00.284,Kband
10,38,2022-11-27 06:56:00.291,Kband
10,39,2022-11-27 06:57:00.257,Kband
9,38,2022-11-27 06:58:00.295,Kband
10,38,2022-11-27 06:59:00.229,Kband
10,39,2022-11-27 07:00:00.269,Kband
10,38,2022-11-27 07:01:00.223,Kband
9,38,2022-11-27 07:02:00.243,Kband
10,39,2022-11-27 07:03:00.310,Kband
10,38,2022-11-27 07:04:00.289,Kband
9,38,2022-11-27 07:05:00.280,Kband
11,38,2022-11-27 07:06:00.265,Kband
10,39,2022-11-27 07:07:00.304,Kband
10,38,2022-11-27 07:08:00.268,Kband
10,38,2022-11-27 07:09:00.303,Kband
11,39,2022-11-27 07:10:00.273,Kband
10,38,2022-11-27 07:11:00.307,Kband
10,39,2022-11-27 07:12:00.363,Kband
10,38,2022-11-27 07:13:00.309,Kband
9,38,2022-11-27 07:14:00.302,Kband
10,39,2022-11-27 07:15:00.264,Kband
11,39,2022-11-27 07:16:00.158,Kband
10,39,2022-11-27 07:17:00.188,Kband
10,38,2022-11-27 07:18:00.302,Kband
11,38,2022-11-27 07:19:00.226,Kband
11,38,2022-11-27 07:20:00.286,Kband
10,38,2022-11-27 07:21:00.288,Kband
11,38,2022-11-27 07:22:00.273,Kband
11,38,2022-11-27 07:23:00.302,Kband
12,38,2022-11-27 07:24:00.225,Kband
12,38,2022-11-27 07:25:00.243,Kband
11,38,2022-11-27 07:26:00.258,Kband
12,38,2022-11-27 07:27:00.239,Kband
12,38,2022-11-27 07:28:00.150,Kband
11,38,2022-11-27 07:29:00.314,Kband
12,38,2022-11-27 07:30:00.212,Kband
12,38,2022-11-27 07:31:00.223,Kband
11,38,2022-11-27 07:32:00.250,Kband
11,38,2022-11-27 07:33:00.234,Kband
9,38,2022-11-27 07:34:00.258,Kband
10,38,2022-11-27 07:35:00.285,Kband
10,38,2022-11-27 07:36:00.313,Kband
9,39,2022-11-27 07:37:00.280,Kband
9,39,2022-11-27 07:38:00.230,Kband
10,38,2022-11-27 07:39:00.275,Kband
10,38,2022-11-27 07:40:00.256,Kband
11,38,2022-11-27 07:41:00.181,Kband
10,39,2022-11-27 07:42:00.246,Kband
10,38,2022-11-27 07:43:00.303,Kband
11,38,2022-11-27 07:44:00.296,Kband
9,38,2022-11-27 07:45:00.239,Kband
10,38,2022-11-27 07:46:00.264,Kband
10,38,2022-11-27 07:47:00.253,Kband
10,38,2022-11-27 07:48:00.290,Kband
10,38,2022-11-27 07:49:00.231,Kband
10,39,2022-11-27 07:50:00.301,Kband
10,39,2022-11-27 07:51:00.230,Kband
10,38,2022-11-27 07:52:00.256,Kband
10,38,2022-11-27 07:53:00.264,Kband
10,38,2022-11-27 07:54:00.249,Kband
10,39,2022-11-27 07:55:00.293,Kband
10,38,2022-11-27 07:56:00.290,Kband
10,39,2022-11-27 07:57:00.281,Kband
11,38,2022-11-27 07:58:00.209,Kband
9,38,2022-11-27 07:59:00.222,Kband
10,38,2022-11-27 08:00:00.259,Kband
11,38,2022-11-27 08:01:00.220,Kband
10,38,2022-11-27 08:02:00.248,Kband
10,38,2022-11-27 08:03:00.347,Kband
10,39,2022-11-27 08:04:00.181,Kband
10,38,2022-11-27 08:05:00.292,Kband
10,38,2022-11-27 08:06:00.302,Kband
10,38,2022-11-27 08:07:00.250,Kband
10,38,2022-11-27 08:08:00.345,Kband
10,38,2022-11-27 08:09:00.274,Kband
10,39,2022-11-27 08:10:00.291,Kband
10,38,2022-11-27 08:11:00.274,Kband
10,38,2022-11-27 08:12:00.317,Kband
11,39,2022-11-27 08:13:00.272,Kband
9,39,2022-11-27 08:14:00.199,Kband
9,39,2022-11-27 08:15:00.299,Kband
11,38,2022-11-27 08:16:00.232,Kband
11,38,2022-11-27 08:17:00.305,Kband
10,38,2022-11-27 08:18:00.228,Kband
10,38,2022-11-27 08:19:00.207,Kband
11,38,2022-11-27 08:20:00.301,Kband
11,38,2022-11-27 08:21:00.346,Kband
9,39,2022-11-27 08:22:00.280,Kband
10,38,2022-11-27 08:23:00.288,Kband
10,39,2022-11-27 08:24:00.239,Kband
11,38,2022-11-27 08:25:00.156,Kband
10,38,2022-11-27 08:26:00.300,Kband
10,39,2022-11-27 08:27:00.232,Kband
11,39,2022-11-27 08:28:00.265,Kband
10,38,2022-11-27 08:29:00.209,Kband
10,38,2022-11-27 08:30:00.248,Kband
10,39,2022-11-27 08:31:00.273,Kband
10,39,2022-11-27 08:32:00.307,Kband
11,38,2022-11-27 08:33:00.225,Kband
10,38,2022-11-27 08:34:00.312,Kband
10,38,2022-11-27 08:35:00.228,Kband
10,38,2022-11-27 08:36:00.254,Kband
11,38,2022-11-27 08:37:00.231,Kband
11,39,2022-11-27 08:38:00.250,Kband
10,38,2022-11-27 08:39:00.351,Kband
12,38,2022-11-27 08:40:00.251,Kband
12,38,2022-11-27 08:41:00.287,Kband
12,38,2022-11-27 08:42:00.262,Kband
12,38,2022-11-27 08:43:00.249,Kband
11,38,2022-11-27 08:44:00.304,Kband
11,38,2022-11-27 08:45:00.239,Kband
11,38,2022-11-27 08:46:00.188,Kband
11,38,2022-11-27 08:47:00.157,Kband
10,38,2022-11-27 08:48:00.212,Kband
11,38,2022-11-27 08:49:00.258,Kband
9,38,2022-11-27 08:50:00.203,Kband
10,38,2022-11-27 08:51:00.195,Kband
11,38,2022-11-27 08:52:00.224,Kband
11,38,2022-11-27 08:53:00.150,Kband
10,38,2022-11-27 08:54:00.289,Kband
10,38,2022-11-27 08:55:00.241,Kband
10,38,2022-11-27 08:56:00.283,Kband
10,38,2022-11-27 08:57:00.362,Kband
10,38,2022-11-27 08:58:00.304,Kband
10,38,2022-11-27 08:59:00.290,Kband
10,38,2022-11-27 09:00:00.228,Kband
10,38,2022-11-27 09:01:00.168,Kband
10,38,2022-11-27 09:02:00.309,Kband
10,38,2022-11-27 09:03:00.232,Kband
10,38,2022-11-27 09:04:00.238,Kband
10,39,2022-11-27 09:05:00.312,Kband
9,38,2022-11-27 09:06:00.251,Kband
10,38,2022-11-27 09:07:00.266,Kband
11,38,2022-11-27 09:08:00.293,Kband
10,38,2022-11-27 09:09:00.231,Kband
9,38,2022-11-27 09:10:00.281,Kband
10,38,2022-11-27 09:11:00.298,Kband
10,38,2022-11-27 09:12:00.250,Kband
11,38,2022-11-27 09:13:00.311,Kband
10,39,2022-11-27 09:14:00.308,Kband
10,39,2022-11-27 09:15:00.176,Kband
9,38,2022-11-27 09:16:00.293,Kband
10,38,2022-11-27 09:17:00.209,Kband
10,39,2022-11-27 09:18:00.217,Kband
10,38,2022-11-27 09:19:00.262,Kband
10,38,2022-11-27 09:20:00.189,Kband
11,38,2022-11-27 09:21:00.247,Kband
10,39,2022-11-27 09:22:00.231,Kband
9,38,2022-11-27 09:23:00.254,Kband
11,38,2022-11-27 09:24:00.311,Kband
11,38,2022-11-27 09:25:00.264,Kband
10,38,2022-11-27 09:26:00.213,Kband
10,38,2022-11-27 09:27:00.228,Kband
10,38,2022-11-27 09:28:00.287,Kband
10,38,2022-11-27 09:29:00.314,Kband
10,38,2022-11-27 09:30:00.203,Kband
11,38,2022-11-27 09:31:00.226,Kband
11,38,2022-11-27 09:32:00.199,Kband
9,38,2022-11-27 09:33:00.283,Kband
10,39,2022-11-27 09:34:00.154,Kband
10,38,2022-11-27 09:35:00.160,Kband
10,38,2022-11-27 09:36:00.253,Kband
10,38,2022-11-27 09:37:00.229,Kband
10,38,2022-11-27 09:38:00.208,Kband
11,38,2022-11-27 09:39:00.306,Kband
10,38,2022-11-27 09:40:00.260,Kband
10,38,2022-11-27 09:41:00.155,Kband
10,38,2022-11-27 09:42:00.295,Kband
10,38,2022-11-27 09:43:00.254,Kband
10,38,2022-11-27 09:44:00.250,Kband
11,38,2022-11-27 09:45:00.276,Kband
11,39,2022-11-27 09:46:00.204,Kband
11,39,2022-11-27 09:47:00.310,Kband
10,38,2022-11-27 09:48:00.222,Kband
10,39,2022-11-27 09:49:00.315,Kband
11,39,2022-11-27 09:50:00.210,Kband
10,38,2022-11-27 09:51:00.255,Kband
10,38,2022-11-27 09:52:00.318,Kband
10,39,2022-11-27 09:53:00.212,Kband
11,38,2022-11-27 09:54:00.292,Kband
11,38,2022-11-27 09:55:00.296,Kband
10,38,2022-11-27 09:56:00.280,Kband
11,39,2022-11-27 09:57:00.288,Kband
11,38,2022-11-27 09:58:00.249,Kband
11,38,2022-11-27 09:59:00.286,Kband
12,38,2022-11-27 10:00:00.304,Kband
11,38,2022-11-27 10:01:00.276,Kband
12,38,2022-11-27 10:02:00.222,Kband
13,38,2022-11-27 10:03:00.246,Kband
11,38,2022-11-27 10:04:00.269,Kband
12,38,2022-11-27 10:05:00.176,Kband
11,38,2022-11-27 10:06:00.267,Kband
11,38,2022-11-27 10:07:00.265,Kband
11,38,2022-11-27 10:08:00.230,Kband
10,38,2022-11-27 10:09:00.289,Kband
10,38,2022-11-27 10:10:00.301,Kband
10,38,2022-11-27 10:11:00.267,Kband
11,38,2022-11-27 10:12:00.216,Kband
10,38,2022-11-27 10:13:00.234,Kband
10,38,2022-11-27 10:14:00.237,Kband
11,39,2022-11-27 10:15:00.249,Kband
10,38,2022-11-27 10:16:00.207,Kband
10,39,2022-11-27 10:17:00.258,Kband
10,38,2022-11-27 10:18:00.236,Kband
10,39,2022-11-27 10:19:00.219,Kband
10,38,2022-11-27 10:20:00.297,Kband
10,39,2022-11-27 10:21:00.227,Kband
9,38,2022-11-27 10:22:00.262,Kband
10,38,2022-11-27 10:23:00.222,Kband
10,38,2022-11-27 10:24:00.260,Kband
10,38,2022-11-27 10:25:00.267,Kband
10,38,2022-11-27 10:26:00.231,Kband
10,38,2022-11-27 10:27:00.305,Kband
9,38,2022-11-27 10:28:00.250,Kband
10,38,2022-11-27 10:29:00.270,Kband
10,38,2022-11-27 10:30:00.267,Kband
10,38,2022-11-27 10:31:00.249,Kband
11,39,2022-11-27 10:32:00.267,Kband
11,38,2022-11-27 10:33:00.250,Kband
12,38,2022-11-27 10:34:00.222,Kband
12,38,2022-11-27 10:35:00.271,Kband
12,38,2022-11-27 10:36:00.174,Kband
12,38,2022-11-27 10:37:00.286,Kband
12,38,2022-11-27 10:38:00.255,Kband
11,38,2022-11-27 10:39:00.261,Kband
12,38,2022-11-27 10:40:00.241,Kband
11,38,2022-11-27 10:41:00.198,Kband
12,38,2022-11-27 10:42:00.212,Kband
12,38,2022-11-27 10:43:00.316,Kband
11,38,2022-11-27 10:44:00.268,Kband
12,38,2022-11-27 10:45:00.308,Kband
11,38,2022-11-27 10:46:00.289,Kband
12,38,2022-11-27 10:47:00.238,Kband
12,38,2022-11-27 10:48:00.263,Kband
12,38,2022-11-27 10:49:00.268,Kband
12,38,2022-11-27 10:50:00.209,Kband
12,38,2022-11-27 10:51:00.248,Kband
12,38,2022-11-27 10:52:00.235,Kband
12,38,2022-11-27 10:53:00.260,Kband
12,38,2022-11-27 10:54:00.297,Kband
11,38,2022-11-27 10:55:00.222,Kband
12,38,2022-11-27 10:56:00.237,Kband
12,38,2022-11-27 10:57:00.208,Kband
12,38,2022-11-27 10:58:00.209,Kband
11,38,2022-11-27 10:59:00.306,Kband
11,38,2022-11-27 11:00:00.220,Kband
11,38,2022-11-27 11:01:00.214,Kband
11,38,2022-11-27 11:02:00.195,Kband
11,38,2022-11-27 11:03:00.242,Kband
12,38,2022-11-27 11:04:00.300,Kband
11,38,2022-11-27 11:05:00.318,Kband
12,38,2022-11-27 11:06:00.252,Kband
12,38,2022-11-27 11:07:00.215,Kband
11,38,2022-11-27 11:08:00.243,Kband
11,38,2022-11-27 11:09:00.214,Kband
11,38,2022-11-27 11:10:00.306,Kband
11,38,2022-11-27 11:11:00.206,Kband
12,38,2022-11-27 11:12:00.289,Kband
10,38,2022-11-27 11:13:00.298,Kband
11,38,2022-11-27 11:14:00.256,Kband
12,38,2022-11-27 11:15:00.270,Kband
12,38,2022-11-27 11:16:00.181,Kband
11,38,2022-11-27 11:17:00.290,Kband
11,38,2022-11-27 11:18:00.213,Kband
12,38,2022-11-27 11:19:00.359,Kband
11,38,2022-11-27 11:20:00.301,Kband
10,38,2022-11-27 11:21:00.215,Kband
11,38,2022-11-27 11:22:00.300,Kband
11,38,2022-11-27 11:23:00.266,Kband
12,38,2022-11-27 11:24:00.263,Kband
10,38,2022-11-27 11:25:00.235,Kband
11,38,2022-11-27 11:26:00.215,Kband
11,38,2022-11-27 11:27:00.298,Kband
11,38,2022-11-27 11:28:00.174,Kband
11,38,2022-11-27 11:29:00.259,Kband
12,38,2022-11-27 11:30:00.334,Kband
11,38,2022-11-27 11:31:00.299,Kband
12,38,2022-11-27 11:32:00.230,Kband
11,38,2022-11-27 11:33:00.242,Kband
12,38,2022-11-27 11:34:00.223,Kband
12,38,2022-11-27 11:35:00.348,Kband
11,38,2022-11-27 11:36:00.239,Kband
12,38,2022-11-27 11:37:00.280,Kband
11,38,2022-11-27 11:38:00.244,Kband
10,38,2022-11-27 11:39:00.257,Kband
12,38,2022-11-27 11:40:00.277,Kband
12,38,2022-11-27 11:41:00.249,Kband
11,38,2022-11-27 11:42:00.293,Kband
12,38,2022-11-27 11:43:00.233,Kband
12,38,2022-11-27 11:44:00.243,Kband
11,38,2022-11-27 11:45:00.257,Kband
10,38,2022-11-27 11:46:00.271,Kband
11,38,2022-11-27 11:47:00.288,Kband
11,38,2022-11-27 11:48:00.235,Kband
11,38,2022-11-27 11:49:00.255,Kband
11,38,2022-11-27 11:50:00.309,Kband
12,38,2022-11-27 11:51:00.228,Kband
11,38,2022-11-27 11:52:00.296,Kband
11,38,2022-11-27 11:53:00.224,Kband
12,38,2022-11-27 11:54:00.291,Kband
11,38,2022-11-27 11:55:00.276,Kband
12,38,2022-11-27 11:56:00.228,Kband
12,38,2022-11-27 11:57:00.239,Kband
12,38,2022-11-27 11:58:00.306,Kband
11,38,2022-11-27 11:59:00.263,Kband
12,38,2022-11-27 12:00:00.300,Kband
11,38,2022-11-27 12:01:00.267,Kband
11,38,2022-11-27 12:02:00.259,Kband
11,38,2022-11-27 12:03:00.281,Kband
11,38,2022-11-27 12:04:00.282,Kband
12,38,2022-11-27 12:05:00.306,Kband
11,38,2022-11-27 12:06:00.239,Kband
12,38,2022-11-27 12:07:00.272,Kband
11,38,2022-11-27 12:08:00.299,Kband
11,38,2022-11-27 12:09:00.275,Kband
11,38,2022-11-27 12:10:00.301,Kband
11,38,2022-11-27 12:11:00.262,Kband
11,38,2022-11-27 12:12:00.268,Kband
12,38,2022-11-27 12:13:00.290,Kband
12,38,2022-11-27 12:14:00.293,Kband
11,38,2022-11-27 12:15:00.279,Kband
11,38,2022-11-27 12:16:00.244,Kband
12,38,2022-11-27 12:17:00.263,Kband
12,38,2022-11-27 12:18:00.280,Kband
11,38,2022-11-27 12:19:00.219,Kband
11,38,2022-11-27 12:20:00.250,Kband
12,38,2022-11-27 12:21:00.189,Kband
11,38,2022-11-27 12:22:00.204,Kband
11,38,2022-11-27 12:23:00.300,Kband
12,38,2022-11-27 12:24:00.180,Kband
11,38,2022-11-27 12:25:00.228,Kband
11,38,2022-11-27 12:26:00.236,Kband
11,38,2022-11-27 12:27:00.209,Kband
12,38,2022-11-27 12:28:00.250,Kband
11,38,2022-11-27 12:29:00.258,Kband
11,38,2022-11-27 12:30:00.240,Kband
12,38,2022-11-27 12:31:00.245,Kband
11,38,2022-11-27 12:32:00.280,Kband
11,38,2022-11-27 12:33:00.168,Kband
12,38,2022-11-27 12:34:00.300,Kband
11,38,2022-11-27 12:35:00.224,Kband
12,38,2022-11-27 12:36:00.229,Kband
12,38,2022-11-27 12:37:00.257,Kband
11,38,2022-11-27 12:38:00.191,Kband
11,38,2022-11-27 12:39:00.169,Kband
12,38,2022-11-27 12:40:00.297,Kband
11,38,2022-11-27 12:41:00.271,Kband
11,38,2022-11-27 12:42:00.251,Kband
12,38,2022-11-27 12:43:00.225,Kband
12,38,2022-11-27 12:44:00.267,Kband
11,38,2022-11-27 12:45:00.238,Kband
12,38,2022-11-27 12:46:00.172,Kband
12,38,2022-11-27 12:47:00.303,Kband
11,38,2022-11-27 12:48:00.290,Kband
12,38,2022-11-27 12:49:00.240,Kband
12,38,2022-11-27 12:50:00.254,Kband
11,38,2022-11-27 12:51:00.315,Kband
12,38,2022-11-27 12:52:00.224,Kband
11,38,2022-11-27 12:53:00.254,Kband
11,38,2022-11-27 12:54:00.236,Kband
12,38,2022-11-27 12:55:00.317,Kband
11,38,2022-11-27 12:56:00.177,Kband
12,38,2022-11-27 12:57:00.222,Kband
11,38,2022-11-27 12:58:00.294,Kband
11,38,2022-11-27 12:59:00.247,Kband
12,38,2022-11-27 13:00:00.343,Kband
10,38,2022-11-27 13:01:00.308,Kband
10,38,2022-11-27 13:02:00.170,Kband
10,38,2022-11-27 13:03:00.304,Kband
9,38,2022-11-27 13:04:00.264,Kband
9,38,2022-11-27 13:05:00.277,Kband
10,38,2022-11-27 13:06:00.300,Kband
10,38,2022-11-27 13:07:00.175,Kband
10,38,2022-11-27 13:08:00.336,Kband
10,38,2022-11-27 13:09:00.230,Kband
10,38,2022-11-27 13:10:00.271,Kband
9,38,2022-11-27 13:11:00.298,Kband
10,38,2022-11-27 13:12:00.227,Kband
10,38,2022-11-27 13:13:00.313,Kband
10,38,2022-11-27 13:14:00.201,Kband
10,39,2022-11-27 13:15:00.252,Kband
10,38,2022-11-27 13:16:00.277,Kband
10,38,2022-11-27 13:17:00.204,Kband
10,39,2022-11-27 13:18:00.279,Kband
10,39,2022-11-27 13:19:00.242,Kband
10,39,2022-11-27 13:20:00.260,Kband
10,38,2022-11-27 13:21:00.218,Kband
10,38,2022-11-27 13:22:00.312,Kband
10,38,2022-11-27 13:23:00.272,Kband
10,38,2022-11-27 13:24:00.236,Kband
10,39,2022-11-27 13:25:00.172,Kband
10,38,2022-11-27 13:26:00.257,Kband
10,39,2022-11-27 13:27:00.313,Kband
9,38,2022-11-27 13:28:00.272,Kband
10,38,2022-11-27 13:29:00.238,Kband
10,38,2022-11-27 13:30:00.226,Kband
9,38,2022-11-27 13:31:00.260,Kband
10,38,2022-11-27 13:32:00.205,Kband
10,38,2022-11-27 13:33:00.279,Kband
10,38,2022-11-27 13:34:00.314,Kband
11,38,2022-11-27 13:35:00.238,Kband
10,38,2022-11-27 13:36:00.261,Kband
10,38,2022-11-27 13:37:00.285,Kband
10,38,2022-11-27 13:38:00.268,Kband
9,39,2022-11-27 13:39:00.224,Kband
10,38,2022-11-27 13:40:00.247,Kband
10,39,2022-11-27 13:41:00.364,Kband
9,38,2022-11-27 13:42:00.285,Kband
9,38,2022-11-27 13:43:00.214,Kband
10,39,2022-11-27 13:44:00.289,Kband
10,38,2022-11-27 13:45:00.221,Kband
9,38,2022-11-27 13:46:00.332,Kband
11,39,2022-11-27 13:47:00.245,Kband
10,39,2022-11-27 13:48:00.248,Kband
10,39,2022-11-27 13:49:00.305,Kband
9,39,2022-11-27 13:50:00.270,Kband
11,38,2022-11-27 13:51:00.303,Kband
9,38,2022-11-27 13:52:00.303,Kband
9,39,2022-11-27 13:53:00.285,Kband
11,39,2022-11-27 13:54:00.300,Kband
10,38,2022-11-27 13:55:00.223,Kband
10,38,2022-11-27 13:56:00.218,Kband
11,39,2022-11-27 13:57:00.250,Kband
10,38,2022-11-27 13:58:00.239,Kband
10,39,2022-11-27 13:59:00.260,Kband
11,38,2022-11-27 14:00:00.287,Kband
10,38,2022-11-27 14:01:00.286,Kband
11,39,2022-11-27 14:02:00.312,Kband
11,39,2022-11-27 14:03:00.232,Kband
9,38,2022-11-27 14:04:00.270,Kband
10,38,2022-11-27 14:05:00.316,Kband
9,38,2022-11-27 14:06:00.303,Kband
10,39,2022-11-27 14:07:00.280,Kband
11,38,2022-11-27 14:08:00.287,Kband
10,39,2022-11-27 14:09:00.209,Kband
10,38,2022-11-27 14:10:00.258,Kband
10,39,2022-11-27 14:11:00.437,Kband
10,38,2022-11-27 14:12:00.309,Kband
9,38,2022-11-27 14:13:00.272,Kband
10,38,2022-11-27 14:14:00.181,Kband
11,38,2022-11-27 14:15:00.170,Kband
9,38,2022-11-27 14:16:00.291,Kband
10,38,2022-11-27 14:17:00.284,Kband
10,39,2022-11-27 14:18:00.300,Kband
10,38,2022-11-27 14:19:00.274,Kband
9,39,2022-11-27 14:20:00.251,Kband
10,38,2022-11-27 14:21:00.308,Kband
9,38,2022-11-27 14:22:00.280,Kband
9,38,2022-11-27 14:23:00.306,Kband
10,38,2022-11-27 14:24:00.288,Kband
11,39,2022-11-27 14:25:00.219,Kband
10,39,2022-11-27 14:26:00.308,Kband
10,38,2022-11-27 14:27:00.294,Kband
10,39,2022-11-27 14:28:00.208,Kband
11,38,2022-11-27 14:29:00.261,Kband
10,38,2022-11-27 14:30:00.234,Kband
9,39,2022-11-27 14:31:00.277,Kband
11,38,2022-11-27 14:32:00.254,Kband
10,38,2022-11-27 14:33:00.269,Kband
10,38,2022-11-27 14:34:00.258,Kband
10,38,2022-11-27 14:35:00.307,Kband
10,38,2022-11-27 14:36:00.310,Kband
10,38,2022-11-27 14:37:00.289,Kband
10,38,2022-11-27 14:38:00.266,Kband
11,38,2022-11-27 14:39:00.186,Kband
9,38,2022-11-27 14:40:00.308,Kband
10,39,2022-11-27 14:41:00.253,Kband
11,38,2022-11-27 14:42:00.301,Kband
10,38,2022-11-27 14:43:00.301,Kband
11,38,2022-11-27 14:44:00.313,Kband
10,38,2022-11-27 14:45:00.372,Kband
11,38,2022-11-27 14:46:00.252,Kband
10,38,2022-11-27 14:47:00.312,Kband
10,38,2022-11-27 14:48:00.285,Kband
10,39,2022-11-27 14:49:00.234,Kband
10,38,2022-11-27 14:50:00.391,Kband
11,39,2022-11-27 14:51:00.303,Kband
10,38,2022-11-27 14:52:00.290,Kband
11,38,2022-11-27 14:53:00.221,Kband
10,38,2022-11-27 14:54:00.261,Kband
9,38,2022-11-27 14:55:00.300,Kband
11,38,2022-11-27 14:56:00.228,Kband
10,38,2022-11-27 14:57:00.316,Kband
9,39,2022-11-27 14:58:00.232,Kband
10,38,2022-11-27 14:59:00.307,Kband
10,39,2022-11-27 15:00:00.280,Kband
11,38,2022-11-27 15:01:00.242,Kband
10,38,2022-11-27 15:02:00.293,Kband
10,38,2022-11-27 15:03:00.258,Kband
10,38,2022-11-27 15:04:00.223,Kband
10,38,2022-11-27 15:05:00.269,Kband
10,38,2022-11-27 15:06:00.168,Kband
10,38,2022-11-27 15:07:00.252,Kband
10,39,2022-11-27 15:08:00.309,Kband
10,38,2022-11-27 15:09:00.284,Kband
10,38,2022-11-27 15:10:00.281,Kband
9,38,2022-11-27 15:11:00.251,Kband
10,38,2022-11-27 15:12:00.285,Kband
10,39,2022-11-27 15:13:00.232,Kband
9,38,2022-11-27 15:14:00.322,Kband
11,38,2022-11-27 15:15:00.264,Kband
11,39,2022-11-27 15:16:00.253,Kband
9,38,2022-11-27 15:17:00.243,Kband
10,38,2022-11-27 15:18:00.252,Kband
10,38,2022-11-27 15:19:00.265,Kband
9,39,2022-11-27 15:20:00.297,Kband
11,39,2022-11-27 15:21:00.280,Kband
10,39,2022-11-27 15:22:00.252,Kband
10,39,2022-11-27 15:23:00.298,Kband
10,38,2022-11-27 15:24:00.289,Kband
10,38,2022-11-27 15:25:00.305,Kband
11,39,2022-11-27 15:26:00.292,Kband
10,38,2022-11-27 15:27:00.257,Kband
10,38,2022-11-27 15:28:00.267,Kband
9,39,2022-11-27 15:29:00.202,Kband
10,38,2022-11-27 15:30:00.274,Kband
11,39,2022-11-27 15:31:00.235,Kband
10,39,2022-11-27 15:32:00.313,Kband
10,38,2022-11-27 15:33:00.294,Kband
11,38,2022-11-27 15:34:00.311,Kband
10,39,2022-11-27 15:35:00.300,Kband
11,39,2022-11-27 15:36:00.272,Kband
11,39,2022-11-27 15:37:00.274,Kband
9,38,2022-11-27 15:38:00.202,Kband
9,39,2022-11-27 15:39:00.208,Kband
11,39,2022-11-27 15:40:00.265,Kband
10,38,2022-11-27 15:41:00.255,Kband
10,39,2022-11-27 15:42:00.362,Kband
9,39,2022-11-27 15:43:00.167,Kband
10,38,2022-11-27 15:44:00.472,Kband
10,39,2022-11-27 15:45:00.220,Kband
9,38,2022-11-27 15:46:00.250,Kband
10,39,2022-11-27 15:47:00.298,Kband
9,38,2022-11-27 15:48:00.264,Kband
10,39,2022-11-27 15:49:00.292,Kband
10,38,2022-11-27 15:50:00.247,Kband
10,39,2022-11-27 15:51:00.265,Kband
10,38,2022-11-27 15:52:00.238,Kband
10,38,2022-11-27 15:53:00.247,Kband
10,39,2022-11-27 15:54:00.315,Kband
9,39,2022-11-27 15:55:00.218,Kband
10,38,2022-11-27 15:56:00.246,Kband
9,39,2022-11-27 15:57:00.265,Kband
10,39,2022-11-27 15:58:00.232,Kband
10,39,2022-11-27 15:59:00.380,Kband
9,38,2022-11-27 16:00:00.156,Kband
10,39,2022-11-27 16:01:00.294,Kband
10,38,2022-11-27 16:02:00.208,Kband
9,39,2022-11-27 16:03:00.287,Kband
10,39,2022-11-27 16:04:00.208,Kband
11,38,2022-11-27 16:05:00.246,Kband
10,38,2022-11-27 16:06:00.305,Kband
10,39,2022-11-27 16:07:00.227,Kband
10,39,2022-11-27 16:08:00.235,Kband
10,39,2022-11-27 16:09:00.304,Kband
10,39,2022-11-27 16:10:00.317,Kband
9,38,2022-11-27 16:11:00.301,Kband
11,39,2022-11-27 16:12:00.260,Kband
10,39,2022-11-27 16:13:00.287,Kband
10,38,2022-11-27 16:14:00.226,Kband
10,38,2022-11-27 16:15:00.225,Kband
10,39,2022-11-27 16:16:00.225,Kband
10,39,2022-11-27 16:17:00.211,Kband
10,38,2022-11-27 16:18:00.297,Kband
10,39,2022-11-27 16:19:00.205,Kband
10,38,2022-11-27 16:20:00.224,Kband
10,38,2022-11-27 16:21:00.254,Kband
10,39,2022-11-27 16:22:00.181,Kband
11,39,2022-11-27 16:23:00.260,Kband
10,39,2022-11-27 16:24:00.266,Kband
10,39,2022-11-27 16:25:00.224,Kband
9,38,2022-11-27 16:26:00.303,Kband
11,39,2022-11-27 16:27:00.218,Kband
10,39,2022-11-27 16:28:00.298,Kband
11,39,2022-11-27 16:29:00.290,Kband
11,38,2022-11-27 16:30:00.403,Kband
11,38,2022-11-27 16:31:00.273,Kband
10,38,2022-11-27 16:32:00.258,Kband
10,38,2022-11-27 16:33:00.235,Kband
9,39,2022-11-27 16:34:00.307,Kband
10,39,2022-11-27 16:35:00.277,Kband
10,38,2022-11-27 16:36:00.218,Kband
9,38,2022-11-27 16:37:00.280,Kband
11,38,2022-11-27 16:38:00.278,Kband
10,39,2022-11-27 16:39:00.288,Kband
9,38,2022-11-27 16:40:00.218,Kband
11,39,2022-11-27 16:41:00.296,Kband
10,39,2022-11-27 16:42:00.239,Kband
10,38,2022-11-27 16:43:00.230,Kband
11,38,2022-11-27 16:44:00.231,Kband
10,38,2022-11-27 16:45:00.243,Kband
10,38,2022-11-27 16:46:00.271,Kband
11,39,2022-11-27 16:47:00.263,Kband
10,39,2022-11-27 16:48:00.277,Kband
10,38,2022-11-27 16:49:00.302,Kband
10,38,2022-11-27 16:50:00.233,Kband
9,39,2022-11-27 16:51:00.245,Kband
10,39,2022-11-27 16:52:00.302,Kband
9,38,2022-11-27 16:53:00.280,Kband
11,39,2022-11-27 16:54:00.213,Kband
11,38,2022-11-27 16:55:00.292,Kband
9,38,2022-11-27 16:56:00.284,Kband
10,39,2022-11-27 16:57:00.256,Kband
10,38,2022-11-27 16:58:00.158,Kband
10,39,2022-11-27 16:59:00.295,Kband
11,38,2022-11-27 17:00:00.213,Kband
9,38,2022-11-27 17:01:00.254,Kband
10,39,2022-11-27 17:02:00.256,Kband
11,38,2022-11-27 17:03:00.254,Kband
9,38,2022-11-27 17:04:00.397,Kband
10,38,2022-11-27 17:05:00.244,Kband
10,38,2022-11-27 17:06:00.194,Kband
10,38,2022-11-27 17:07:00.233,Kband
10,38,2022-11-27 17:08:00.265,Kband
9,38,2022-11-27 17:09:00.261,Kband
10,38,2022-11-27 17:10:00.301,Kband
11,39,2022-11-27 17:11:00.223,Kband
10,38,2022-11-27 17:12:00.245,Kband
10,38,2022-11-27 17:13:00.274,Kband
10,38,2022-11-27 17:14:00.267,Kband
9,38,2022-11-27 17:15:00.287,Kband
11,38,2022-11-27 17:16:00.220,Kband
10,38,2022-11-27 17:17:00.300,Kband
10,38,2022-11-27 17:18:00.293,Kband
12,38,2022-11-27 17:19:00.282,Kband
12,38,2022-11-27 17:20:00.225,Kband
11,38,2022-11-27 17:21:00.213,Kband
13,38,2022-11-27 17:22:00.295,Kband
11,38,2022-11-27 17:23:00.365,Kband
12,38,2022-11-27 17:24:00.293,Kband
11,38,2022-11-27 17:25:00.221,Kband
12,38,2022-11-27 17:26:00.294,Kband
11,38,2022-11-27 17:27:00.228,Kband
11,38,2022-11-27 17:28:00.318,Kband
11,38,2022-11-27 17:29:00.290,Kband
11,38,2022-11-27 17:30:00.231,Kband
11,38,2022-11-27 17:31:00.253,Kband
11,38,2022-11-27 17:32:00.289,Kband
12,38,2022-11-27 17:33:00.288,Kband
11,38,2022-11-27 17:34:00.233,Kband
10,38,2022-11-27 17:35:00.267,Kband
11,38,2022-11-27 17:36:00.280,Kband
11,38,2022-11-27 17:37:00.245,Kband
10,38,2022-11-27 17:38:00.229,Kband
11,38,2022-11-27 17:39:00.293,Kband
11,38,2022-11-27 17:40:00.165,Kband
11,38,2022-11-27 17:41:00.251,Kband
11,38,2022-11-27 17:42:00.426,Kband
11,38,2022-11-27 17:43:00.280,Kband
12,38,2022-11-27 17:44:00.270,Kband
10,38,2022-11-27 17:45:00.291,Kband
11,38,2022-11-27 17:46:00.266,Kband
11,38,2022-11-27 17:47:00.211,Kband
11,38,2022-11-27 17:48:00.270,Kband
12,38,2022-11-27 17:49:00.239,Kband
10,38,2022-11-27 17:50:00.291,Kband
11,38,2022-11-27 17:51:00.246,Kband
12,38,2022-11-27 17:52:00.207,Kband
11,38,2022-11-27 17:53:00.270,Kband
11,38,2022-11-27 17:54:00.309,Kband
12,38,2022-11-27 17:55:00.231,Kband
11,38,2022-11-27 17:56:00.171,Kband
11,38,2022-11-27 17:57:00.211,Kband
11,38,2022-11-27 17:58:00.240,Kband
10,38,2022-11-27 17:59:00.272,Kband
10,38,2022-11-27 18:00:00.225,Kband
9,38,2022-11-27 18:01:00.169,Kband
10,38,2022-11-27 18:02:00.301,Kband
10,38,2022-11-27 18:03:00.222,Kband
10,38,2022-11-27 18:04:00.254,Kband
10,38,2022-11-27 18:05:00.257,Kband
10,39,2022-11-27 18:06:00.254,Kband
11,38,2022-11-27 18:07:00.277,Kband
10,38,2022-11-27 18:08:00.298,Kband
10,38,2022-11-27 18:09:00.313,Kband
10,39,2022-11-27 18:10:00.272,Kband
10,38,2022-11-27 18:11:00.251,Kband
10,38,2022-11-27 18:12:00.299,Kband
10,39,2022-11-27 18:13:00.187,Kband
11,38,2022-11-27 18:14:00.168,Kband
10,39,2022-11-27 18:15:00.307,Kband
11,38,2022-11-27 18:16:00.208,Kband
10,38,2022-11-27 18:17:00.304,Kband
10,39,2022-11-27 18:18:00.269,Kband
11,38,2022-11-27 18:19:00.450,Kband
11,38,2022-11-27 18:20:00.239,Kband
11,39,2022-11-27 18:21:00.310,Kband
10,39,2022-11-27 18:22:00.271,Kband
11,39,2022-11-27 18:23:00.161,Kband
10,38,2022-11-27 18:24:00.294,Kband
10,39,2022-11-27 18:25:00.293,Kband
11,39,2022-11-27 18:26:00.259,Kband
10,38,2022-11-27 18:27:00.247,Kband
11,39,2022-11-27 18:28:00.213,Kband
10,39,2022-11-27 18:29:00.210,Kband
11,39,2022-11-27 18:30:00.302,Kband
9,38,2022-11-27 18:31:00.242,Kband
10,38,2022-11-27 18:32:00.303,Kband
10,38,2022-11-27 18:33:00.267,Kband
10,38,2022-11-27 18:34:00.217,Kband
10,38,2022-11-27 18:35:00.246,Kband
11,38,2022-11-27 18:36:00.276,Kband
10,38,2022-11-27 18:37:00.217,Kband
10,38,2022-11-27 18:38:00.323,Kband
10,38,2022-11-27 18:39:00.186,Kband
10,38,2022-11-27 18:40:00.269,Kband
10,38,2022-11-27 18:41:00.194,Kband
10,38,2022-11-27 18:42:00.208,Kband
10,39,2022-11-27 18:43:00.198,Kband
10,38,2022-11-27 18:44:00.181,Kband
11,39,2022-11-27 18:45:00.254,Kband
10,38,2022-11-27 18:46:00.206,Kband
11,38,2022-11-27 18:47:00.247,Kband
10,38,2022-11-27 18:48:00.289,Kband
10,39,2022-11-27 18:49:00.276,Kband
11,38,2022-11-27 18:50:00.277,Kband
10,39,2022-11-27 18:51:00.262,Kband
10,38,2022-11-27 18:52:00.289,Kband
11,39,2022-11-27 18:53:00.260,Kband
11,38,2022-11-27 18:54:00.285,Kband
10,39,2022-11-27 18:55:00.354,Kband
11,39,2022-11-27 18:56:00.308,Kband
10,39,2022-11-27 18:57:00.299,Kband
10,39,2022-11-27 18:58:00.291,Kband
11,38,2022-11-27 18:59:00.272,Kband
10,39,2022-11-27 19:00:00.270,Kband
10,38,2022-11-27 19:01:00.261,Kband
11,38,2022-11-27 19:02:00.189,Kband
10,38,2022-11-27 19:03:00.314,Kband
11,38,2022-11-27 19:04:00.230,Kband
10,39,2022-11-27 19:05:00.217,Kband
11,39,2022-11-27 19:06:00.254,Kband
11,38,2022-11-27 19:07:00.222,Kband
11,39,2022-11-27 19:08:00.248,Kband
10,39,2022-11-27 19:09:00.239,Kband
10,38,2022-11-27 19:10:00.272,Kband
10,38,2022-11-27 19:11:00.288,Kband
10,38,2022-11-27 19:12:00.272,Kband
10,38,2022-11-27 19:13:00.221,Kband
10,39,2022-11-27 19:14:00.290,Kband
10,38,2022-11-27 19:15:00.220,Kband
10,38,2022-11-27 19:16:00.294,Kband
9,38,2022-11-27 19:17:00.212,Kband
10,38,2022-11-27 19:18:00.294,Kband
11,38,2022-11-27 19:19:00.270,Kband
11,38,2022-11-27 19:20:00.229,Kband
11,39,2022-11-27 19:21:00.249,Kband
10,39,2022-11-27 19:22:00.321,Kband
11,38,2022-11-27 19:23:00.213,Kband
12,38,2022-11-27 19:24:00.291,Kband
12,38,2022-11-27 19:25:00.205,Kband
12,38,2022-11-27 19:26:00.267,Kband
12,38,2022-11-27 19:27:00.234,Kband
12,38,2022-11-27 19:28:00.230,Kband
12,38,2022-11-27 19:29:00.163,Kband
12,38,2022-11-27 19:30:00.311,Kband
12,38,2022-11-27 19:31:00.239,Kband
11,38,2022-11-27 19:32:00.317,Kband
12,38,2022-11-27 19:33:00.262,Kband
11,38,2022-11-27 19:34:00.292,Kband
12,38,2022-11-27 19:35:00.390,Kband
12,38,2022-11-27 19:36:00.253,Kband
10,38,2022-11-27 19:37:00.268,Kband
12,38,2022-11-27 19:38:00.241,Kband
12,38,2022-11-27 19:39:00.285,Kband
11,38,2022-11-27 19:40:00.218,Kband
11,38,2022-11-27 19:41:00.294,Kband
10,38,2022-11-27 19:42:00.302,Kband
10,38,2022-11-27 19:43:00.177,Kband
9,38,2022-11-27 19:44:00.238,Kband
11,38,2022-11-27 19:45:00.299,Kband
10,38,2022-11-27 19:46:00.189,Kband
9,38,2022-11-27 19:47:00.303,Kband
11,38,2022-11-27 19:48:00.285,Kband
10,38,2022-11-27 19:49:00.253,Kband
10,39,2022-11-27 19:50:00.196,Kband
10,39,2022-11-27 19:51:00.256,Kband
10,38,2022-11-27 19:52:00.242,Kband
10,38,2022-11-27 19:53:00.206,Kband
10,39,2022-11-27 19:54:00.275,Kband
11,39,2022-11-27 19:55:00.307,Kband
10,38,2022-11-27 19:56:00.227,Kband
9,38,2022-11-27 19:57:00.306,Kband
10,38,2022-11-27 19:58:00.227,Kband
11,38,2022-11-27 19:59:00.300,Kband
10,39,2022-11-27 20:00:00.274,Kband
9,38,2022-11-27 20:01:00.256,Kband
11,39,2022-11-27 20:02:00.362,Kband
10,38,2022-11-27 20:03:00.299,Kband
10,39,2022-11-27 20:04:00.200,Kband
10,39,2022-11-27 20:05:00.309,Kband
11,39,2022-11-27 20:06:00.246,Kband
10,38,2022-11-27 20:07:00.288,Kband
10,39,2022-11-27 20:08:00.292,Kband
11,39,2022-11-27 20:09:00.386,Kband
10,39,2022-11-27 20:10:00.194,Kband
11,39,2022-11-27 20:11:00.313,Kband
10,38,2022-11-27 20:12:00.289,Kband
10,38,2022-11-27 20:13:00.238,Kband
11,38,2022-11-27 20:14:00.249,Kband
11,39,2022-11-27 20:15:00.303,Kband
9,39,2022-11-27 20:16:00.306,Kband
10,38,2022-11-27 20:17:00.372,Kband
10,39,2022-11-27 20:18:00.292,Kband
10,39,2022-11-27 20:19:00.197,Kband
11,38,2022-11-27 20:20:00.308,Kband
10,38,2022-11-27 20:21:00.308,Kband
11,38,2022-11-27 20:22:00.279,Kband
11,39,2022-11-27 20:23:00.241,Kband
11,39,2022-11-27 20:24:00.313,Kband
10,38,2022-11-27 20:25:00.214,Kband
11,38,2022-11-27 20:26:00.294,Kband
11,38,2022-11-27 20:27:00.214,Kband
9,38,2022-11-27 20:28:00.281,Kband
10,38,2022-11-27 20:29:00.250,Kband
11,38,2022-11-27 20:30:00.293,Kband
11,38,2022-11-27 20:31:00.302,Kband
11,39,2022-11-27 20:32:00.296,Kband
10,38,2022-11-27 20:33:00.286,Kband
11,39,2022-11-27 20:34:00.302,Kband
11,38,2022-11-27 20:35:00.172,Kband
10,39,2022-11-27 20:36:00.244,Kband
10,39,2022-11-27 20:37:00.223,Kband
11,38,2022-11-27 20:38:00.366,Kband
10,38,2022-11-27 20:39:00.232,Kband
10,38,2022-11-27 20:40:00.242,Kband
11,38,2022-11-27 20:41:00.306,Kband
11,38,2022-11-27 20:42:00.299,Kband
11,38,2022-11-27 20:43:00.291,Kband
12,38,2022-11-27 20:44:00.254,Kband
11,38,2022-11-27 20:45:00.249,Kband
11,38,2022-11-27 20:46:00.224,Kband
12,38,2022-11-27 20:47:00.196,Kband
11,38,2022-11-27 20:48:00.252,Kband
11,38,2022-11-27 20:49:00.314,Kband
11,38,2022-11-27 20:50:00.309,Kband
12,38,2022-11-27 20:51:00.298,Kband
11,38,2022-11-27 20:52:00.251,Kband
11,38,2022-11-27 20:53:00.295,Kband
12,38,2022-11-27 20:54:00.317,Kband
11,38,2022-11-27 20:55:00.194,Kband
11,38,2022-11-27 20:56:00.305,Kband
10,38,2022-11-27 20:57:00.247,Kband
10,38,2022-11-27 20:58:00.234,Kband
11,38,2022-11-27 20:59:00.177,Kband
11,38,2022-11-27 21:00:00.231,Kband
10,38,2022-11-27 21:01:00.362,Kband
10,38,2022-11-27 21:02:00.251,Kband
9,38,2022-11-27 21:03:00.298,Kband
11,38,2022-11-27 21:04:00.259,Kband
11,39,2022-11-27 21:05:00.303,Kband
9,38,2022-11-27 21:06:00.289,Kband
11,38,2022-11-27 21:07:00.262,Kband
10,39,2022-11-27 21:08:00.241,Kband
9,38,2022-11-27 21:09:00.240,Kband
10,38,2022-11-27 21:10:00.228,Kband
10,39,2022-11-27 21:11:00.421,Kband
10,38,2022-11-27 21:12:00.256,Kband
11,38,2022-11-27 21:13:00.222,Kband
10,39,2022-11-27 21:14:00.239,Kband
10,39,2022-11-27 21:15:00.312,Kband
11,39,2022-11-27 21:16:00.272,Kband
10,38,2022-11-27 21:17:00.276,Kband
10,38,2022-11-27 21:18:00.233,Kband
10,38,2022-11-27 21:19:00.293,Kband
10,38,2022-11-27 21:20:00.276,Kband
11,38,2022-11-27 21:21:00.191,Kband
10,38,2022-11-27 21:22:00.253,Kband
10,39,2022-11-27 21:23:00.253,Kband
10,38,2022-11-27 21:24:00.288,Kband
11,38,2022-11-27 21:25:00.237,Kband
11,38,2022-11-27 21:26:00.280,Kband
10,39,2022-11-27 21:27:00.253,Kband
11,38,2022-11-27 21:28:00.193,Kband
11,38,2022-11-27 21:29:00.296,Kband
11,38,2022-11-27 21:30:00.245,Kband
11,38,2022-11-27 21:31:00.241,Kband
12,38,2022-11-27 21:32:00.274,Kband
11,38,2022-11-27 21:33:00.152,Kband
12,38,2022-11-27 21:34:00.291,Kband
11,38,2022-11-27 21:35:00.227,Kband
11,38,2022-11-27 21:36:00.252,Kband
12,38,2022-11-27 21:37:00.238,Kband
12,38,2022-11-27 21:38:00.301,Kband
12,38,2022-11-27 21:39:00.224,Kband
11,38,2022-11-27 21:40:00.260,Kband
12,38,2022-11-27 21:41:00.396,Kband
11,38,2022-11-27 21:42:00.203,Kband
12,38,2022-11-27 21:43:00.306,Kband
12,38,2022-11-27 21:44:00.222,Kband
11,38,2022-11-27 21:45:00.313,Kband
12,38,2022-11-27 21:46:00.237,Kband
11,38,2022-11-27 21:47:00.260,Kband
11,38,2022-11-27 21:48:00.289,Kband
12,38,2022-11-27 21:49:00.284,Kband
11,38,2022-11-27 21:50:00.265,Kband
11,38,2022-11-27 21:51:00.230,Kband
10,38,2022-11-27 21:52:00.166,Kband
9,38,2022-11-27 21:53:00.307,Kband
11,38,2022-11-27 21:54:00.369,Kband
10,38,2022-11-27 21:55:00.281,Kband
9,38,2022-11-27 21:56:00.317,Kband
10,38,2022-11-27 21:57:00.280,Kband
10,38,2022-11-27 21:58:00.274,Kband
11,38,2022-11-27 21:59:00.385,Kband
9,38,2022-11-27 22:00:00.272,Kband
11,38,2022-11-27 22:01:00.208,Kband
9,38,2022-11-27 22:02:00.244,Kband
9,38,2022-11-27 22:03:00.288,Kband
10,38,2022-11-27 22:04:00.263,Kband
10,38,2022-11-27 22:05:00.156,Kband
9,39,2022-11-27 22:06:00.282,Kband
11,39,2022-11-27 22:07:00.247,Kband
10,39,2022-11-27 22:08:00.305,Kband
10,39,2022-11-27 22:09:00.228,Kband
10,38,2022-11-27 22:10:00.296,Kband
10,38,2022-11-27 22:11:00.286,Kband
10,38,2022-11-27 22:12:00.283,Kband
10,39,2022-11-27 22:13:00.313,Kband
11,39,2022-11-27 22:14:00.316,Kband
10,38,2022-11-27 22:15:00.237,Kband
10,39,2022-11-27 22:16:00.296,Kband
10,38,2022-11-27 22:17:00.304,Kband
11,38,2022-11-27 22:18:00.304,Kband
10,38,2022-11-27 22:19:00.264,Kband
11,38,2022-11-27 22:20:00.255,Kband
11,39,2022-11-27 22:21:00.291,Kband
10,38,2022-11-27 22:22:00.303,Kband
11,38,2022-11-27 22:23:00.225,Kband
10,38,2022-11-27 22:24:00.208,Kband
10,38,2022-11-27 22:25:00.208,Kband
11,38,2022-11-27 22:26:00.302,Kband
11,38,2022-11-27 22:27:00.245,Kband
10,38,2022-11-27 22:28:00.247,Kband
11,39,2022-11-27 22:29:00.249,Kband
12,38,2022-11-27 22:30:00.215,Kband
10,38,2022-11-27 22:31:00.225,Kband
10,39,2022-11-27 22:32:00.232,Kband
9,38,2022-11-27 22:33:00.199,Kband
11,38,2022-11-27 22:34:00.232,Kband
10,39,2022-11-27 22:35:00.218,Kband
10,39,2022-11-27 22:36:00.252,Kband
10,38,2022-11-27 22:37:00.202,Kband
9,38,2022-11-27 22:38:00.303,Kband
11,39,2022-11-27 22:39:00.284,Kband
10,38,2022-11-27 22:40:00.296,Kband
11,38,2022-11-27 22:41:00.247,Kband
11,38,2022-11-27 22:42:00.257,Kband
10,39,2022-11-27 22:43:00.243,Kband
10,38,2022-11-27 22:44:00.251,Kband
10,38,2022-11-27 22:45:00.202,Kband
11,38,2022-11-27 22:46:00.244,Kband
10,38,2022-11-27 22:47:00.271,Kband
11,39,2022-11-27 22:48:00.252,Kband
10,38,2022-11-27 22:49:00.301,Kband
12,38,2022-11-27 22:50:00.225,Kband
12,38,2022-11-27 22:51:00.239,Kband
12,38,2022-11-27 22:52:00.229,Kband
11,38,2022-11-27 22:53:00.246,Kband
12,38,2022-11-27 22:54:00.231,Kband
11,38,2022-11-27 22:55:00.366,Kband
11,38,2022-11-27 22:56:00.222,Kband
12,38,2022-11-27 22:57:00.221,Kband
12,38,2022-11-27 22:58:00.259,Kband
11,38,2022-11-27 22:59:00.259,Kband
12,38,2022-11-27 23:00:00.278,Kband
12,38,2022-11-27 23:01:00.208,Kband
11,38,2022-11-27 23:02:00.300,Kband
12,38,2022-11-27 23:03:00.158,Kband
12,38,2022-11-27 23:04:00.256,Kband
12,38,2022-11-27 23:05:00.265,Kband
11,38,2022-11-27 23:06:00.304,Kband
12,38,2022-11-27 23:07:00.283,Kband
12,38,2022-11-27 23:08:00.245,Kband
11,38,2022-11-27 23:09:00.228,Kband
11,38,2022-11-27 23:10:00.229,Kband
10,38,2022-11-27 23:11:00.209,Kband
10,38,2022-11-27 23:12:00.192,Kband
10,38,2022-11-27 23:13:00.238,Kband
10,38,2022-11-27 23:14:00.175,Kband
10,38,2022-11-27 23:15:00.242,Kband
10,38,2022-11-27 23:16:00.238,Kband
11,38,2022-11-27 23:17:00.249,Kband
10,38,2022-11-27 23:18:00.184,Kband
11,38,2022-11-27 23:19:00.212,Kband
11,38,2022-11-27 23:20:00.253,Kband
10,39,2022-11-27 23:21:00.287,Kband
11,38,2022-11-27 23:22:00.213,Kband
9,39,2022-11-27 23:23:00.257,Kband
11,39,2022-11-27 23:24:00.372,Kband
11,38,2022-11-27 23:25:00.239,Kband
9,39,2022-11-27 23:26:00.316,Kband
11,38,2022-11-27 23:27:00.253,Kband
10,38,2022-11-27 23:28:00.264,Kband
9,38,2022-11-27 23:29:00.244,Kband
10,38,2022-11-27 23:30:00.168,Kband
10,38,2022-11-27 23:31:00.310,Kband
9,39,2022-11-27 23:32:00.201,Kband
11,39,2022-11-27 23:33:00.230,Kband
10,38,2022-11-27 23:34:00.255,Kband
9,39,2022-11-27 23:35:00.238,Kband
11,38,2022-11-27 23:36:00.268,Kband
11,39,2022-11-27 23:37:00.242,Kband
10,38,2022-11-27 23:38:00.296,Kband
11,38,2022-11-27 23:39:00.293,Kband
10,38,2022-11-27 23:40:00.254,Kband
10,38,2022-11-27 23:41:00.272,Kband
10,38,2022-11-27 23:42:00.240,Kband
10,38,2022-11-27 23:43:00.177,Kband
11,38,2022-11-27 23:44:00.252,Kband
11,38,2022-11-27 23:45:00.300,Kband
9,39,2022-11-27 23:46:00.230,Kband
11,38,2022-11-27 23:47:00.232,Kband
11,38,2022-11-27 23:48:00.184,Kband
10,38,2022-11-27 23:49:00.298,Kband
10,38,2022-11-27 23:50:00.292,Kband
10,38,2022-11-27 23:51:00.284,Kband
10,39,2022-11-27 23:52:00.293,Kband
10,39,2022-11-27 23:53:00.314,Kband
11,38,2022-11-27 23:54:00.264,Kband
11,38,2022-11-27 23:55:00.248,Kband
10,38,2022-11-27 23:56:00.429,Kband
11,38,2022-11-27 23:57:00.314,Kband
10,38,2022-11-27 23:58:00.246,Kband
11,38,2022-11-27 23:59:00.275,Kband
